date,open,high,close,low,volume,price_change,p_change,ma5,ma10,ma20,v_ma5,v_ma10,v_ma20
2015-12-03,3709.547,3758.446,3749.299,3693.137,197762128.0,27.344,0.73,3637.271,3700.9,3743.212,185995616.0,176141028.8,205364755.2
2015-12-02,3587.758,3725.854,3721.955,3573.403,213538864.0,130.259,3.63,3639.297,3703.467,3741.045,181148284.8,171828014.4,215378976.8
2015-12-01,3562.319,3617.305,3591.696,3536.116,136536560.0,25.284,0.71,3651.227,3702.829,3736.375,168829500.8,169043076.8,214973227.2
2015-11-30,3554.89,3587.97,3566.412,3455.068,173201168.0,9.42,0.27,3683.666,3719.498,3730.064,170198844.8,180242728.0,213216492.8
2015-11-27,3739.096,3742.742,3556.992,3534.39,208939360.0,-202.437,-5.38,3721.05,3739.27,3725.542,170683974.4,179091700.8,211056562.8
2015-11-26,3795.245,3805.844,3759.429,3756.823,173525472.0,-22.178,-0.59,3764.529,3758.195,3724.396,166286441.6,178546753.6,207566690.8
2015-11-25,3747.759,3781.857,3781.607,3735.716,151944944.0,27.718,0.74,3767.637,3761.784,3713.09,162507744.0,182947971.2,205240939.6
2015-11-24,3745.761,3754.169,3753.889,3702.737,143383280.0,0.554,0.01,3754.431,3766.988,3700.256,169256652.8,190976907.2,206192547.6
2015-11-23,3774.436,3802.851,3753.335,3743.405,175626816.0,-21.048,-0.56,3755.331,3774.923,3692.205,190286611.2,205290540.8,208626190.8
2015-11-20,3778.884,3793.545,3774.383,3757.026,186951696.0,-0.586,-0.02,3757.489,3783.625,3684.002,187499427.2,223408342.4,210057293.2
2015-11-19,3725.622,3775.232,3774.969,3714.675,154631984.0,59.389,1.6,3751.861,3785.524,3673.845,190807065.6,234588481.6,210624432.4
2015-11-18,3760.456,3771.847,3715.58,3706.31,185689488.0,-42.807,-1.14,3755.932,3778.624,3661.323,203388198.4,258929939.2,212108112.4
2015-11-17,3790.426,3852.774,3758.387,3750.157,248533072.0,-5.739,-0.15,3779.545,3769.92,3649.207,212697161.6,260903377.6,216927441.2
2015-11-16,3682.735,3764.409,3764.126,3680.073,161690896.0,17.884,0.48,3794.515,3740.631,3640.172,220294470.4,246190257.6,213452042.8
2015-11-13,3756.204,3793.713,3746.242,3727.585,203489888.0,-49.082,-1.29,3809.761,3711.814,3628.675,259317257.6,243021424.8,215747835.6
2015-11-12,3841.738,3843.9,3795.324,3771.274,217537648.0,-38.322,-1.0,3819.187,3690.598,3618.066,278369897.6,236586628.0,216021576.4
2015-11-11,3828.448,3843.112,3833.646,3781.41,232234304.0,0.408,0.01,3801.317,3664.396,3602.641,314471680.0,227533908.0,213702609.2
2015-11-10,3806.669,3876.49,3833.238,3798.821,286519616.0,-7.117,-0.18,3760.295,3633.524,3581.264,309109593.6,221408188.0,209699590.8
2015-11-09,3796.379,3891.773,3840.355,3796.379,356804832.0,46.981,1.24,3686.746,3609.488,3561.854,272086044.8,211961840.8,202645299.6
2015-11-06,3698.342,3801.705,3793.374,3694.657,298753088.0,87.404,2.36,3613.867,3584.378,3542.221,226725592.0,196706244.0,195875081.2
2015-11-05,3630.782,3781.409,3705.97,3627.301,398046560.0,77.432,2.13,3562.008,3562.165,3519.558,194803358.4,186660383.2,187155051.6
2015-11-04,3477.159,3628.538,3628.538,3477.159,205423872.0,163.045,4.71,3527.476,3544.021,3499.084,140596136.0,165286285.6,173856812.0
2015-11-03,3484.722,3501.704,3465.493,3452.62,101401872.0,-10.469,-0.3,3506.752,3528.493,3477.804,133706782.4,172951504.8,167513586.0
2015-11-02,3489.225,3543.45,3475.962,3474.712,130002568.0,-58.117,-1.64,3532.229,3539.714,3464.677,151837636.8,180713828.0,166371460.0
2015-10-30,3530.223,3574.473,3534.079,3497.568,139141920.0,0.772,0.02,3554.889,3545.536,3449.822,166686896.0,188474246.4,164228863.2
2015-10-29,3539.978,3561.814,3533.307,3507.966,127010448.0,8.387,0.24,3562.322,3545.535,3435.255,178517408.0,195456524.8,160982740.8
2015-10-28,3575.805,3598.172,3524.92,3517.21,170977104.0,-67.959,-1.89,3560.567,3540.885,3420.188,189976435.2,199871310.4,160703182.4
2015-10-27,3569.449,3601.053,3592.879,3486.102,192056144.0,3.618,0.1,3550.234,3529.005,3408.192,212196227.2,197990993.6,157254889.2
2015-10-26,3614.702,3620.756,3589.261,3561.192,204248864.0,18.02,0.51,3547.199,3514.221,3391.699,209590019.2,193328758.4,153810654.0
2015-10-23,3536.843,3581.836,3571.241,3515.822,198294480.0,46.707,1.32,3536.183,3500.064,3379.188,210261596.8,195043918.4,150909310.0
2015-10-22,3453.201,3530.766,3524.534,3442.307,184305584.0,51.28,1.48,3528.748,3476.952,3366.038,212395641.6,187649720.0,147134019.6
2015-10-21,3580.838,3601.243,3473.254,3417.412,282076064.0,-104.449,-2.92,3521.204,3454.147,3352.375,209766185.6,182427338.4,143263914.4
2015-10-20,3527.875,3577.798,3577.703,3510.437,179025104.0,43.521,1.23,3507.775,3427.116,3340.562,183785760.0,162075667.2,137630205.6
2015-10-19,3548.953,3572.995,3534.182,3502.505,207606752.0,0.117,0.0,3481.243,3389.64,3327.139,177067497.6,152029092.0,136664450.4
2015-10-16,3508.518,3537.539,3534.065,3487.104,208964704.0,47.25,1.35,3463.946,3354.108,3308.042,179826240.0,139983480.0,133461895.2
2015-10-15,3403.389,3486.815,3486.815,3402.316,171158304.0,80.703,2.37,3425.156,3324.976,3295.395,162903798.4,126508956.8,133286522.4
2015-10-14,3431.135,3458.702,3406.112,3403.231,152173936.0,-38.931,-1.13,3387.089,3299.49,3288.414,155088491.2,121535054.4,130155982.4
2015-10-13,3422.477,3452.045,3445.043,3413.967,145433792.0,-2.65,-0.08,3346.456,3287.379,3285.986,140365574.4,116518784.8,129791434.4
2015-10-12,3351.139,3486.631,3447.693,3347.251,221400464.0,107.577,3.22,3298.037,3269.177,3283.699,126990686.4,114292549.6,133543116.0
2015-10-09,3302.36,3352.379,3340.116,3293.965,124352496.0,43.634,1.32,3244.27,3258.311,3278.016,100140720.0,106774701.6,130203074.4
2015-10-08,3324.981,3337.331,3296.482,3294.605,132081768.0,93.534,2.92,3224.797,3255.124,3273.534,90114115.2,106618319.2,134196671.2
2015-10-07,3195.901,3223.908,3202.948,3186.767,78559352.0,24.094,0.76,3211.891,3250.603,3277.002,87981617.6,104100490.4,144982053.2
2015-09-30,3195.901,3223.908,3202.948,3186.767,78559352.0,24.094,0.76,3228.301,3254.008,3284.959,92671995.2,113184744.0,158677012.0
2015-09-29,3197.221,3208.417,3178.854,3159.042,87150632.0,-63.898,-1.97,3240.317,3264.638,3293.138,101594412.8,121299808.8,168761564.4
2015-09-28,3226.607,3246.554,3242.752,3186.507,74219472.0,10.801,0.33,3272.352,3261.976,3301.31,113408683.2,126940310.4,179378954.4
2015-09-25,3272.665,3290.858,3231.951,3201.914,121419280.0,-53.048,-1.61,3285.451,3265.814,3299.454,123122523.2,140064088.0,189032727.2
2015-09-24,3278.896,3300.857,3284.999,3255.902,102011240.0,21.971,0.67,3289.315,3277.338,3289.141,120219363.2,138776910.4,198375294.4
2015-09-23,3290.071,3315.935,3263.028,3253.333,123171440.0,-76.002,-2.28,3279.715,3284.594,3277.037,133697492.8,143064084.0,207078798.0
2015-09-22,3312.366,3371.414,3339.03,3303.184,146221984.0,30.783,0.93,3288.959,3298.222,3277.663,141005204.8,152793682.4,213692058.8
2015-09-21,3222.603,3312.55,3308.247,3211.934,122788672.0,56.974,1.75,3251.6,3297.721,3290.188,140471937.6,153631447.2,217280279.6
2015-09-18,3254.443,3280.877,3251.273,3227.834,106903480.0,14.274,0.44,3246.177,3291.945,3312.848,157005652.8,161775023.2,221749244.4
2015-09-17,3287.657,3354.905,3236.999,3236.999,169401888.0,-72.249,-2.18,3265.36,3303.401,3344.591,157334457.6,185863616.0,229856561.6
2015-09-16,3149.158,3345.918,3309.248,3131.37,159710000.0,157.016,4.98,3289.472,3315.909,3374.012,152430675.2,204169280.0,237380520.0
2015-09-15,3208.744,3240.079,3152.232,3131.98,143555648.0,-128.9,-3.93,3307.484,3321.638,3412.443,164582160.0,216223320.0,242242001.6
2015-09-14,3367.642,3373.921,3281.132,3187.566,205457248.0,-66.056,-1.97,3343.842,3340.643,3458.509,166790956.8,231817598.4,247733868.8
2015-09-11,3349.877,3383.134,3347.188,3315.478,108547504.0,-10.373,-0.31,3337.712,3333.094,3498.225,166544393.6,238001366.4,249602855.2
2015-09-10,3349.281,3398.316,3357.561,3337.311,144882976.0,-41.744,-1.23,3341.441,3300.944,3531.672,214392774.4,257973678.4,256932789.6
2015-09-09,3344.824,3426.651,3399.305,3330.29,220467424.0,65.282,1.96,3342.346,3269.481,3567.127,255907884.8,271093512.0,265790349.6
2015-09-08,3221.789,3340.219,3334.023,3170.807,154599632.0,83.538,2.57,3335.792,3257.104,3601.38,267864480.0,274590435.2,270106005.6
2015-09-07,3347.293,3422.225,3250.485,3240.243,204224432.0,-115.347,-3.43,3337.444,3282.655,3630.027,296844240.0,280929112.0,271543481.6
2015-09-02,3220.851,3387.02,3365.832,3213.637,347789408.0,3.749,0.11,3328.475,3333.752,3659.095,309458339.2,281723465.6,268696194.4
2015-09-01,3296.529,3370.504,3362.083,3190.578,352458528.0,-4.453,-0.13,3260.447,3385.782,3684.148,301554582.4,273849507.2,261330937.6
2015-08-31,3307.396,3368.279,3366.536,3205.537,280250400.0,24.25,0.73,3196.616,3432.115,3713.452,286279139.2,270591760.0,254719839.2
2015-08-28,3246.236,3353.244,3342.286,3223.622,299498432.0,136.648,4.26,3178.415,3503.249,3736.587,281316390.4,268260683.2,252997570.4
2015-08-27,3092.812,3206.724,3205.638,3028.398,267294928.0,179.946,5.95,3227.865,3576.374,3760.308,265013984.0,263650139.2,249141487.2
2015-08-26,3062.566,3192.932,3025.692,2952.008,308270624.0,-17.235,-0.57,3339.029,3663.357,3790.796,253988592.0,261204344.0,249354174.4
2015-08-25,3070.007,3200.108,3042.927,3019.556,276081312.0,-232.607,-7.1,3511.117,3762.4,3836.031,246144432.0,255891900.8,247789284.8
2015-08-24,3454.598,3468.149,3275.534,3266.55,255436656.0,-314.002,-8.75,3667.614,3864.774,3874.439,254904380.8,260487187.2,253161580.8
2015-08-21,3714.289,3757.779,3589.536,3578.175,217986400.0,-171.918,-4.57,3828.082,3945.657,3901.599,255204976.0,265621576.0,258642472.8
2015-08-20,3848.403,3880.824,3761.454,3761.454,212167968.0,-124.682,-3.21,3924.883,3977.398,3930.936,262286294.4,262157851.2,267345421.6
2015-08-19,3748.266,3898.74,3886.136,3668.192,269049824.0,60.724,1.59,3987.685,3984.438,3955.403,268420096.0,255668923.2,274460610.4
2015-08-18,4084.311,4103.054,3825.412,3816.554,319881056.0,-252.46,-6.19,4013.683,3982.514,3968.955,265639369.6,248812368.0,276955418.4
2015-08-17,4058.113,4081.772,4077.872,4009.99,256939632.0,4.332,0.11,4061.934,3994.789,3985.984,266069993.6,238847918.4,276880112.8
2015-08-14,4097.918,4113.159,4073.54,4056.727,253392992.0,-1.923,-0.05,4063.233,3969.925,3990.121,276038176.0,237734457.6,281666804.8
2015-08-13,4010.013,4075.7,4075.463,3967.821,242836976.0,59.337,1.48,4029.914,3944.241,3994.019,262029408.0,234632835.2,285552512.0
2015-08-12,4025.674,4078.03,4016.126,4015.355,255146192.0,-50.543,-1.24,3981.191,3918.236,3990.114,242917750.4,237504004.8,289937231.2
2015-08-11,4083.589,4110.133,4066.669,4042.004,322034176.0,-17.696,-0.43,3951.346,3909.661,3987.645,231985366.4,239686668.8,298277739.2
2015-08-10,3947.472,4101.731,4084.365,3932.842,306780544.0,177.42,4.54,3927.643,3884.104,3989.919,211625843.2,245835974.4,304897131.2
2015-08-07,3866.43,3926.649,3906.945,3857.908,183349152.0,75.093,1.96,3876.617,3857.54,3996.292,199430739.2,251663369.6,314662713.6
2015-08-06,3802.928,3888.693,3831.852,3793.237,147278688.0,-35.048,-0.91,3858.568,3884.474,4006.272,207236262.4,272532992.0,330530345.6
2015-08-05,3937.623,3962.277,3866.9,3858.66,200484272.0,-81.255,-2.06,3855.28,3926.369,4009.561,232090259.2,293252297.6,348359942.4
2015-08-04,3827.373,3948.449,3948.155,3801.028,220236560.0,118.92,3.11,3867.976,3955.395,3999.368,247387971.2,305098468.8,367409082.4
2015-08-03,3766.072,3829.235,3829.235,3742.578,245805024.0,12.536,0.33,3840.564,3977.18,3998.36,280046105.6,314912307.2,390366505.6
2015-07-31,3777.155,3863.624,3816.699,3757.989,222376768.0,1.287,0.03,3838.463,4010.318,4006.825,303896000.0,325599152.0,410480980.8
2015-07-30,3915.78,3968.534,3815.412,3802.882,271548672.0,-114.967,-2.92,3910.379,4043.797,4010.286,337829721.6,336472188.8,420827185.6
2015-07-29,3839.959,3934.003,3930.379,3769.189,276972832.0,119.286,3.13,3997.457,4061.992,4024.915,354414336.0,342370457.6,430102862.4
2015-07-28,3690.974,3883.446,3811.093,3627.421,383527232.0,-7.638,-0.2,4042.814,4065.63,4041.048,362808966.4,356868809.6,437840291.2
2015-07-27,4097.796,4156.313,3818.731,3817.169,365054496.0,-357.548,-8.56,4113.796,4095.735,4074.143,349778508.8,363958288.0,445016193.6
2015-07-24,4255.198,4299.65,4176.279,4154.617,392045376.0,-74.526,-1.75,4182.172,4135.043,4092.784,347302304.0,377662057.6,453046593.6
2015-07-23,4158.932,4262.062,4250.805,4148.824,354471744.0,93.645,2.25,4177.216,4128.071,4100.78,335114656.0,388527699.2,455776313.6
2015-07-22,4148.56,4187.431,4157.16,4094.712,318945984.0,-8.846,-0.21,4126.526,4092.753,4123.565,330326579.2,403467587.2,460359524.8
2015-07-21,4109.761,4201.482,4166.006,4081.704,318374944.0,5.394,0.13,4088.446,4043.341,4159.713,350928652.8,429719696.0,466144161.6
2015-07-20,4157.06,4221.693,4160.612,4106.389,352673472.0,9.116,0.22,4077.674,4019.541,4190.718,378138067.2,465820704.0,468479811.2
2015-07-17,4023.757,4190.186,4151.496,4000.231,331107136.0,154.14,3.86,4087.914,4003.333,4214.54,408021811.2,495362809.6,468751374.4
2015-07-16,3949.639,4067.022,3997.356,3856.321,330531360.0,30.597,0.77,4078.926,3976.775,4253.492,441940742.4,505182182.4,470415808.0
2015-07-15,4068.88,4114.243,3966.759,3899.508,421956352.0,-145.39,-3.54,4058.98,3987.839,4310.566,476608595.2,517835267.2,473745449.6
2015-07-14,4178.63,4258.513,4112.149,4062.5,454422016.0,-99.663,-2.37,3998.236,4016.466,4365.469,508510739.2,518811772.8,473231414.4
2015-07-13,4132.231,4278.161,4211.812,4072.43,502092192.0,105.256,2.56,3961.407,4052.55,4420.92,553503340.8,526074099.2,474297598.4
2015-07-10,3916.272,4179.111,4106.556,3887.551,500701792.0,208.93,5.36,3918.752,4050.524,4477.085,582703808.0,528431129.6,470699558.4
2015-07-09,3621.68,3930.264,3897.626,3537.826,503870624.0,234.588,6.4,3874.624,4073.488,4537.087,568423622.4,523024928.0,465281406.4
2015-07-08,3651.06,3762.622,3663.038,3612.254,581467072.0,-264.965,-6.75,3916.698,4154.377,4607.661,559061939.2,517251462.4,462196158.4
2015-07-07,3877.854,3960.636,3928.003,3743.624,679385024.0,-70.534,-1.76,4034.695,4276.086,4690.382,529112806.4,502568627.2,461644168.0
2015-07-06,4218.266,4218.266,3998.537,3832.468,648094528.0,112.62,2.9,4143.694,4361.895,4761.67,498644857.6,471138918.4,459540577.6
2015-07-03,4017.202,4164.629,3885.917,3785.902,429300864.0,-222.079,-5.41,4182.296,4425.746,4823.271,474158451.2,442139939.2,454433912.0
2015-07-02,4287.734,4312.19,4107.996,4000.061,457062208.0,-145.025,-3.41,4272.352,4530.209,4888.045,477626233.6,435649433.6,457107232.0
2015-07-01,4408.984,4526.127,4253.021,4235.696,431721408.0,-219.977,-4.92,4392.056,4633.293,4939.825,475440985.6,429655632.0,454967035.2
2015-06-30,4161.067,4475.767,4472.998,4016.013,527045280.0,281.449,6.71,4517.477,4714.473,4985.268,476024448.0,427651056.0,454029624.0
2015-06-29,4446.842,4451.166,4191.549,4000.926,525662496.0,-144.646,-3.34,4580.095,4789.29,5015.427,443632979.2,422521097.6,448552547.2
2015-06-26,4573.872,4650.186,4336.195,4278.675,446639776.0,-370.321,-7.87,4669.196,4903.646,5047.891,410121427.2,412967987.2,443663364.8
2015-06-25,4906.242,4919.263,4706.516,4667.224,446135968.0,-173.61,-3.56,4788.067,5000.686,5072.781,393672633.6,407537884.8,449922828.8
2015-06-24,4811.595,4883.732,4880.126,4744.306,434638720.0,94.035,1.97,4874.53,5060.945,5096.527,383870278.4,407140854.4,451155966.4
2015-06-23,4641.425,4786.955,4786.091,4455.33,365087936.0,149.039,3.21,4911.469,5104.679,5112.467,379277664.0,420719708.8,453821497.6
2015-06-19,4847.057,4910.45,4637.052,4634.691,358104736.0,-293.497,-5.95,4998.484,5161.445,5128.137,401409216.0,447942236.8,458853929.6
2015-06-18,5107.695,5121.218,4930.549,4926.429,364395808.0,-208.282,-4.05,5138.097,5220.795,5143.851,415814547.2,466727884.8,463741028.8
2015-06-17,5072.306,5158.367,5138.831,4949.293,397124192.0,74.01,1.46,5213.305,5245.882,5139.372,421403136.0,478565030.4,460773964.8
2015-06-16,5165.025,5204.303,5064.821,5015.265,411675648.0,-156.346,-2.99,5247.361,5246.358,5120.177,430411430.4,480278438.4,459076792.0
2015-06-15,5354.014,5362.452,5221.167,5207.308,475745696.0,-113.948,-2.14,5297.889,5256.062,5103.497,462161753.6,480408192.0,454232307.2
2015-06-12,5329.278,5351.648,5335.115,5283.086,430131392.0,28.525,0.54,5324.406,5241.564,5071.196,494475257.6,474583996.8,443904046.4
2015-06-11,5305.141,5329.295,5306.59,5248.163,392338752.0,-2.522,-0.05,5303.493,5192.135,5035.313,517641222.4,474358742.4,438819035.2
2015-06-10,5254.304,5374.83,5309.112,5209.68,442165664.0,-8.349,-0.16,5278.458,5144.877,5005.023,535726924.8,492307772.8,436088355.2
2015-06-09,5379.47,5380.426,5317.461,5251.208,570427264.0,-36.29,-0.68,5245.354,5132.109,4975.489,530145446.4,495171078.4,432516593.6
2015-06-08,5259.408,5370.609,5353.751,5202.595,637313216.0,123.199,2.35,5214.236,5120.255,4946.987,498654630.4,486923286.4,422847924.8
2015-06-05,5254.905,5288.34,5230.552,5104.178,545961216.0,49.136,0.95,5158.721,5094.829,4913.826,454692736.0,469765622.4,409674185.6
2015-06-04,5156.012,5194.233,5181.416,4863.465,482767264.0,37.826,0.73,5080.777,5066.907,4880.219,431076262.4,460754172.8,397496523.2
2015-06-03,5176.597,5186.967,5143.59,5059.495,414258272.0,-18.28,-0.35,5011.295,5032.863,4844.652,448888620.8,442982899.2,388246120.0
2015-06-02,5091.272,5162.556,5161.87,5047.081,412973184.0,85.691,1.69,5018.864,4993.996,4815.139,460196710.4,437875145.6,386336891.2
2015-06-01,4862.756,5079.319,5076.179,4835.774,417503744.0,235.35,4.86,5026.273,4950.931,4786.887,475191942.4,428056422.4,388709212.8
2015-05-29,4839.53,4924.303,4840.829,4665.521,427878848.0,6.822,0.14,5030.937,4900.828,4772.466,484838508.8,413224096.0,386726217.6
2015-05-28,5174.101,5213.183,4834.007,4831.329,571829056.0,-347.427,-6.71,5053.038,4878.492,4767.918,490432083.2,403279328.0,385318648.0
2015-05-27,5216.17,5226.844,5181.434,5126.861,470798720.0,-17.484,-0.34,5054.432,4865.169,4764.934,437077177.6,379868937.6,376480044.8
2015-05-26,5140.798,5199.295,5198.918,5063.146,487949344.0,99.423,1.95,4969.129,4818.869,4742.956,415553580.8,369862108.8,383372035.2
2015-05-25,4949.11,5099.839,5099.495,4949.11,465736576.0,148.16,2.99,4875.589,4773.719,4723.389,380920902.4,358772563.2,384628395.2
2015-05-22,4895.925,4951.991,4951.335,4870.598,455846720.0,110.359,2.28,4770.718,4732.823,4703.547,341609683.2,349582748.8,385349212.8
2015-05-21,4768.689,4841.615,4840.976,4746.029,305054528.0,86.057,1.81,4703.945,4693.53,4693.025,316126572.8,334238873.6,387428424.0
2015-05-20,4751.572,4843.1,4754.919,4745.21,363180736.0,23.697,0.5,4675.906,4656.441,4687.966,322660697.6,333509340.8,397986387.2
2015-05-19,4577.637,4740.005,4731.222,4577.637,314785952.0,156.082,3.41,4668.609,4636.282,4681.179,324170636.8,334798636.8,404343099.2
2015-05-18,4582.058,4623.383,4575.14,4565.061,269180480.0,-42.33,-0.92,4671.849,4622.843,4670.714,336624224.0,349362003.2,422925756.8
2015-05-15,4690.755,4690.755,4617.47,4592.05,328431168.0,-83.308,-1.77,4694.927,4644.103,4671.763,357555814.4,360228339.2,437106867.2
2015-05-14,4717.955,4735.284,4700.778,4670.168,337725152.0,-17.658,-0.37,4683.114,4657.345,4666.567,352351174.4,367357968.0,441815496.0
2015-05-13,4746.713,4758.002,4718.436,4678.845,370730432.0,-28.985,-0.61,4636.976,4664.7,4650.554,344357984.0,373091152.0,448536945.6
2015-05-12,4692.122,4748.004,4747.421,4660.016,377053888.0,56.889,1.21,4603.955,4667.042,4636.541,345426636.8,396881961.6,451722030.4
2015-05-11,4582.091,4690.954,4690.532,4535.149,373838432.0,132.128,2.9,4573.838,4673.059,4620.224,362099782.4,410484227.2,454576987.2
2015-05-08,4515.554,4559.058,4558.404,4445.592,302407968.0,88.315,1.98,4593.28,4674.27,4602.918,362900864.0,421115676.8,453294574.4
2015-05-07,4520.818,4546.338,4470.089,4467.459,297759200.0,-83.238,-1.83,4631.576,4692.519,4588.105,382364761.6,440617974.4,460159171.2
2015-05-06,4626.231,4700.909,4553.327,4511.761,376073696.0,-43.51,-0.95,4692.423,4719.492,4579.39,401824320.0,462463433.6,468205046.4
2015-05-05,4785.192,4785.192,4596.837,4572.983,460419616.0,-190.904,-3.99,4730.13,4726.075,4564.726,448337286.4,473887561.6,470169494.4
2015-05-04,4757.637,4795.915,4787.741,4699.398,377843840.0,37.855,0.8,4772.281,4718.584,4543.411,458868672.0,496489510.4,463213702.4
2015-04-30,4788.412,4818.725,4749.886,4749.485,399727456.0,-24.44,-0.51,4755.261,4699.423,4510.263,479330489.6,513985395.2,461275035.2
2015-04-29,4722.903,4797.927,4774.326,4695.793,395056992.0,32.465,0.69,4753.462,4675.789,4478.964,498871187.2,516273024.0,457764305.6
2015-04-28,4811.319,4839.078,4741.861,4703.567,608638528.0,-65.731,-1.37,4746.56,4636.408,4442.807,523102547.2,523982739.2,459814737.6
2015-04-27,4753.871,4810.485,4807.592,4735.31,513076544.0,104.951,2.23,4722.021,4606.04,4410.123,499437836.8,506562099.2,450797662.4
2015-04-24,4682.626,4730.43,4702.641,4618.318,480152928.0,-38.251,-0.81,4664.886,4567.388,4368.329,534110348.8,498669747.2,440081638.4
2015-04-23,4764.481,4782.044,4740.892,4693.967,497430944.0,1.078,0.02,4643.585,4531.566,4330.696,548640300.8,485473472.0,433411808.0
2015-04-22,4637.055,4740.933,4739.814,4632.589,516213792.0,120.65,2.61,4598.116,4483.69,4290.672,533674860.8,479700368.0,427538704.0
2015-04-21,4520.461,4620.058,4619.164,4504.558,490314976.0,97.245,2.15,4526.256,4439.289,4252.334,524862931.2,473946659.2,425157080.0
2015-04-20,4615.034,4671.168,4521.919,4492.6,686439104.0,-74.217,-1.61,4490.06,4403.377,4219.979,513686361.6,466451427.2,420197328.0
2015-04-17,4578.679,4630.27,4596.136,4553.904,552802688.0,82.59,1.83,4469.89,4368.239,4188.512,463229145.6,429937894.4,405966249.6
2015-04-16,4355.491,4513.765,4513.546,4335.63,422603744.0,133.033,3.04,4419.546,4321.103,4150.692,422306643.2,408564675.2,397903496.0
2015-04-15,4439.314,4475.997,4380.513,4379.609,472154144.0,-57.671,-1.3,4369.265,4282.138,4117.317,425725875.2,399255587.2,397532809.6
2015-04-14,4432.126,4474.353,4438.184,4385.908,434432128.0,17.111,0.39,4352.323,4249.207,4086.148,423030387.2,395646736.0,392506385.6
2015-04-13,4394.047,4432.024,4421.073,4361.589,434153024.0,76.657,1.76,4316.695,4214.207,4049.522,419216492.8,395033225.6,384556694.4
2015-04-10,4249.383,4351.687,4344.416,4231.196,348190176.0,82.278,1.93,4266.588,4169.269,4009.351,396646643.2,381493529.6,375192281.6
2015-04-09,4316.958,4332.166,4262.138,4212.611,439699904.0,-33.665,-0.78,4222.66,4129.827,3971.773,394822707.2,381350144.0,371066004.0
2015-04-08,4277.45,4304.78,4295.803,4204.826,458676704.0,35.759,0.84,4195.011,4097.655,3934.898,372785299.2,375377040.0,358528400.0
2015-04-07,4213.894,4260.471,4260.044,4197.019,415362656.0,89.506,2.15,4146.091,4065.379,3896.139,368263084.8,376367500.8,345307948.0
2015-04-03,4104.672,4170.558,4170.538,4092.383,321303776.0,45.762,1.11,4111.718,4036.581,3860.024,370849958.4,373943228.8,336236836.0
2015-04-02,4149.946,4156.842,4124.776,4068.649,339070496.0,0.881,0.02,4071.95,4008.784,3825.423,366340416.0,381994604.8,329247549.6
2015-04-01,4057.501,4139.499,4123.895,4046.939,329512864.0,72.691,1.79,4036.995,3980.281,3794.002,367877580.8,387242316.8,323169464.8
2015-03-31,4138.885,4166.018,4051.204,4037.771,436065632.0,-36.974,-0.9,4000.298,3952.496,3764.348,377968780.8,395810032.0,316677020.8
2015-03-30,3999.024,4101.651,4088.178,3999.024,428297024.0,116.481,2.93,3984.666,3923.088,3737.183,384471916.8,389366035.2,307967064.0
2015-03-27,3957.542,3993.032,3971.697,3932.87,298756064.0,21.698,0.55,3961.443,3884.838,3712.837,377036499.2,374080163.2,298961019.2
2015-03-26,3921.745,3991.997,3949.999,3892.878,346756320.0,9.587,0.24,3945.618,3849.434,3692.894,397648793.6,368891033.6,295162537.6
2015-03-25,3961.578,3980.716,3940.412,3913.988,379968864.0,-32.634,-0.82,3923.566,3813.718,3673.709,406607052.8,360781864.0,289291143.2
2015-03-24,3980.066,3989.858,3973.046,3883.782,468581312.0,0.985,0.03,3904.695,3772.142,3650.625,413651283.2,341679760.0,278569667.2
2015-03-23,3923.083,3972.296,3972.061,3922.21,391119936.0,79.487,2.04,3861.51,3726.899,3628.089,394260153.6,314248395.2,263407017.6
2015-03-20,3852.492,3916.863,3892.574,3832.416,401817536.0,52.835,1.38,3808.232,3683.468,3605.602,371123827.2,298530443.2,252117436.8
2015-03-19,3851.249,3859.126,3839.739,3809.706,391547616.0,-6.316,-0.16,3753.249,3642.062,3585.947,340133273.6,276500494.4,240308627.2
2015-03-18,3769.086,3846.055,3846.055,3763.848,415190016.0,88.933,2.37,3703.87,3607.723,3567.452,314956675.2,259096612.8,230785744.8
2015-03-17,3733.961,3762.575,3757.122,3716.809,371625664.0,51.451,1.39,3639.589,3576.199,3547.293,269708236.8,237544009.6,217830328.8
2015-03-16,3641.773,3705.739,3705.671,3621.119,275438304.0,88.014,2.43,3592.287,3551.277,3531.143,234236636.8,226568092.8,206479734.4
2015-03-13,3604.671,3641.392,3617.657,3594.742,246864768.0,24.813,0.69,3558.703,3540.837,3516.206,225937059.2,223841875.2,200673273.6
2015-03-12,3557.686,3603.341,3592.844,3536.534,265664624.0,68.191,1.94,3530.876,3536.355,3502.62,212867715.2,221434041.6,196947726.4
2015-03-11,3524.575,3568.916,3524.653,3512.218,188947824.0,4.042,0.12,3511.576,3533.7,3488.598,203236550.4,217800422.4,193297704.8
2015-03-10,3523.64,3551.205,3520.611,3511.985,194267664.0,-17.139,-0.48,3512.809,3529.108,3480.713,205379782.4,215459574.4,196371844.0
2015-03-09,3449.696,3546.705,3537.75,3417.486,233940416.0,59.23,1.7,3510.267,3529.279,3474.771,218899548.8,212565640.0,196223678.4
2015-03-06,3501.184,3516.243,3478.52,3472.392,181518048.0,-17.824,-0.51,3522.97,3527.736,3469.756,221746691.2,205704430.4,194168962.4
2015-03-05,3513.249,3517.083,3496.344,3467.676,217508800.0,-34.478,-0.98,3541.835,3529.832,3463.528,230000368.0,204116760.0,194852244.8
2015-03-04,3514.667,3540.912,3530.822,3497.172,199663984.0,22.922,0.65,3555.825,3527.181,3460.43,232364294.4,202474876.8,193800762.4
2015-03-03,3579.315,3579.315,3507.9,3504.201,261866496.0,-93.365,-2.59,3545.406,3518.386,3457.979,225539366.4,198116648.0,194398506.4
2015-03-02,3603.452,3608.691,3601.265,3566.527,248176128.0,28.422,0.8,3548.291,3511.009,3458.85,206231731.2,186391376.0,192116192.0
2015-02-27,3565.233,3594.813,3572.843,3560.455,222786432.0,6.548,0.18,3532.502,3491.576,3457.533,189662169.6,177504672.0,194090844.8
2015-02-26,3473.713,3569.33,3566.295,3456.871,229328432.0,87.566,2.52,3517.83,3468.884,3459.29,178233152.0,172461411.2,194939833.6
2015-02-25,3529.55,3529.55,3478.729,3463.955,165539344.0,-43.593,-1.24,3498.537,3443.497,3459.562,172585459.2,168794987.2,197482020.0
2015-02-24,3511.544,3536.82,3522.322,3511.093,165328320.0,22.839,0.65,3491.366,3432.318,3464.006,170693929.6,177284113.6,202647732.8
2015-02-17,3511.544,3536.82,3522.322,3511.093,165328320.0,22.839,0.65,3473.726,3420.263,3465.335,166551020.8,179881716.8,211277728.0
2015-02-16,3473.289,3504.475,3499.483,3466.607,165641344.0,29.655,0.85,3450.65,3411.775,3459.03,165347174.4,182633494.4,217903473.6
2015-02-13,3458.827,3509.505,3469.828,3452.079,201089968.0,26.954,0.78,3419.938,3397.223,3451.813,166689670.4,185587729.6,226096670.4
2015-02-12,3435.361,3453.582,3442.874,3405.627,156081696.0,8.75,0.26,3388.456,3393.679,3460.079,165004515.2,185126648.0,230176252.0
2015-02-11,3415.977,3445.655,3434.124,3412.136,144613776.0,27.181,0.8,3373.271,3397.571,3468.141,183874297.6,190680364.8,234262784.0
2015-02-10,3345.077,3407.18,3406.943,3339.548,159309088.0,61.022,1.82,3366.8,3406.691,3471.556,193212412.8,197841008.0,236832720.8
2015-02-09,3305.734,3376.526,3345.921,3298.597,172353824.0,33.501,1.01,3372.9,3423.49,3476.911,199919814.4,210677017.6,238224964.8
2015-02-06,3352.33,3374.051,3312.42,3285.935,192664192.0,-54.526,-1.62,3374.508,3449.697,3485.294,204485788.8,217418256.0,242935632.0
2015-02-05,3487.951,3487.951,3366.946,3366.862,250430608.0,-34.822,-1.02,3398.902,3475.628,3497.009,205248780.8,226169052.8,250801555.2
2015-02-04,3446.144,3476.817,3401.768,3399.565,191304352.0,-35.677,-1.04,3421.872,3495.695,3506.625,197486432.0,228011352.0,253030176.8
2015-02-03,3388.602,3441.709,3437.445,3360.717,192846096.0,83.485,2.49,3446.583,3510.406,3518.726,202469603.2,242673739.2,259474520.8
2015-02-02,3360.193,3407.256,3353.96,3347.085,195183696.0,-80.43,-2.34,3474.08,3506.284,3528.907,221434220.8,253173452.8,270880324.8
2015-01-30,3496.885,3514.217,3434.39,3431.936,196479152.0,-47.408,-1.36,3524.885,3506.403,3543.286,230350723.2,266605611.2,283681045.6
2015-01-29,3474.915,3505.582,3481.798,3453.901,211618864.0,-43.525,-1.24,3552.354,3526.479,3548.251,247089324.8,275225856.0,291153825.6
2015-01-28,3547.239,3583.312,3525.323,3512.393,216220208.0,-49.608,-1.39,3569.517,3538.711,3547.039,258536272.0,277845203.2,296984576.8
2015-01-27,3614.038,3616.258,3574.931,3510.017,287669184.0,-33.054,-0.92,3574.229,3536.421,3543.546,282877875.2,275824433.6,307424318.4
2015-01-26,3580.118,3611.617,3607.985,3559.376,239766208.0,36.253,1.01,3538.487,3530.332,3537.091,284912684.8,265772912.0,312271564.8
2015-01-23,3582.088,3627.806,3571.732,3548.626,280172160.0,4.119,0.12,3487.921,3520.891,3523.463,302860499.2,268453008.0,315773232.0
2015-01-22,3551.052,3576.756,3567.613,3520.053,268853600.0,18.728,0.53,3500.604,3518.39,3506.396,303362387.2,275434057.6,317637104.0
2015-01-21,3420.491,3557.794,3548.885,3409.43,337928224.0,152.663,4.5,3507.906,3517.555,3494.261,297154134.4,278049001.6,322681228.8
2015-01-20,3336.793,3419.204,3396.222,3325.681,297843232.0,41.067,1.22,3498.613,3527.046,3486.541,268770992.0,276275302.4,333274900.8
2015-01-19,3414.013,3497.252,3355.155,3330.981,329505280.0,-279.991,-7.7,3522.177,3551.529,3485.888,246633139.2,288587196.8,338943318.4
2015-01-16,3616.248,3662.158,3635.146,3601.258,282681600.0,31.025,0.86,3553.861,3580.168,3485.427,234045516.8,300756480.0,340266564.8
2015-01-15,3501.719,3604.121,3604.121,3482.27,237812336.0,101.698,2.9,3536.177,3570.024,3471.699,247505728.0,307081795.2,348539523.2
2015-01-14,3522.907,3547.242,3502.423,3471.56,196012512.0,-11.617,-0.33,3527.204,3555.367,3456.663,258943868.8,316123950.4,354555098.4
2015-01-13,3506.451,3550.158,3514.04,3494.768,187153968.0,0.464,0.01,3555.478,3550.67,3442.404,283779612.8,339024203.2,359264164.0
2015-01-12,3531.515,3560.527,3513.576,3461.322,266567168.0,-33.147,-0.94,3580.881,3543.85,3426.363,330541254.4,358770217.6,364959731.2
2015-01-09,3547.574,3689.753,3546.723,3536.395,349982656.0,-12.536,-0.35,3606.474,3526.034,3409.835,367467443.2,363093456.0,369985956.8
2015-01-08,3650.073,3659.945,3559.259,3552.1,295003040.0,-84.531,-2.32,3603.871,3494.401,3393.576,366657862.4,359840150.4,373737760.0
2015-01-07,3620.924,3671.19,3643.79,3601.698,320191232.0,2.731,0.07,3583.53,3470.967,3370.959,373304032.0,367313456.0,390631336.0
2015-01-06,3608.428,3683.226,3641.059,3587.231,420962176.0,-0.482,-0.01,3545.863,3446.036,3351.413,394268793.6,390274499.2,398844891.2
2015-01-05,3566.089,3669.042,3641.541,3551.51,451198112.0,107.836,3.05,3506.819,3420.247,3325.604,386999180.8,389299440.0,404040844.8
2014-12-31,3462.389,3542.34,3533.705,3452.498,345934752.0,76.151,2.2,3445.594,3390.686,3298.745,358719468.8,379776649.6,402821585.6
2014-12-30,3450.814,3491.826,3457.554,3422.174,328233888.0,2.099,0.06,3384.93,3373.375,3270.437,353022438.4,389997251.2,408832681.6
2014-12-29,3502.183,3524.28,3455.455,3405.836,425015040.0,9.616,0.28,3358.404,3357.96,3243.756,361322880.0,392986246.4,410494252.8
2014-12-26,3343.64,3453.338,3445.839,3335.012,384614112.0,110.42,3.31,3346.21,3334.137,3211.974,386280204.8,379504124.8,407517872.0
2014-12-25,3254.48,3335.779,3335.419,3226.322,309799552.0,105.034,3.25,3333.675,3308.876,3180.123,391599699.2,371149244.8,407053348.8
2014-12-24,3332.146,3340.357,3230.385,3188.495,317449600.0,-94.539,-2.84,3335.777,3293.635,3151.077,400833830.4,376878457.6,404836608.0
2014-12-23,3358.798,3431.779,3324.924,3316.913,369736096.0,-69.557,-2.05,3361.819,3292.751,3125.709,426972064.0,387635369.6,401162252.0
2014-12-22,3396.251,3455.207,3394.481,3357.661,549801664.0,11.314,0.33,3357.515,3270.95,3093.74,424649612.8,413949216.0,393806032.0
2014-12-19,3345.629,3397.183,3383.167,3280.916,411211584.0,37.24,1.11,3322.064,3256.79,3056.479,372728044.8,407415283.2,380307934.4
2014-12-18,3359.09,3393.711,3345.927,3322.229,355970208.0,-14.671,-0.44,3284.076,3230.962,3016.494,350698790.4,418782249.6,367298762.4
2014-12-17,3325.82,3368.194,3360.598,3275.736,448140768.0,57.196,1.73,3251.493,3206.804,2976.052,352923084.8,425866521.6,354807745.2
2014-12-16,3221.358,3303.402,3303.402,3207.688,358123840.0,86.174,2.68,3223.683,3167.499,2934.883,348298675.2,427668112.0,338508055.6
2014-12-15,3176.829,3226.221,3217.228,3143.297,290193824.0,24.001,0.75,3184.385,3129.553,2896.784,403248819.2,428002259.2,327748931.6
2014-12-12,3182.923,3239.447,3193.227,3167.928,301065312.0,10.215,0.32,3191.516,3089.812,2864.278,442102521.6,435531619.2,321163145.2
2014-12-11,3185.161,3254.424,3183.012,3158.443,367091680.0,-38.534,-1.2,3177.847,3051.371,2833.671,486865708.8,442957452.8,314362378.0
2014-12-10,3120.212,3229.047,3221.546,3058.191,425018720.0,114.633,3.69,3162.115,3008.519,2803.508,498809958.4,432794758.4,306998574.8
2014-12-09,3233.097,3387.827,3106.913,3074.516,632874560.0,-145.968,-4.49,3111.316,2958.666,2772.147,507037548.8,414689134.4,294981951.6
2014-12-08,3108.272,3270.881,3252.881,3075.7,484462336.0,127.996,4.1,3074.721,2916.531,2744.732,452755699.2,373662848.0,279523806.0
2014-12-05,3143.968,3195.798,3124.885,3011.936,524881248.0,20.534,0.66,2988.107,2856.168,2710.374,428960716.8,353200585.6,266630675.6
2014-12-04,2975.403,3104.89,3104.351,2968.876,426812928.0,136.802,4.61,2924.894,2802.025,2679.237,399049196.8,315815275.2,250824658.8
2014-12-03,2936.124,3028.225,2967.549,2912.246,466156672.0,43.609,1.49,2854.922,2745.3,2649.323,366779558.4,283748968.8,236966568.4
2014-12-02,2807.338,2944.506,2923.94,2804.293,361465312.0,104.128,3.69,2806.016,2702.268,2626.118,322340720.0,249347999.2,223183327.6
2014-12-01,2825.611,2855.332,2819.812,2808.653,365487424.0,10.993,0.39,2758.34,2664.015,2605.58,294569996.8,227495604.0,216022412.4
2014-11-28,2753.925,2809.543,2808.819,2740.374,375323648.0,54.329,1.97,2724.229,2638.744,2590.217,277440454.4,206794671.2,208038102.8
2014-11-27,2737.03,2754.49,2754.49,2718.704,265464736.0,31.472,1.16,2679.156,2615.971,2575.192,232581353.6,185767303.2,201230541.2
2014-11-26,2695.263,2723.36,2723.018,2690.31,243962480.0,37.457,1.4,2635.678,2598.497,2560.914,200718379.2,181202391.2,197438622.0
2014-11-25,2650.085,2686.063,2685.561,2643.843,222611696.0,36.303,1.37,2598.519,2585.627,2547.332,176355278.4,175274768.8,193169701.2
2014-11-24,2614.16,2667.671,2649.258,2602.944,279839712.0,65.803,2.55,2569.69,2572.933,2533.886,160421211.2,185384764.0,187115269.2
2014-11-21,2537.538,2585.362,2583.455,2530.032,151028144.0,46.356,1.83,2553.259,2564.58,2519.865,136148888.0,180060765.6,176816406.0
2014-11-20,2528.78,2545.473,2537.099,2522.836,106149864.0,-0.124,-0.01,2552.786,2556.449,2510.228,138953252.8,185834042.4,173013742.4
2014-11-19,2538.233,2550.5,2537.223,2531.318,122146976.0,-4.193,-0.17,2561.317,2553.346,2503.17,161686403.2,190184168.0,172880841.2
2014-11-18,2565.273,2570.211,2541.416,2534.927,142941360.0,-25.685,-1.0,2572.736,2549.969,2497.241,174194259.2,197018656.0,171206302.0
2014-11-17,2613.513,2614.086,2567.101,2565.943,158478096.0,-13.992,-0.54,2576.175,2547.144,2491.839,210348316.8,204549220.8,168871329.6
2014-11-14,2569.211,2581.932,2581.093,2557.666,165049968.0,1.343,0.05,2575.901,2541.689,2486.22,223972643.2,209281534.4,165519194.8
2014-11-13,2597.389,2607.519,2579.75,2567.463,219815616.0,-14.568,-0.56,2560.113,2534.412,2479.252,232714832.0,216693779.2,163904695.6
2014-11-12,2545.403,2594.318,2594.318,2539.601,184686256.0,35.706,1.4,2545.376,2523.33,2472.484,218681932.8,213674852.8,160822245.2
2014-11-11,2578.438,2602.373,2558.612,2532.572,323711648.0,-7.118,-0.28,2527.202,2509.036,2465.962,219843052.8,211064633.6,158378026.8
2014-11-10,2529.83,2565.73,2565.73,2514.71,226599728.0,63.577,2.54,2518.114,2494.841,2460.359,198750124.8,188845774.4,148562129.6
2014-11-07,2508.765,2541.549,2502.153,2489.419,208760912.0,-3.914,-0.16,2507.478,2475.151,2454.82,194590425.6,173572046.4,143811811.2
2014-11-06,2505.167,2510.985,2506.067,2482.983,149651120.0,2.619,0.1,2508.712,2464.006,2453.052,200672726.4,160193442.4,140755480.8
2014-11-05,2516.87,2519.399,2503.448,2499.228,190491856.0,-9.724,-0.39,2501.284,2452.993,2451.846,208667772.8,155577514.4,140169120.8
2014-11-04,2511.036,2517.46,2513.172,2498.605,218247008.0,0.624,0.03,2490.871,2444.512,2450.593,202286214.4,145393948.0,136742208.0
2014-11-03,2515.824,2524.172,2512.548,2502.06,205801232.0,4.223,0.17,2471.567,2436.534,2447.484,178941424.0,133193438.4,131620069.2
2014-10-31,2473.501,2512.189,2508.325,2466.504,239172416.0,39.4,1.6,2442.824,2430.75,2444.246,152553667.2,121756855.2,127500094.0
2014-10-30,2450.361,2474.376,2468.925,2443.759,189626352.0,17.541,0.72,2419.3,2424.091,2440.69,119714158.4,111115612.0,120556448.0
2014-10-29,2423.813,2461.268,2451.384,2415.703,158584064.0,34.731,1.44,2404.702,2421.638,2439.092,102487256.0,107969637.6,118008224.8
2014-10-28,2373.155,2416.766,2416.653,2373.155,101523056.0,47.821,2.02,2398.154,2422.887,2438.616,88501681.6,105691420.0,117214698.4
2014-10-27,2377.542,2377.542,2368.832,2361.68,73862448.0,-21.874,-0.92,2401.501,2425.878,2437.757,87445452.8,108278484.8,116340212.8
2014-10-24,2397.848,2404.993,2390.706,2385.725,74974872.0,-5.23,-0.22,2418.677,2434.489,2438.261,90960043.2,114051576.0,117759134.0
2014-10-23,2415.44,2424.662,2395.936,2392.532,103491840.0,-22.705,-0.94,2428.882,2442.098,2439.986,102517065.6,121317519.2,119101069.2
2014-10-22,2434.886,2447.467,2418.641,2417.562,88656192.0,-14.75,-0.61,2438.574,2450.7,2440.623,113452019.2,124760727.2,119722796.0
2014-10-21,2453.406,2459.255,2433.391,2432.552,96241912.0,-21.32,-0.87,2447.621,2456.674,2439.757,122881158.4,128090468.0,121553437.6
2014-10-20,2448.453,2456.621,2454.711,2441.896,91435400.0,12.979,0.53,2450.255,2458.434,2437.526,129111516.8,130046700.0,126078481.2
2014-10-17,2443.222,2456.105,2441.732,2410.401,132759984.0,-2.663,-0.11,2450.302,2457.742,2436.65,137143108.8,133243332.8,127619069.2
2014-10-16,2448.968,2480.3,2444.395,2441.822,158166608.0,-19.479,-0.79,2455.313,2457.289,2436.481,140117972.8,129997284.0,126439078.4
2014-10-15,2444.538,2465.498,2463.874,2431.188,135801888.0,17.312,0.71,2462.825,2456.546,2435.434,136069435.2,128046812.0,125179877.2
2014-10-14,2451.094,2467.904,2446.562,2436.336,127393704.0,-8.384,-0.34,2465.727,2454.345,2433.862,133299777.6,128737976.8,123848558.8
2014-10-13,2457.412,2460.389,2454.946,2430.546,131593360.0,-11.843,-0.48,2466.612,2449.635,2433.795,130981883.2,124401940.8,123388590.8
2014-10-10,2472.096,2482.136,2466.789,2457.684,147634304.0,-15.166,-0.61,2465.183,2442.033,2433.51,129343556.8,121466692.0,123486510.8
2014-10-09,2480.197,2488.113,2481.955,2461.112,137923920.0,3.572,0.14,2459.265,2437.875,2431.482,119876595.2,116884619.2,121668410.4
2014-10-08,2460.87,2478.383,2478.383,2445.268,121953600.0,27.395,1.12,2450.267,2430.546,2427.826,120024188.8,114684864.8,121258924.8
2014-09-30,2452.166,2454.885,2450.988,2444.204,115804232.0,3.189,0.13,2442.963,2422.84,2423.23,124176176.0,115016407.2,120883081.6
2014-09-29,2443.91,2453.665,2447.799,2435.611,123401728.0,10.598,0.43,2432.658,2416.618,2418.447,117821998.4,122110262.4,118958913.6
2014-09-26,2430.808,2439.649,2437.201,2420.499,100299496.0,0.236,0.01,2418.882,2415.557,2412.971,113589827.2,121994805.6,115949398.4
2014-09-25,2453.423,2462.668,2436.965,2429.587,138661888.0,-4.899,-0.2,2416.484,2415.672,2406.675,113892643.2,122880872.8,114458956.4
2014-09-24,2391.419,2443.978,2441.864,2387.07,142713536.0,42.402,1.77,2410.824,2414.321,2401.206,109345540.8,122312942.4,110909673.2
2014-09-23,2379.521,2402.482,2399.462,2379.521,84033344.0,20.542,0.86,2402.717,2413.378,2395.318,105856638.4,118959140.8,108466207.6
2014-09-22,2419.326,2419.326,2378.92,2374.108,102240872.0,-46.291,-1.91,2400.577,2417.954,2392.488,126398526.4,122375240.8,109133226.4
2014-09-19,2409.313,2430.149,2425.211,2402.313,101813576.0,16.547,0.69,2412.231,2424.988,2391.81,130399784.0,125506329.6,108512379.6
2014-09-18,2396.379,2414.946,2408.664,2389.622,115926376.0,7.338,0.31,2414.86,2425.09,2388.262,131869102.4,126452201.6,108456211.2
2014-09-17,2395.361,2405.371,2401.326,2379.091,125269024.0,12.561,0.53,2417.818,2425.107,2386.136,135280344.0,127832984.8,107724296.8
2014-09-16,2440.339,2442.924,2388.765,2386.98,186742784.0,-48.424,-1.99,2424.04,2423.62,2384.808,132061643.2,126749756.0,107253346.4
2014-09-15,2433.001,2439.254,2437.189,2418.959,122247160.0,-1.169,-0.05,2435.332,2420.276,2384.097,118351955.2,115807564.8,103141684.8
2014-09-12,2418.752,2438.358,2438.358,2412.622,109160168.0,14.904,0.61,2437.746,2410.385,2380.27,120612875.2,109903991.2,101708954.0
2014-09-11,2430.678,2461.473,2423.454,2417.269,132982584.0,-8.979,-0.37,2435.319,2397.677,2375.149,121035300.8,106037040.0,101149420.4
2014-09-10,2435.593,2437.081,2432.433,2422.646,109175520.0,-12.791,-0.52,2432.396,2388.091,2371.921,120385625.6,99506404.0,100022680.8
2014-09-09,2452.227,2454.893,2445.224,2437.078,118194344.0,-4.035,-0.17,2423.201,2377.257,2368.152,121437868.8,97973274.4,99155035.2
2014-09-05,2433.174,2450.634,2449.259,2427.987,133551760.0,23.035,0.95,2405.22,2367.021,2364.159,113263174.4,95891212.0,97825376.4
2014-09-04,2411.934,2427.297,2426.224,2404.082,111272296.0,17.386,0.72,2383.025,2358.632,2358.252,99195107.2,91518429.6,95484773.2
2014-09-03,2389.694,2414.26,2408.838,2389.679,129734208.0,22.378,0.94,2360.036,2351.434,2353.314,91038779.2,90460220.8,95757618.8
2014-09-02,2359.862,2387.655,2386.46,2349.949,114436736.0,31.143,1.32,2343.787,2347.164,2351.033,78627182.4,87615608.8,95088000.0
2014-09-01,2340.925,2355.552,2355.317,2338.53,77320872.0,17.03,0.73,2331.314,2345.995,2350.178,74508680.0,87756936.8,94959252.8
2014-08-29,2317.304,2338.774,2338.287,2313.262,63211424.0,27.009,1.17,2328.823,2347.919,2351.193,78519249.6,90475804.8,96928896.8
2014-08-28,2328.059,2336.363,2311.278,2309.639,70490656.0,-16.317,-0.7,2334.238,2350.154,2350.749,83841752.0,93513916.8,100084195.2
2014-08-27,2323.79,2336.737,2327.595,2322.885,67676224.0,3.503,0.15,2342.832,2352.621,2352.697,89881662.4,96261800.8,102109050.8
2014-08-26,2339.6,2350.391,2324.092,2317.184,93844224.0,-18.771,-0.8,2350.541,2355.751,2352.418,96604035.2,100538957.6,104876381.2
2014-08-25,2367.019,2367.606,2342.863,2338.455,97373720.0,-22.501,-0.95,2360.676,2359.047,2352.782,101005193.6,100336796.0,106897652.4
2014-08-22,2352.316,2368.457,2365.364,2350.986,89823936.0,11.12,0.47,2367.016,2361.296,2351.834,102432360.0,99759540.8,111022432.8
2014-08-21,2365.731,2367.46,2354.244,2333.299,100690208.0,-11.896,-0.5,2366.07,2357.873,2346.588,103186081.6,99451116.8,111479878.0
2014-08-20,2371.649,2375.475,2366.14,2360.837,101288088.0,-8.628,-0.36,2362.41,2355.194,2340.727,102641939.2,101055016.8,112417144.4
2014-08-19,2378.886,2379.474,2374.768,2358.965,115850016.0,0.206,0.01,2360.962,2354.902,2332.311,104473880.0,102560391.2,111563433.6
2014-08-18,2366.272,2379.804,2374.562,2361.197,104509552.0,13.927,0.59,2357.419,2354.361,2323.208,99668398.4,102161568.8,109698062.0
2014-08-15,2337.985,2366.902,2360.635,2333.123,93592544.0,24.69,1.06,2355.576,2354.467,2312.795,97086721.6,103381988.8,107181197.4
2014-08-14,2357.198,2363.18,2335.945,2334.08,97969496.0,-22.956,-0.97,2349.676,2351.343,2302.97,95716152.0,106654473.6,105775235.0
2014-08-13,2358.459,2370.513,2358.901,2335.694,110447792.0,1.849,0.08,2347.979,2352.774,2294.026,99468094.4,107956300.8,103849438.6
2014-08-12,2361.17,2361.17,2357.052,2344.716,91822608.0,-8.297,-0.35,2348.843,2349.085,2284.625,100646902.4,109213804.8,102405060.6
2014-08-11,2338.008,2367.004,2365.349,2337.014,91601168.0,34.215,1.47,2351.303,2346.517,2275.521,104654739.2,113458508.8,101404715.0
2014-08-08,2329.184,2339.27,2331.134,2319.288,86739696.0,3.677,0.16,2353.357,2342.372,2265.841,109677256.0,122285324.8,100132599.8
2014-08-07,2363.608,2369.204,2327.457,2326.268,116729208.0,-35.764,-1.51,2353.011,2335.304,2256.685,117592795.2,123508639.2,98864328.6
2014-08-06,2358.206,2371.667,2363.221,2334.334,116341832.0,-6.132,-0.26,2357.569,2326.259,2247.454,116444507.2,123779272.0,95814493.0
2014-08-05,2376.797,2380.774,2369.353,2353.795,111861792.0,-6.267,-0.26,2349.327,2309.721,2236.729,117780707.2,120566476.0,93098503.8
2014-08-04,2336.63,2375.62,2375.62,2332.138,116713752.0,46.218,1.98,2341.731,2292.055,2227.285,122262278.4,117234555.2,90042594.2
2014-08-01,2341.227,2371.5,2329.402,2328.966,126317392.0,-20.849,-0.89,2331.386,2271.123,2217.318,134893393.6,110980406.0,86719023.4
2014-07-31,2321.967,2350.551,2350.251,2316.585,110987768.0,28.24,1.22,2317.596,2254.597,2209.783,129424483.2,104895996.4,83045709.0
2014-07-30,2324.69,2339.038,2322.011,2316.058,123022832.0,-9.358,-0.4,2294.949,2235.278,2201.28,131114036.8,99742576.4,80680855.0
2014-07-29,2326.038,2342.77,2331.369,2316.217,134269648.0,7.472,0.32,2270.114,2220.164,2193.723,123352244.8,95596316.4,77513988.4
2014-07-28,2272.383,2331.472,2323.897,2272.383,179869328.0,63.443,2.81,2242.379,2204.525,2185.382,112206832.0,89350921.2,73466661.0
2014-07-25,2243.067,2260.89,2260.454,2239.066,98972840.0,23.439,1.05,2210.859,2189.311,2177.443,87067418.4,77979874.8,67188404.0
2014-07-24,2199.833,2239.815,2237.015,2199.833,119435536.0,39.182,1.78,2191.597,2178.066,2171.934,80367509.6,74220018.0,64875906.8
2014-07-23,2191.394,2210.282,2197.833,2190.555,84213872.0,5.135,0.23,2175.608,2168.65,2167.537,68371116.0,67849714.0,61121688.4
2014-07-22,2162.436,2197.592,2192.698,2162.236,78542584.0,26.403,1.22,2170.215,2163.737,2164.314,67840388.0,65630531.6,58794299.8
2014-07-21,2164.223,2171.94,2166.295,2158.955,54172260.0,2.151,0.1,2166.67,2162.515,2161.92,66495010.4,62850633.2,56875388.4
2014-07-18,2147.663,2176.325,2164.144,2145.446,65473296.0,7.076,0.33,2167.763,2163.514,2160.31,68892331.2,62457640.8,56225738.2
2014-07-17,2166.831,2166.932,2157.068,2147.084,59453568.0,-13.8,-0.64,2164.536,2164.969,2158.94,68072526.4,61195421.6,55071759.4
2014-07-16,2172.824,2183.248,2170.868,2166.774,81560232.0,-4.108,-0.19,2161.692,2167.282,2157.432,67328312.0,61619133.6,54757213.2
2014-07-15,2170.089,2176.272,2174.976,2165.206,71815696.0,3.218,0.15,2157.26,2167.282,2156.9,63420675.2,59431660.4,53152396.4
2014-07-14,2149.542,2171.902,2171.758,2145.278,66158864.0,23.749,1.11,2158.359,2166.24,2156.635,59206256.0,57582400.8,52058294.8
2014-07-11,2136.317,2154.735,2148.009,2134.795,61374272.0,5.162,0.24,2159.266,2165.576,2157.64,56022950.4,56396933.2,51915195.4
2014-07-10,2146.601,2151.774,2142.847,2139.522,55732496.0,-5.863,-0.27,2165.403,2165.801,2159.052,54318316.8,55531795.6,51809125.6
2014-07-09,2178.135,2178.51,2148.71,2148.26,62022048.0,-31.763,-1.46,2172.872,2166.424,2159.58,55909955.2,54393662.8,51173793.0
2014-07-08,2174.828,2180.778,2180.473,2163.359,50743600.0,4.184,0.19,2177.303,2164.89,2160.183,55442645.6,51958068.0,50200876.6
2014-07-07,2178.546,2186.202,2176.289,2171.083,50242336.0,-2.406,-0.11,2174.12,2161.325,2159.222,55958545.6,50900143.6,50189091.8
2014-07-04,2180.445,2183.798,2178.695,2174.073,52851104.0,-1.497,-0.07,2171.886,2157.107,2157.122,56770916.0,49993835.6,49642528.0
2014-07-03,2169.003,2184.964,2180.192,2164.843,63690688.0,9.325,0.43,2166.199,2152.91,2154.923,56745274.4,48948097.2,48786875.6
2014-07-02,2163.998,2171.51,2170.867,2155.609,59685500.0,6.308,0.29,2159.976,2147.582,2153.443,52877370.4,47895292.8,47426212.4
2014-07-01,2169.199,2171.15,2164.559,2157.133,53323100.0,-0.559,-0.03,2152.476,2146.519,2151.314,48473490.4,46873132.4,46532799.8
2014-06-30,2152.306,2168.221,2165.118,2152.306,54304188.0,14.86,0.69,2148.529,2147.03,2150.582,45841741.6,46534188.8,45965792.4
2014-06-27,2146.374,2159.526,2150.258,2138.927,52722896.0,1.182,0.06,2142.327,2149.704,2150.149,43216755.2,47433457.6,45446776.2
2014-06-26,2135.156,2151.114,2149.076,2134.891,44351168.0,15.705,0.74,2139.621,2152.302,2150.394,41150920.0,48086455.6,45055209.2
2014-06-25,2141.726,2141.726,2133.371,2126.035,37666100.0,-11.45,-0.53,2135.188,2152.736,2151.408,42913215.2,47953923.2,45340463.8
2014-06-24,2131.686,2145.213,2144.821,2130.292,40164356.0,10.711,0.5,2140.561,2155.475,2152.104,45272774.4,48443685.2,45252017.4
2014-06-23,2137.926,2147.227,2134.11,2132.454,41179256.0,-2.619,-0.12,2145.532,2157.12,2152.661,47226636.0,49478040.0,45221332.4
2014-06-20,2124.963,2137.034,2136.729,2120.807,42393720.0,9.822,0.46,2157.081,2157.137,2153.377,51650160.0,49291220.4,45043524.8
2014-06-19,2161.426,2166.407,2126.907,2119.498,53162644.0,-33.332,-1.54,2164.983,2156.936,2153.084,55021991.2,48625654.0,45236475.6
2014-06-18,2169.252,2172.549,2160.239,2158.497,49463896.0,-9.435,-0.43,2170.284,2159.305,2153.533,52994631.2,46957132.0,44525645.4
2014-06-17,2185.681,2185.681,2169.674,2168.445,49933664.0,-22.181,-1.01,2170.389,2156.109,2151.31,51614596.0,46192467.2,43917434.8
2014-06-16,2176.438,2196.343,2191.855,2174.277,63296876.0,15.613,0.72,2168.708,2154.133,2148.583,51729444.0,45397396.0,43565432.0
2014-06-13,2150.987,2183.645,2176.242,2150.569,59252876.0,22.832,1.06,2157.193,2150.594,2146.288,46932280.8,43460094.8,42513248.0
2014-06-12,2156.761,2160.988,2153.41,2148.413,43025844.0,-7.356,-0.34,2148.888,2148.486,2144.68,42229316.8,42023962.8,41887305.8
2014-06-11,2156.151,2163.61,2160.766,2152.08,42563720.0,-0.502,-0.02,2148.327,2150.08,2145.629,40919632.8,42727004.4,42161724.0
2014-06-10,2138.671,2161.526,2161.268,2132.447,50507904.0,26.987,1.26,2141.828,2148.732,2146.333,40770338.4,42060349.6,43279164.0
2014-06-09,2128.225,2153.903,2134.281,2126.665,39311060.0,-0.435,-0.02,2139.558,2148.203,2147.272,39065348.0,40964624.8,44927396.8
2014-06-06,2149.214,2149.783,2134.716,2123.98,35738056.0,-15.886,-0.74,2143.995,2149.616,2147.211,39987908.8,40795829.2,44871015.4
2014-06-05,2126.607,2150.93,2150.602,2123.524,36477424.0,22.328,1.05,2148.084,2149.231,2147.25,41818608.8,41847297.2,45500735.2
2014-06-04,2149.407,2149.452,2128.274,2117.313,41817248.0,-21.644,-1.01,2151.834,2147.761,2146.585,44534376.0,42094158.8,45907237.6
2014-06-03,2157.64,2168.995,2149.918,2149.291,41982952.0,-6.546,-0.3,2155.636,2146.511,2148.038,43350360.8,41642402.4,46220701.2
2014-05-30,2156.381,2166.907,2156.464,2146.218,43923864.0,1.3,0.06,2156.847,2143.034,2148.366,42863901.6,41733468.0,46588757.2
2014-05-29,2171.26,2178.092,2155.164,2154.925,44891556.0,-14.188,-0.65,2155.237,2141.983,2148.475,41603749.6,41566401.2,46659295.2
2014-05-28,2147.467,2171.172,2169.352,2142.007,50056260.0,22.072,1.03,2150.378,2140.875,2148.641,41875985.6,41750648.8,46824964.0
2014-05-27,2154.395,2160.027,2147.28,2145.752,35897172.0,-8.696,-0.4,2143.689,2141.177,2146.921,39653941.6,41596443.6,47346410.4
2014-05-26,2161.892,2165.421,2155.976,2147.445,39550656.0,7.562,0.35,2137.387,2143.934,2147.949,39934444.0,44497978.4,48563821.0
2014-05-23,2130.775,2148.583,2148.414,2128.663,37623104.0,17.546,0.82,2129.22,2146.341,2149.674,40603034.4,48890168.8,48839233.8
2014-05-22,2134.087,2160.909,2130.868,2128.858,46252736.0,-5.037,-0.24,2128.728,2144.805,2151.986,41529052.8,48946201.6,49346255.2
2014-05-21,2106.762,2136.1,2135.905,2096.514,38946040.0,20.134,0.95,2131.371,2145.268,2155.283,41625312.0,49154173.2,49888353.2
2014-05-20,2124.708,2131.567,2115.771,2110.72,37299684.0,0.628,0.03,2138.664,2145.409,2157.85,43538945.6,49720316.4,50754965.2
2014-05-19,2139.362,2139.362,2115.143,2105.713,42893608.0,-30.809,-1.44,2150.481,2149.565,2163.285,49061512.8,50799000.0,51427880.8
2014-05-16,2143.926,2150.5,2145.952,2132.186,42253196.0,1.868,0.09,2163.463,2153.697,2168.768,57177303.2,51444046.4,51699881.8
2014-05-15,2169.278,2171.453,2144.084,2142.338,46734032.0,-28.288,-1.3,2160.882,2154.968,2173.097,56363350.4,51752189.2,52171122.4
2014-05-14,2175.094,2184.221,2172.372,2168.997,48514208.0,-2.48,-0.11,2159.165,2156.407,2177.366,56683034.4,51899279.2,53245327.2
2014-05-13,2180.059,2185.046,2174.852,2167.767,64912520.0,-5.202,-0.24,2152.154,2152.666,2182.178,55901687.2,53096377.2,53932866.8
2014-05-12,2150.313,2184.332,2180.054,2139.483,83472560.0,46.143,2.16,2148.649,2151.964,2186.969,52536487.2,52629663.6,55218035.6
2014-05-09,2138.84,2141.559,2133.05,2120.595,38183432.0,-2.446,-0.12,2143.932,2153.006,2191.654,45710789.6,48788298.8,56771678.0
2014-05-08,2132.036,2168.206,2135.496,2128.318,48332452.0,-1.82,-0.09,2149.054,2159.168,2196.933,47141028.0,49746308.8,58180369.8
2014-05-07,2151.472,2153.723,2137.316,2136.99,44607472.0,-20.012,-0.93,2153.649,2165.298,2202.024,47115524.0,50622533.2,60624703.2
2014-05-06,2151.388,2173.618,2157.328,2150.112,48086520.0,0.858,0.04,2153.179,2170.291,2204.431,50291067.2,51789614.0,60791624.0
2014-05-05,2152.59,2161.703,2156.47,2131.232,49344072.0,-2.189,-0.1,2155.279,2177.006,2204.815,52722840.0,52056761.6,61964099.6
2014-04-30,2158.762,2164.175,2158.659,2153.124,45334624.0,0.189,0.01,2162.08,2183.839,2206.028,51865808.0,51955717.2,62748858.8
2014-04-29,2134.413,2159.379,2158.47,2131.783,48204932.0,23.501,1.1,2169.281,2191.226,2206.251,52351589.6,52590055.6,62925447.8
2014-04-28,2165.773,2171.385,2134.969,2132.695,60485188.0,-32.857,-1.52,2176.946,2198.325,2205.643,54129542.4,54591375.2,63288075.6
2014-04-25,2195.815,2201.712,2167.826,2167.64,60245384.0,-22.648,-1.03,2187.402,2211.69,2206.492,53288160.8,54769356.4,63768119.8
2014-04-24,2192.769,2209.454,2190.474,2186.763,45058912.0,-4.194,-0.19,2198.733,2221.974,2205.887,51390683.2,57806407.6,64319607.4
2014-04-23,2191.231,2205.594,2194.668,2187.388,47763532.0,-2.127,-0.1,2205.599,2230.302,2204.915,52045626.4,64755057.2,64980470.6
2014-04-22,2184.017,2196.849,2196.795,2165.075,57094696.0,9.547,0.44,2213.17,2234.697,2203.904,52828521.6,66614430.8,66936169.6
2014-04-21,2209.942,2231.707,2187.248,2186.755,56278280.0,-37.231,-1.67,2219.704,2238.749,2202.892,55053208.0,70626873.2,69306034.0
2014-04-18,2215.879,2228.77,2224.479,2203.047,50757996.0,-0.324,-0.01,2235.977,2238.572,2201.469,56250552.0,69793634.0,71693360.4
2014-04-17,2238.779,2241.622,2224.803,2221.954,48333628.0,-7.723,-0.35,2245.214,2232.625,2194.594,64222132.0,71871437.6,72537025.0
2014-04-16,2223.468,2245.315,2232.526,2221.153,51678008.0,3.063,0.14,2255.006,2228.217,2189.397,77464488.0,73542000.4,73085538.8
2014-04-15,2261.411,2261.474,2229.463,2225.685,68218128.0,-39.15,-1.73,2256.225,2221.276,2184.677,80400340.0,73260840.0,73269345.0
2014-04-14,2267.943,2275.83,2268.613,2255.456,62265000.0,-2.053,-0.09,2257.795,2212.96,2180.356,86200538.4,71984776.0,72478910.8
2014-04-11,2269.565,2281.105,2270.666,2261.133,90615896.0,-3.095,-0.14,2241.167,2201.295,2173.067,83336716.0,72766883.2,72296547.6
2014-04-10,2241.452,2290.742,2273.761,2229.515,114545408.0,35.141,1.57,2220.035,2189.8,2166.551,79520743.2,70832807.2,71227054.4
2014-04-09,2239.791,2246.793,2238.62,2228.994,66357268.0,1.304,0.06,2201.429,2179.528,2158.569,69619512.8,65205884.0,69003271.2
2014-04-08,2179.92,2243.97,2237.316,2178.905,97219120.0,51.844,2.37,2186.328,2173.11,2152.071,66121340.0,67257908.4,68566470.0
2014-04-04,2157.982,2186.154,2185.472,2155.277,47945888.0,20.464,0.94,2168.125,2167.034,2145.095,57769013.6,67985194.8,67276334.4
2014-04-03,2188.642,2196.138,2165.008,2160.747,71536032.0,-15.719,-0.72,2161.424,2164.367,2144.239,62197050.4,73593086.8,68092298.8
2014-04-02,2166.067,2182.683,2180.727,2164.008,65039256.0,17.612,0.81,2159.564,2156.563,2144.67,62144871.2,73202612.4,67970185.6
2014-04-01,2143.717,2170.095,2163.115,2141.151,48866404.0,16.81,0.78,2157.628,2150.577,2143.833,60792255.2,72629077.2,67784823.6
2014-03-31,2156.054,2165.254,2146.305,2134.422,55457488.0,-5.66,-0.26,2159.893,2148.079,2144.891,68394476.8,73277850.0,68994965.8
2014-03-28,2154.515,2172.668,2151.965,2144.584,70086072.0,-3.742,-0.17,2165.943,2147.752,2147.094,78201376.0,72973045.6,70325707.0
2014-03-27,2168.344,2186.893,2155.707,2146.916,71275136.0,-15.34,-0.71,2167.309,2144.839,2148.444,84989123.2,71826212.0,70654806.2
2014-03-26,2181.231,2186.078,2171.047,2165.217,58276176.0,-3.393,-0.16,2153.561,2143.302,2148.364,84260353.6,71621301.6,71596264.2
2014-03-25,2170.78,2191.491,2174.44,2164.669,86877512.0,-2.114,-0.1,2143.526,2137.61,2147.982,84465899.2,72800658.4,72582120.2
2014-03-24,2161.898,2186.731,2176.554,2150.871,104491984.0,17.756,0.82,2136.264,2131.032,2147.156,78161223.2,69875031.6,72900122.2
2014-03-21,2079.871,2163.225,2158.798,2077.759,104024808.0,71.831,3.44,2129.561,2123.156,2149.053,67744715.2,66567474.0,72136319.8
2014-03-20,2116.185,2134.792,2086.967,2086.497,67631288.0,-33.903,-1.6,2122.369,2124.112,2154.328,58663300.8,62591510.8,70753529.0
2014-03-19,2131.283,2131.283,2120.87,2101.285,59303904.0,-17.263,-0.81,2133.042,2132.778,2164.352,58982249.6,62737758.8,72693941.4
2014-03-18,2146.124,2152.462,2138.133,2134.923,55354132.0,-4.905,-0.23,2131.695,2137.089,2173.741,61135417.6,62940570.0,74696374.2
2014-03-17,2132.793,2143.196,2143.038,2118.953,52409444.0,20.202,0.95,2125.8,2141.703,2180.957,61588840.0,64712081.6,76281154.8
2014-03-14,2129.87,2140.384,2122.836,2109.575,58617736.0,-17.497,-0.82,2116.75,2146.436,2189.387,65390232.8,67678368.4,78052265.8
2014-03-13,2119.547,2149.436,2140.333,2115.986,69226032.0,26.199,1.24,2125.855,2152.05,2198.024,66519720.8,69483400.4,78475528.8
2014-03-12,2102.801,2130.586,2114.134,2090.757,70069744.0,5.473,0.26,2132.515,2153.427,2204.985,66493268.0,71571226.8,79825116.8
2014-03-11,2092.608,2118.79,2108.661,2088.729,57621244.0,10.874,0.52,2142.483,2158.354,2213.841,64745722.4,72363582.0,80151237.6
2014-03-10,2149.676,2149.676,2097.787,2095.067,71416408.0,-70.571,-3.25,2157.606,2163.279,2222.686,67835323.2,75925212.8,82231667.0
2014-03-07,2170.043,2189.39,2168.358,2161.436,64265176.0,-5.276,-0.24,2176.122,2174.951,2231.173,69966504.0,77705165.6,82814132.2
2014-03-06,2159.397,2181.427,2173.634,2136.454,69093768.0,9.658,0.45,2178.245,2184.545,2233.379,72447080.0,78915547.2,82123839.2
2014-03-05,2187.352,2189.093,2163.976,2159.595,61332016.0,-20.297,-0.93,2174.34,2195.925,2234.82,76649185.6,82650124.0,80850766.0
2014-03-04,2183.858,2188.601,2184.273,2161.589,73069248.0,-6.097,-0.28,2174.225,2210.393,2238.01,79981441.6,86452178.4,80295301.0
2014-03-03,2173.907,2194.224,2190.37,2167.91,82072312.0,11.399,0.52,2168.953,2220.21,2239.789,84015102.4,87850228.0,79305295.0
2014-02-28,2149.446,2180.474,2178.971,2133.548,76668056.0,24.863,1.15,2173.78,2232.338,2241.067,85443827.2,88426163.2,78718891.8
2014-02-27,2170.81,2180.063,2154.108,2150.135,90104296.0,-9.297,-0.43,2190.845,2243.998,2244.402,85384014.4,87467657.2,77943872.6
2014-02-26,2147.737,2164.698,2163.405,2137.079,77993296.0,5.496,0.26,2217.511,2256.543,2248.291,88651062.4,88079006.8,76255955.4
2014-02-25,2216.515,2225.209,2157.909,2150.095,93237552.0,-56.6,-2.56,2246.561,2269.327,2252.311,92922915.2,87938893.2,75888359.4
2014-02-24,2246.715,2246.715,2214.509,2194.164,89215936.0,-49.785,-2.2,2271.467,2282.092,2253.786,91685353.6,88538121.2,73241794.2
2014-02-21,2284.03,2287.869,2264.294,2250.652,76368992.0,-23.142,-1.01,2290.895,2287.395,2251.36,91408499.2,87923098.8,70809005.0
2014-02-20,2314.088,2331.698,2287.436,2286.203,106439536.0,-21.22,-0.92,2297.151,2282.214,2247.07,89551300.0,85332131.2,69504213.2
2014-02-19,2280.927,2317.42,2308.656,2274.152,99352560.0,26.214,1.15,2295.575,2273.715,2243.29,87506951.2,79051408.0,66797181.6
2014-02-18,2310.309,2310.309,2282.442,2276.108,87049744.0,-29.205,-1.26,2292.093,2265.627,2238.304,82954871.2,74138423.6,64277673.4
2014-02-17,2308.791,2315.579,2311.647,2293.552,87831664.0,16.072,0.7,2292.717,2259.369,2234.825,85390888.8,70760362.0,62627683.6
2014-02-14,2278.4,2295.852,2295.575,2274.429,67082996.0,16.021,0.7,2283.894,2249.796,2228.926,84437698.4,69011620.4,60742239.0
2014-02-13,2288.451,2307.474,2279.554,2278.261,96217792.0,-11.692,-0.51,2267.276,2244.806,2224.39,81112962.4,68420088.0,60096553.8
2014-02-12,2286.187,2294.317,2291.246,2276.444,76592160.0,5.684,0.25,2251.855,2240.04,2221.523,70595864.8,64432904.0,58085016.2
2014-02-11,2267.735,2296.516,2285.562,2262.599,99229832.0,18.028,0.8,2239.162,2235.295,2219.057,65321976.0,63837825.6,56822851.0
2014-02-10,2221.54,2270.194,2267.534,2221.54,83065712.0,55.051,2.49,2226.021,2225.48,2216.678,56129835.2,57945467.2,54049014.6
2014-02-07,2187.343,2212.498,2212.483,2177.117,50459316.0,10.033,0.46,2215.698,2215.325,2215.234,53585542.4,53694911.2,53210749.2
2014-01-30,2223.163,2223.163,2202.45,2200.224,43632304.0,-25.331,-1.14,2222.337,2211.926,2219.148,55727213.6,53676295.2,53676915.6
2014-01-29,2225.711,2233.057,2227.781,2219.928,50222716.0,7.926,0.36,2228.224,2212.865,2225.125,58269943.2,54542955.2,53755015.0
2014-01-28,2220.785,2233.257,2219.855,2205.972,53269128.0,3.936,0.18,2231.427,2210.981,2230.237,62353675.2,54416923.2,54075432.8
2014-01-27,2233.015,2233.231,2215.919,2211.799,70344248.0,-29.759,-1.32,2224.938,2210.28,2234.217,59761099.2,54495005.2,53832691.8
2014-01-24,2225.758,2257.355,2245.678,2222.893,61167672.0,13.789,0.62,2214.953,2208.056,2238.595,53804280.0,52472857.6,52984937.2
2014-01-23,2242.245,2248.924,2231.889,2228.057,56345952.0,-11.907,-0.53,2201.515,2203.974,2239.578,51625376.8,51773019.6,52501431.8
2014-01-22,2190.432,2244.133,2243.796,2187.534,70641376.0,56.386,2.58,2197.506,2203.007,2243.239,50815967.2,51737128.4,51884400.6
2014-01-21,2168.42,2197.923,2187.41,2168.42,40306248.0,21.417,0.99,2190.535,2202.818,2245.462,46480171.2,49807876.4,50632290.2
2014-01-20,2173.651,2182.463,2165.993,2156.458,40560152.0,-12.495,-0.57,2195.622,2207.878,2250.321,49228911.2,50152562.0,50895992.0
2014-01-17,2203.821,2205.972,2178.488,2175.876,50273156.0,-33.356,-1.51,2201.16,2215.142,2255.928,51141435.2,52726587.2,52128194.8
2014-01-16,2209.448,2227.262,2211.844,2201.56,52298904.0,2.903,0.13,2206.432,2226.371,2263.624,51920662.4,53677536.0,52019321.0
2014-01-15,2210.024,2215.903,2208.941,2193.802,48962396.0,-3.905,-0.18,2208.508,2237.384,2270.894,52658289.6,52967074.8,51405136.2
2014-01-14,2192.844,2214.124,2212.846,2179.908,54049948.0,19.167,0.87,2215.102,2249.493,2278.265,53135581.6,53733942.4,51381211.0
2014-01-13,2206.996,2222.072,2193.679,2183.597,50122772.0,-11.172,-0.51,2220.133,2258.154,2286.019,51076212.8,53170378.4,51907797.2
2014-01-10,2216.521,2224.494,2204.851,2200.215,54169292.0,-17.37,-0.78,2229.124,2269.134,2296.667,54311739.2,53497016.8,51976718.4
2014-01-09,2236.967,2258.894,2222.221,2220.802,55987040.0,-19.69,-0.88,2246.31,2275.182,2306.925,55434409.6,53229844.0,51775639.8
2014-01-08,2240.635,2262.584,2241.911,2228.418,51348856.0,3.91,0.17,2266.261,2283.471,2316.453,53275860.0,52031672.8,52380045.0
2014-01-07,2222.306,2246.791,2238.001,2218.647,43753104.0,-0.636,-0.03,2283.884,2288.105,2327.023,54332303.2,51456704.0,53159673.4
2014-01-06,2286.371,2286.371,2238.637,2229.334,66300404.0,-52.142,-2.28,2296.176,2292.765,2337.667,55264544.0,51639422.0,53830262.4
2014-01-03,2311.968,2314.836,2290.779,2280.887,59782644.0,-31.199,-1.34,2309.144,2296.715,2348.349,52682294.4,51529802.4,53820946.6
2014-01-02,2323.433,2325.991,2321.978,2310.653,45194292.0,-8.048,-0.34,2304.055,2300.878,2357.22,51025278.4,50361106.0,54717260.8
2013-12-31,2289.01,2333.074,2330.026,2287.117,56631072.0,30.568,1.33,2300.681,2304.403,2364.878,50787485.6,49843197.6,57590057.8
2013-12-30,2313.38,2316.621,2299.458,2295.641,48414308.0,-4.02,-0.17,2292.326,2307.038,2370.516,48581104.8,49028479.6,58481291.8
2013-12-27,2268.535,2315.182,2303.478,2264.386,53389156.0,38.144,1.68,2289.354,2313.884,2376.482,48014300.0,50645216.0,62043332.4
2013-12-26,2299.972,2301.493,2265.334,2263.922,51497564.0,-39.776,-1.73,2284.286,2324.2,2383.256,50377310.4,50456420.0,62464061.8
2013-12-25,2291.748,2305.609,2305.11,2281.6,44005328.0,16.862,0.74,2297.701,2338.669,2391.965,49696933.6,50321435.6,64422204.0
2013-12-24,2291.125,2312.832,2288.248,2270.245,45599168.0,3.646,0.16,2308.124,2349.434,2397.434,48898909.6,52728417.2,65986642.0
2013-12-23,2283.8,2295.765,2284.602,2259.575,45580284.0,6.466,0.28,2321.75,2365.941,2402.392,49475854.4,54862642.8,66665976.8
2013-12-20,2335.052,2338.875,2278.136,2278.096,65204208.0,-54.274,-2.33,2338.414,2382.568,2407.594,53276132.0,56021102.8,67694199.4
2013-12-19,2366.205,2370.991,2332.41,2331.194,48095680.0,-24.816,-1.05,2364.115,2399.983,2413.585,50535529.6,56112090.8,68184022.6
2013-12-18,2356.703,2368.583,2357.226,2350.451,40015208.0,0.85,0.04,2379.636,2413.562,2417.464,50945937.6,59073415.6,70164572.6
2013-12-17,2369.255,2373.286,2356.376,2351.183,48483892.0,-11.547,-0.49,2390.743,2425.353,2420.845,56557924.8,65336918.0,71778402.2
2013-12-16,2408.678,2412.734,2367.923,2367.43,64581672.0,-38.716,-1.61,2410.132,2433.994,2423.634,60249431.2,67934104.0,73286622.4
2013-12-13,2388.659,2416.26,2406.639,2386.246,51501196.0,-3.376,-0.14,2426.722,2439.08,2426.683,58766073.6,73441448.8,75559270.4
2013-12-12,2406.766,2423.309,2410.015,2402.769,50147720.0,-2.748,-0.11,2435.852,2442.311,2423.888,61688652.0,74471703.6,77303799.0
2013-12-11,2440.503,2440.503,2412.763,2400.742,68075144.0,-40.559,-1.65,2447.488,2445.262,2418.613,67200893.6,78522972.4,77661930.8
2013-12-10,2456.23,2466.66,2453.322,2444.526,66941424.0,2.45,0.1,2459.963,2445.434,2412.38,74115911.2,79244866.8,77250615.2
2013-12-09,2460.028,2468.948,2450.872,2445.94,57164884.0,-1.415,-0.06,2457.855,2438.843,2406.714,75618776.8,78469310.8,76537921.2
2013-12-06,2463.043,2470.813,2452.287,2445.623,66114088.0,-15.91,-0.65,2451.438,2432.619,2399.965,88116824.0,79367296.0,75966649.8
2013-12-05,2476.453,2481.747,2468.197,2460.576,77708928.0,-6.938,-0.28,2448.77,2427.187,2392.748,87254755.2,80255954.4,75350370.8
2013-12-04,2439.824,2486.64,2475.135,2434.694,102650232.0,32.351,1.32,2443.036,2421.366,2386.366,89845051.2,81255729.6,74206011.8
2013-12-03,2410.693,2448.333,2442.784,2406.663,74455752.0,23.996,0.99,2430.905,2416.337,2380.287,84373822.4,78219886.4,72262333.4
2013-12-02,2423.969,2464.863,2418.788,2397.007,119655120.0,-20.156,-0.83,2419.832,2413.275,2377.336,81319844.8,78639140.8,71643770.2
2013-11-29,2442.676,2446.395,2438.944,2432.387,61803744.0,-0.586,-0.02,2413.8,2414.287,2375.42,70617768.0,77677092.0,68250937.2
2013-11-28,2419.15,2460.556,2439.53,2417.235,90660408.0,25.049,1.04,2405.604,2405.466,2372.721,73257153.6,80135894.4,68313538.0
2013-11-27,2386.362,2422.806,2414.481,2383.78,75294088.0,27.065,1.13,2399.695,2391.963,2369.43,72666408.0,76800889.2,67917365.6
2013-11-26,2387.826,2399.022,2387.416,2380.412,59185864.0,-1.213,-0.05,2401.769,2379.326,2369.079,72065950.4,75256363.6,68761567.6
2013-11-25,2385.784,2418.853,2388.629,2380.689,66144736.0,-9.333,-0.39,2406.719,2374.585,2368.311,75958436.8,74606531.6,71139166.0
2013-11-22,2415.29,2418.999,2397.962,2393.581,75000672.0,-12.027,-0.5,2414.773,2367.311,2367.178,84736416.0,72566003.6,70975736.8
2013-11-21,2412.451,2415.383,2409.989,2382.878,87706680.0,-14.861,-0.61,2405.328,2358.309,2365.707,87014635.2,70444787.2,71079212.4
2013-11-20,2428.767,2435.427,2424.85,2406.417,72291800.0,12.687,0.53,2384.23,2351.365,2365.234,80935370.4,67156294.0,69921919.4
2013-11-19,2427.928,2427.928,2412.163,2405.076,78648296.0,-16.74,-0.69,2356.883,2344.237,2364.916,78446776.8,66304780.4,70884597.0
2013-11-18,2367.883,2429.566,2428.903,2361.038,110034632.0,78.169,3.33,2342.451,2341.398,2366.602,73254626.4,64648399.6,71487333.8
2013-11-15,2306.549,2377.211,2350.734,2306.549,86391768.0,46.233,2.01,2319.848,2336.553,2368.723,60395591.2,58824782.4,70231091.8
2013-11-14,2291.269,2305.696,2304.501,2279.006,57310356.0,16.385,0.72,2311.29,2339.975,2372.489,53874939.2,56491181.6,68926085.0
2013-11-13,2325.36,2325.563,2288.116,2287.547,59848832.0,-51.884,-2.22,2318.5,2346.897,2377.93,53377217.6,59033842.0,69621690.8
2013-11-12,2319.362,2342.529,2340.0,2316.603,52687544.0,24.111,1.04,2331.591,2358.833,2384.593,54162784.0,62266771.6,71078240.8
2013-11-11,2305.94,2325.228,2315.889,2295.003,45739456.0,7.944,0.34,2340.345,2362.038,2390.969,56042172.8,67671800.4,72902538.4
2013-11-08,2329.084,2342.672,2307.945,2306.041,53788508.0,-32.607,-1.39,2353.258,2367.044,2398.802,57253973.6,69385470.0,75619630.8
2013-11-07,2351.871,2356.672,2340.552,2328.253,54821748.0,-13.016,-0.55,2368.661,2373.106,2406.83,59107424.0,71713637.6,77599618.6
2013-11-06,2371.324,2383.54,2353.568,2352.787,63776664.0,-30.201,-1.27,2375.294,2379.102,2411.268,64690466.4,72687544.8,79375016.4
2013-11-05,2366.884,2385.688,2383.769,2343.801,62084488.0,3.315,0.14,2386.074,2385.594,2416.269,70370759.2,75464413.6,80000065.6
2013-11-04,2397.21,2404.896,2380.454,2376.355,51798460.0,-4.506,-0.19,2383.731,2391.806,2419.171,79301428.0,78326268.0,81135116.4
2013-11-01,2373.962,2395.005,2384.96,2365.146,63055760.0,11.242,0.47,2380.831,2400.893,2420.6,81516966.4,81637401.2,81520893.0
2013-10-31,2398.395,2398.395,2373.718,2370.226,82736960.0,-33.753,-1.4,2377.551,2405.002,2421.101,84319851.2,81360988.4,81666680.4
2013-10-30,2371.853,2407.851,2407.471,2365.506,92178128.0,35.418,1.49,2382.91,2408.964,2421.637,80684623.2,80209539.6,81841670.8
2013-10-29,2369.216,2408.616,2372.053,2327.904,106737832.0,6.099,0.26,2385.114,2410.354,2422.715,80558068.0,79889710.0,81758685.2
2013-10-28,2372.571,2377.249,2365.954,2351.862,62876152.0,-2.605,-0.11,2399.881,2419.9,2426.306,77351108.0,78133276.4,81314444.4
2013-10-25,2400.517,2413.332,2368.559,2353.993,77070184.0,-31.952,-1.33,2420.955,2430.559,2431.623,81757836.0,81853791.6,82177054.4
2013-10-24,2412.235,2422.943,2400.511,2395.474,64560820.0,-17.98,-0.74,2432.454,2440.554,2434.821,78402125.6,83485599.6,81875583.2
2013-10-23,2451.556,2474.372,2418.491,2412.483,91545352.0,-27.4,-1.12,2435.018,2443.434,2436.161,79734456.0,86062488.0,83620541.4
2013-10-22,2470.255,2470.255,2445.891,2439.859,90703032.0,-25.431,-1.03,2435.594,2446.944,2439.156,79221352.0,84535717.6,84312437.8
2013-10-21,2431.915,2472.785,2471.322,2423.562,84909792.0,45.268,1.87,2439.919,2446.536,2441.307,78915444.8,83943964.8,85316038.6
2013-10-18,2415.118,2435.712,2426.054,2410.599,60291632.0,12.724,0.53,2440.163,2440.307,2443.113,81949747.2,81404384.8,88329207.4
2013-10-17,2432.645,2440.919,2413.33,2407.777,71222472.0,-8.041,-0.33,2448.654,2437.199,2445.955,88569073.6,81972372.4,93660374.6
2013-10-16,2459.077,2459.077,2421.371,2409.718,88979832.0,-46.146,-1.87,2451.851,2434.31,2449.033,92390520.0,83473802.0,97842051.0
2013-10-15,2475.324,2479.134,2467.517,2449.416,89173496.0,-5.025,-0.2,2458.293,2435.076,2449.995,89850083.2,83627660.4,100887541.0
2013-10-14,2472.267,2483.131,2472.542,2462.551,100081304.0,4.034,0.16,2453.152,2432.713,2444.508,88972484.8,84495612.4,100095871.8
2013-10-11,2442.364,2471.165,2468.508,2439.634,93388264.0,39.191,1.61,2440.451,2432.687,2437.968,80859022.4,82500317.2,98239375.8
2013-10-10,2455.64,2455.979,2429.317,2422.017,90329704.0,-24.266,-0.99,2425.744,2429.088,2432.078,75375671.2,80265566.8,97506250.6
2013-10-09,2432.94,2453.746,2453.583,2424.769,76277648.0,11.772,0.48,2416.769,2428.888,2428.337,74557084.0,81178594.8,97017465.8
2013-10-08,2406.415,2446.703,2441.811,2392.572,84785504.0,32.774,1.36,2411.858,2431.369,2421.675,77405237.6,84089158.0,97179095.8
2013-09-30,2406.205,2415.075,2409.037,2397.22,59513992.0,14.066,0.59,2412.273,2436.078,2415.28,80018740.0,86688112.4,97322546.2
2013-09-27,2382.218,2402.196,2394.971,2379.856,65971508.0,10.528,0.44,2424.923,2445.92,2410.744,84141612.0,95254030.0,97651117.4
2013-09-26,2422.631,2422.631,2384.443,2382.535,86236768.0,-44.587,-1.84,2432.431,2454.711,2407.398,85155462.4,105348376.8,98815350.8
2013-09-25,2440.835,2455.037,2429.03,2423.276,90518416.0,-14.855,-0.61,2441.007,2463.757,2405.22,87800105.6,112210300.0,97803029.0
2013-09-24,2470.715,2470.746,2443.885,2420.085,97853016.0,-28.403,-1.15,2450.879,2464.914,2400.549,90773078.4,118147421.6,96795660.2
2013-09-23,2441.516,2473.163,2472.288,2439.993,80128352.0,39.778,1.64,2459.882,2456.304,2392.701,93357484.8,115696131.2,95351366.2
2013-09-18,2426.04,2439.626,2432.51,2407.243,71040760.0,5.188,0.21,2466.916,2443.249,2384.283,106366448.0,113978434.4,94111853.8
2013-09-17,2480.81,2481.71,2427.322,2426.462,99459984.0,-51.068,-2.06,2476.992,2435.068,2378.087,125541291.2,114746934.4,93310185.0
2013-09-16,2501.077,2503.694,2478.39,2467.129,105383280.0,-10.512,-0.42,2486.506,2427.786,2372.345,136620494.4,112856336.8,91991503.0
2013-09-13,2502.54,2515.781,2488.902,2481.454,110775048.0,-18.553,-0.74,2478.95,2411.981,2364.997,145521764.8,110269033.6,90346500.2
2013-09-12,2480.468,2527.383,2507.455,2469.718,145173168.0,24.566,0.99,2452.726,2394.482,2355.759,138034777.6,107956980.0,90826225.8
2013-09-11,2483.791,2504.469,2482.889,2471.624,166914976.0,7.995,0.32,2419.582,2375.568,2346.465,121590420.8,100048204.8,86665160.0
2013-09-10,2446.454,2475.195,2474.894,2435.826,154856000.0,34.285,1.41,2393.144,2360.084,2339.774,103952577.6,92282324.8,82116517.6
2013-09-09,2374.26,2449.249,2440.609,2372.686,149889632.0,82.827,3.51,2369.065,2346.683,2333.983,89092179.2,83395758.0,78293399.2
2013-09-06,2336.767,2361.178,2357.782,2335.932,73340112.0,16.047,0.69,2345.012,2336.184,2329.592,75016302.4,75443898.8,75692078.4
2013-09-05,2350.927,2351.218,2341.735,2336.754,62951384.0,-8.964,-0.38,2336.238,2329.098,2326.004,77879182.4,75006601.2,75255073.6
2013-09-04,2352.537,2360.663,2350.699,2345.437,78725760.0,-3.803,-0.16,2331.553,2325.318,2322.756,78505988.8,74245273.2,74762426.0
2013-09-03,2326.231,2354.856,2354.502,2321.304,80554008.0,34.158,1.47,2327.025,2321.107,2319.252,80612072.0,71873435.6,74478572.8
2013-09-02,2319.957,2329.867,2320.344,2297.449,79510248.0,6.434,0.28,2324.3,2316.903,2316.209,77699336.8,71126669.2,74138217.2
2013-08-30,2315.913,2334.413,2313.91,2303.609,87654512.0,-4.401,-0.19,2327.355,2318.012,2314.108,75871495.2,70423966.8,72929812.4
2013-08-29,2338.564,2342.32,2318.311,2308.145,66085416.0,-9.745,-0.42,2321.959,2317.035,2310.776,72134020.0,73695471.6,71591631.4
2013-08-28,2326.096,2345.358,2328.056,2307.043,89256176.0,-12.825,-0.55,2319.083,2317.362,2307.129,69984557.6,73282115.2,71417560.4
2013-08-27,2332.8,2345.105,2340.881,2322.461,65990332.0,5.265,0.23,2315.189,2319.464,2300.377,63134799.2,71950710.4,69371104.4
2013-08-26,2294.759,2336.381,2335.616,2288.496,70371040.0,48.687,2.13,2309.506,2321.283,2292.802,64554001.6,73191040.4,68831269.0
2013-08-23,2314.866,2321.037,2286.929,2251.92,68967136.0,-17.003,-0.74,2308.669,2323.001,2284.82,64976438.4,75940258.0,68042763.2
2013-08-22,2302.668,2329.143,2303.932,2297.016,55338104.0,-4.657,-0.2,2312.112,2322.909,2281.674,75256923.2,75503546.0,67041461.2
2013-08-21,2320.584,2321.642,2308.589,2291.053,55007384.0,-3.876,-0.17,2315.641,2320.194,2278.361,76579672.8,75279578.8,67563271.8
2013-08-20,2325.862,2353.409,2312.465,2303.666,73086344.0,-18.965,-0.81,2323.739,2317.397,2275.39,80766621.6,77083710.0,68292517.8
2013-08-19,2286.203,2340.194,2331.43,2284.077,72483224.0,27.286,1.18,2333.06,2315.515,2273.059,81828079.2,77149765.2,68378687.0
2013-08-16,2314.261,2423.081,2304.144,2295.023,120369560.0,-17.432,-0.75,2337.332,2310.205,2266.596,86904077.6,75435658.0,67418700.6
2013-08-15,2348.839,2362.089,2321.576,2319.784,61951852.0,-27.504,-1.17,2333.706,2304.517,2260.913,75750168.8,69487791.2,64926986.6
2013-08-14,2362.619,2386.599,2349.08,2340.833,75942128.0,-9.988,-0.42,2324.747,2296.895,2257.101,73979484.8,69553005.6,64686608.6
2013-08-13,2352.883,2360.827,2359.068,2340.733,78393632.0,6.274,0.27,2311.055,2281.29,2253.789,73400798.4,66791498.4,64272264.6
2013-08-12,2296.22,2352.89,2352.794,2293.176,97863216.0,66.784,2.92,2297.97,2264.322,2251.728,72471451.2,64471497.6,63633790.8
2013-08-09,2288.51,2301.59,2286.01,2258.334,64600016.0,9.228,0.41,2283.077,2246.639,2249.453,63967238.4,60145268.4,62478524.4
2013-08-08,2277.253,2297.628,2276.782,2267.073,53098432.0,-3.841,-0.17,2275.328,2240.439,2248.921,63225413.6,58579376.4,63735177.6
2013-08-07,2292.379,2313.879,2280.623,2276.862,73048696.0,-13.018,-0.57,2269.044,2236.529,2251.416,65126526.4,59846964.8,67369915.6
2013-08-06,2270.672,2302.484,2293.641,2256.715,73746896.0,15.312,0.67,2251.524,2233.382,2248.588,60182198.4,59501325.6,66774969.8
2013-08-05,2249.976,2278.329,2278.329,2243.22,55342152.0,31.066,1.38,2230.673,2230.602,2242.04,56471544.0,59607608.8,65162346.6
2013-08-02,2263.495,2274.71,2247.263,2244.252,60890892.0,1.899,0.09,2210.201,2222.988,2236.304,56323298.4,59401743.2,65134363.6
2013-08-01,2206.004,2245.56,2245.364,2200.626,62603996.0,52.343,2.39,2205.55,2217.31,2235.283,53933339.2,60366182.0,65180907.8
2013-07-31,2211.75,2235.384,2193.021,2187.21,48327056.0,3.633,0.17,2204.014,2217.306,2234.114,54567403.2,59820211.6,65679765.2
2013-07-30,2184.007,2221.589,2189.388,2162.979,55193624.0,13.418,0.62,2215.24,2226.288,2234.655,58820452.8,61753030.8,66555213.6
2013-07-29,2205.083,2205.083,2175.97,2169.017,54600924.0,-48.038,-2.16,2230.531,2239.134,2236.284,62743673.6,62796084.0,66887474.8
2013-07-26,2226.429,2238.42,2224.008,2209.806,48941096.0,-13.675,-0.61,2235.775,2252.266,2238.152,62480188.0,64811780.4,67043740.0
2013-07-25,2255.223,2268.839,2237.683,2227.853,65774316.0,-11.468,-0.51,2229.069,2257.403,2236.983,66799024.8,68890978.8,68569251.6
2013-07-24,2253.376,2265.578,2249.151,2217.192,69592304.0,-16.694,-0.74,2230.598,2266.303,2233.136,65073020.0,74892866.4,69050873.4
2013-07-23,2211.587,2276.742,2265.845,2206.756,74809728.0,63.656,2.89,2237.335,2263.795,2229.093,64685608.8,74048614.0,69534079.4
2013-07-22,2170.089,2203.058,2202.189,2159.813,53283496.0,11.711,0.54,2247.736,2253.477,2224.072,62848494.4,70717084.4,71171337.0
2013-07-19,2248.133,2257.916,2190.478,2188.752,70535280.0,-54.85,-2.44,2268.757,2249.62,2222.523,67143372.8,70866984.0,72837025.0
2013-07-18,2272.947,2282.435,2245.328,2241.93,57144292.0,-37.508,-1.64,2285.736,2253.257,2228.869,70982932.8,69995633.6,72245551.0
2013-07-17,2311.443,2326.925,2282.836,2281.609,67655248.0,-35.012,-1.51,2302.008,2250.922,2232.676,84712712.8,71539318.8,72148387.4
2013-07-16,2300.83,2317.848,2317.848,2281.942,65624156.0,10.551,0.46,2290.254,2243.022,2238.572,83411619.2,71357396.4,71482938.0
2013-07-15,2289.762,2336.04,2307.297,2274.673,74757888.0,31.924,1.4,2259.218,2233.435,2243.617,78585674.4,70978865.6,70633249.2
2013-07-12,2319.023,2331.986,2275.373,2274.073,89733080.0,-51.315,-2.21,2230.483,2224.037,2248.444,74590595.2,69275699.6,69415140.4
2013-07-11,2232.157,2351.223,2326.688,2232.157,125793192.0,102.623,4.61,2220.778,2216.564,2255.514,69008334.4,68247524.4,67726713.2
2013-07-10,2163.098,2224.135,2224.065,2157.468,61149780.0,61.396,2.84,2199.836,2199.968,2259.176,58365924.8,63208880.4,64923556.8
2013-07-09,2160.699,2174.786,2162.669,2149.787,41494432.0,-0.95,-0.04,2195.789,2194.392,2272.181,59303173.6,65019544.8,64917612.6
2013-07-08,2194.423,2205.214,2163.619,2162.189,54782492.0,-63.23,-2.84,2207.652,2194.667,2290.44,63372056.8,71625589.6,65467717.4
2013-07-05,2227.35,2252.033,2226.849,2225.047,61821776.0,4.87,0.22,2217.591,2195.426,2310.286,63960804.0,74807066.0,65010452.4
2013-07-04,2187.181,2245.908,2221.979,2176.08,72581144.0,18.151,0.82,2212.349,2204.48,2327.227,67486714.4,74495468.4,65235151.2
2013-07-03,2211.044,2211.044,2203.828,2169.137,65836024.0,-18.156,-0.82,2200.101,2214.429,2346.259,68051836.0,72757456.0,64594817.4
2013-07-02,2211.803,2226.113,2221.984,2191.801,61838848.0,8.667,0.39,2192.994,2234.123,2366.389,70735916.0,71608479.6,64429442.8
2013-07-01,2187.092,2213.965,2213.317,2166.353,57726228.0,12.678,0.58,2181.682,2253.799,2387.006,79879122.4,70287632.8,64844818.8
2013-06-28,2149.03,2227.461,2200.639,2139.372,79451328.0,39.904,1.85,2173.26,2272.851,2408.468,85653328.0,69554581.2,65922393.0
2013-06-27,2172.848,2200.213,2160.735,2153.175,75406752.0,-7.562,-0.35,2196.611,2294.464,2430.654,81504222.4,67205902.0,66159632.2
2013-06-26,2170.326,2181.021,2168.297,2131.86,79256424.0,2.876,0.13,2228.758,2318.385,2452.597,77463076.0,66638233.2,65599048.6
2013-06-25,2146.053,2169.211,2165.421,2023.171,107554880.0,-5.789,-0.27,2275.251,2349.971,2474.043,72481043.2,64815680.4,64673210.8
2013-06-24,2308.069,2308.069,2171.21,2164.325,86597256.0,-146.184,-6.31,2325.916,2386.213,2494.915,60696143.2,59309845.2,63536735.2
2013-06-21,2283.151,2332.842,2317.394,2269.565,58705800.0,-4.072,-0.17,2372.442,2425.146,2517.256,53455834.4,55213838.8,62916463.2
2013-06-20,2386.104,2386.104,2321.466,2320.226,55201020.0,-79.299,-3.3,2392.317,2449.973,2532.129,52907581.6,55974834.0,63556472.8
2013-06-19,2408.28,2408.28,2400.765,2366.346,54346260.0,-17.98,-0.74,2408.011,2478.089,2546.536,55813390.4,56432178.8,65113311.8
2013-06-18,2413.088,2424.202,2418.745,2393.321,48630380.0,14.906,0.62,2424.69,2498.655,2556.1,57150317.6,57250406.0,66488538.8
2013-06-17,2422.762,2427.532,2403.839,2394.385,50395712.0,-12.932,-0.54,2446.51,2520.213,2562.798,57923547.2,59402004.8,67596829.0
2013-06-14,2404.423,2420.356,2416.771,2396.487,55964536.0,16.834,0.7,2477.85,2544.085,2567.953,56971843.2,62290204.8,67286526.4
2013-06-13,2448.717,2448.717,2399.937,2375.204,69730064.0,-84.223,-3.39,2507.629,2566.844,2571.781,59042086.4,65113362.4,67232302.8
2013-06-07,2526.913,2538.891,2484.16,2475.687,61030896.0,-43.685,-1.73,2548.167,2586.809,2578.322,57050967.2,64559864.0,66450407.0
2013-06-06,2552.817,2557.678,2527.845,2525.306,52496528.0,-32.694,-1.28,2572.62,2598.116,2581.156,57350494.4,64530741.2,65839698.6
2013-06-05,2565.329,2570.027,2560.539,2545.19,45637192.0,-5.127,-0.2,2593.915,2603.616,2581.154,60880462.4,67763625.2,66226879.4
2013-06-04,2600.499,2600.499,2565.666,2556.056,66315752.0,-36.957,-1.42,2610.32,2609.366,2580.267,67608566.4,70619087.6,66922734.6
2013-06-03,2605.969,2625.936,2602.623,2596.051,59774468.0,-3.803,-0.15,2626.058,2614.284,2578.48,71184638.4,71138111.6,66331479.2
2013-05-31,2638.71,2645.565,2606.426,2604.746,62528532.0,-27.897,-1.06,2625.451,2614.983,2574.648,72068760.8,73794444.8,66363694.8
2013-05-30,2633.955,2647.443,2634.323,2623.581,70146368.0,-8.238,-0.31,2623.612,2613.545,2568.973,71710988.0,75726671.6,66353772.8
2013-05-29,2648.927,2661.229,2642.561,2640.881,79277712.0,-1.798,-0.07,2613.317,2605.384,2559.738,74646788.0,75791653.2,65197258.8
2013-05-28,2600.632,2644.359,2644.359,2585.901,84196112.0,44.772,1.72,2608.411,2591.82,2549.976,73629608.8,72282848.0,63589542.0
2013-05-27,2593.522,2611.972,2599.587,2589.739,64195080.0,2.359,0.09,2602.51,2576.718,2541.151,71091584.8,69351243.2,62407632.8
2013-05-24,2591.419,2608.35,2597.228,2572.884,60739668.0,14.379,0.56,2604.514,2569.836,2535.951,75520128.8,68340950.0,62350424.6
2013-05-23,2604.93,2624.076,2582.849,2579.347,84825368.0,-35.185,-1.34,2603.478,2564.197,2528.563,79742355.2,67148656.0,62346140.4
2013-05-22,2613.411,2630.068,2618.034,2603.75,74191816.0,3.181,0.12,2597.45,2558.691,2525.954,76936518.4,64690133.6,61230466.2
2013-05-21,2607.393,2617.4,2614.853,2594.249,71505992.0,5.246,0.2,2575.228,2551.168,2521.744,70936087.2,63226381.6,61296919.4
2013-05-20,2597.151,2627.616,2609.607,2590.053,86337800.0,17.559,0.68,2550.925,2542.676,2514.244,67610901.6,61524846.8,59864655.2
2013-05-17,2550.452,2598.706,2592.048,2547.776,81850800.0,39.339,1.54,2535.158,2534.314,2506.687,61161771.2,58932944.8,57782373.4
2013-05-16,2501.117,2553.058,2552.709,2487.763,70796184.0,45.784,1.83,2524.915,2524.4,2500.064,54554956.8,56980874.0,56453864.0
2013-05-15,2493.968,2507.43,2506.925,2491.927,44189660.0,13.587,0.55,2519.932,2514.093,2494.27,52443748.8,54602864.4,55241041.6
2013-05-14,2525.998,2526.145,2493.338,2479.872,54880064.0,-37.43,-1.48,2527.107,2508.131,2492.029,55516676.0,54896236.0,55027422.6
2013-05-13,2542.412,2547.602,2530.768,2516.728,54092148.0,-10.068,-0.4,2534.427,2505.585,2491.256,55438792.0,55464022.4,54432917.4
2013-05-10,2519.517,2546.975,2540.836,2515.158,48816728.0,13.042,0.52,2533.47,2502.066,2488.983,56704118.4,56359899.2,54103555.6
2013-05-09,2542.374,2543.305,2527.794,2507.792,60240144.0,-15.004,-0.59,2523.885,2492.93,2486.413,59406791.2,57543624.8,54282210.4
2013-05-08,2542.266,2562.007,2542.798,2531.251,59554296.0,12.86,0.51,2508.254,2493.217,2483.638,56761980.0,57770798.8,53935041.8
2013-05-07,2519.364,2539.298,2529.938,2507.756,54490644.0,3.955,0.16,2489.156,2492.32,2480.675,54275796.0,59367457.2,53235538.0
2013-05-06,2502.978,2533.855,2525.983,2500.455,60418780.0,33.071,1.33,2476.743,2485.811,2478.498,55489252.8,58204463.6,53295213.4
2013-05-03,2457.543,2521.119,2492.912,2457.543,62330092.0,43.273,1.77,2470.662,2479.06,2476.858,56015680.0,56631802.0,52641575.6
2013-05-02,2434.603,2453.749,2449.639,2423.077,47016088.0,2.333,0.1,2461.974,2475.728,2476.967,55680458.4,55926854.0,52145177.8
2013-04-26,2477.724,2488.585,2447.306,2439.796,47123376.0,-20.569,-0.83,2478.18,2474.446,2479.45,58779617.6,55879218.8,54173293.8
2013-04-25,2486.857,2505.482,2467.875,2456.566,60557928.0,-27.704,-1.11,2495.484,2475.927,2486.261,64459118.4,55158609.2,54662450.8
2013-04-24,2452.781,2511.202,2495.579,2446.587,63050916.0,46.108,1.88,2494.88,2476.927,2491.62,60919674.4,53401812.4,54832702.4
2013-04-23,2532.201,2532.201,2449.471,2448.2,60653984.0,-81.199,-3.21,2487.458,2475.9,2497.496,57247924.0,51847212.0,54493226.6
2013-04-22,2525.113,2539.046,2530.67,2518.257,62511884.0,-3.157,-0.12,2489.483,2479.896,2505.938,56173249.6,51020796.0,54242884.4
2013-04-19,2469.951,2542.453,2533.827,2469.323,75520880.0,68.976,2.8,2470.712,2474.059,2510.154,52978820.0,50099284.8,54594927.8
2013-04-18,2440.707,2478.413,2464.851,2434.73,42860708.0,6.378,0.26,2456.369,2469.031,2513.971,45858100.0,47103618.8,55353915.0
2013-04-17,2457.881,2465.202,2458.473,2437.345,44692164.0,-1.119,-0.04,2458.974,2471.185,2516.983,45883950.4,48385963.2,55937703.4
2013-04-16,2419.508,2461.046,2459.592,2416.617,55280612.0,22.774,0.94,2464.341,2474.656,2519.184,46446500.0,48651349.2,56693734.0
2013-04-15,2453.967,2461.668,2436.818,2430.149,46539736.0,-25.294,-1.03,2470.309,2478.205,2523.198,45868342.4,48363501.6,57998312.6
2013-04-12,2476.322,2489.118,2462.112,2460.182,39917280.0,-15.764,-0.64,2477.405,2484.454,2528.071,47219749.6,52467368.8,58051613.6
2013-04-11,2502.5,2508.593,2477.876,2476.396,42989960.0,-7.433,-0.3,2481.692,2496.595,2531.34,48349137.6,54166292.4,58877272.6
2013-04-10,2487.984,2495.572,2485.309,2466.19,47504912.0,-4.121,-0.17,2483.395,2506.313,2535.227,50887976.0,56263592.4,60324531.8
2013-04-09,2477.29,2505.294,2489.43,2477.29,52389824.0,17.131,0.69,2484.971,2519.092,2540.58,50856198.4,57139241.2,60496608.0
2013-04-08,2443.24,2473.309,2472.299,2429.5,53296772.0,-11.248,-0.45,2486.101,2531.979,2546.455,50858660.8,57464972.8,60848594.6
2013-04-03,2493.877,2507.143,2483.547,2474.927,45564220.0,-2.844,-0.11,2491.502,2546.248,2553.814,57714988.0,59090570.8,62887889.2
2013-04-02,2495.843,2524.463,2486.391,2475.0,55684152.0,-6.796,-0.27,2511.499,2558.911,2562.146,59983447.2,63604211.2,65401160.6
2013-04-01,2486.428,2507.825,2493.187,2483.732,47346024.0,-1.896,-0.08,2529.23,2562.782,2568.967,61639208.8,63489443.6,67100010.6
2013-03-29,2502.782,2509.109,2495.083,2482.488,52402136.0,-4.219,-0.17,2553.212,2563.712,2571.594,63422284.0,64736118.8,70263664.6
2013-03-28,2535.988,2535.988,2499.302,2495.083,87578408.0,-84.228,-3.26,2577.857,2568.191,2580.281,64071284.8,67633123.6,71310745.4
2013-03-27,2575.726,2611.939,2583.53,2566.345,56906516.0,8.48,0.33,2600.995,2571.688,2588.982,60466153.6,63635858.4,71277954.6
2013-03-26,2601.964,2607.357,2575.05,2554.974,63962960.0,-38.047,-1.46,2606.323,2566.084,2589.54,67224975.2,63588252.8,71593966.0
2013-03-25,2628.407,2641.609,2613.097,2607.613,56261400.0,-5.211,-0.2,2596.333,2564.14,2589.167,65339678.4,64385471.2,72395971.2
2013-03-22,2612.256,2625.531,2618.308,2603.344,55647140.0,3.32,0.13,2574.212,2562.068,2588.76,66049953.6,63853974.8,72240998.4
2013-03-21,2611.58,2626.538,2614.988,2598.509,69552752.0,4.814,0.18,2558.525,2560.93,2587.675,71194962.4,64232216.4,72468884.0
2013-03-20,2526.968,2610.174,2610.174,2526.83,90700624.0,85.077,3.37,2542.382,2561.379,2587.453,66805563.2,66685207.6,74024145.6
2013-03-19,2507.396,2532.07,2525.097,2491.854,54536476.0,22.604,0.9,2525.844,2565.382,2592.076,59951530.4,67198110.0,72990083.2
2013-03-18,2526.077,2544.619,2502.493,2499.828,59812776.0,-37.38,-1.47,2531.948,2575.153,2600.102,63431264.0,70710577.6,74294581.0
2013-03-15,2533.722,2600.091,2539.873,2504.458,81372184.0,5.6,0.22,2549.924,2579.475,2611.85,61657996.0,75791210.4,75125853.4
2013-03-14,2517.745,2546.699,2534.273,2514.463,47605756.0,6.787,0.27,2563.335,2592.371,2623.443,57269470.4,74988367.2,74928726.6
2013-03-13,2551.726,2556.773,2527.486,2515.058,56430460.0,-28.129,-1.1,2580.376,2606.277,2634.723,66564852.0,78920050.8,77047346.0
2013-03-12,2590.391,2619.512,2555.615,2530.251,71935144.0,-36.757,-1.42,2604.919,2612.996,2647.141,74444689.6,79599679.2,78364786.6
2013-03-11,2600.278,2611.652,2592.372,2574.172,50946436.0,-14.555,-0.56,2618.357,2614.194,2657.944,77989891.2,80406471.2,80574570.2
2013-03-08,2622.684,2632.624,2606.927,2601.961,59429556.0,-12.552,-0.48,2609.026,2615.453,2665.727,89924424.8,80628022.0,84424207.2
2013-03-07,2639.783,2658.969,2619.479,2592.867,94082664.0,-30.723,-1.16,2621.408,2614.42,2672.546,92707264.0,80705551.6,86646705.0
2013-03-06,2634.87,2658.139,2650.202,2620.431,95829648.0,27.395,1.04,2632.177,2613.527,2675.917,91275249.6,81363083.6,86779577.0
2013-03-05,2547.893,2623.171,2622.807,2541.766,89661152.0,77.092,3.03,2621.072,2618.771,2677.842,84754668.8,78782056.4,86981844.2
2013-03-04,2619.42,2619.574,2545.715,2528.694,110619104.0,-123.121,-4.61,2610.03,2625.05,2680.495,82823051.2,77878584.4,87550798.2
2013-03-01,2671.842,2680.854,2668.836,2626.995,73343752.0,-4.491,-0.17,2621.879,2644.226,2685.802,71331619.2,74460496.4,86583582.6
2013-02-28,2611.94,2673.711,2673.327,2593.997,86922592.0,78.65,3.03,2607.433,2654.515,2680.944,68703839.2,74869086.0,85840763.0
2013-02-27,2576.046,2615.249,2594.677,2569.38,63226744.0,27.082,1.05,2594.877,2663.169,2676.416,71450917.6,75174641.2,87058491.8
2013-02-26,2587.375,2631.094,2567.595,2564.672,80003064.0,-37.365,-1.43,2616.469,2681.286,2677.055,72809444.0,77129894.0,87684126.6
2013-02-25,2607.149,2628.696,2604.96,2590.787,53161944.0,8.356,0.32,2640.071,2701.694,2678.52,72934117.6,80742669.2,88972287.0
2013-02-22,2607.65,2618.483,2596.604,2591.146,60204852.0,-13.945,-0.53,2666.573,2716.001,2678.817,77589373.6,88220392.4,90520877.0
2013-02-21,2675.741,2675.741,2610.549,2584.758,100657984.0,-92.086,-3.41,2701.597,2730.673,2678.758,81034332.8,92587858.4,91407649.6
2013-02-20,2686.093,2703.098,2702.635,2665.231,70019376.0,17.029,0.63,2731.461,2738.306,2675.869,78898364.8,92196070.4,89870512.4
2013-02-19,2735.045,2740.739,2685.606,2674.339,80626432.0,-51.865,-1.9,2746.103,2736.914,2669.592,81450344.0,95181632.0,91046347.6
2013-02-18,2784.065,2787.74,2737.471,2731.506,76438224.0,-34.254,-1.24,2763.317,2735.94,2665.104,88551220.8,97223012.0,91946066.4
2013-02-08,2755.649,2791.303,2771.725,2747.946,77429648.0,11.855,0.43,2765.428,2727.379,2657.117,98851411.2,98706668.8,92801859.6
2013-02-07,2771.53,2775.974,2759.87,2722.874,89978144.0,-15.974,-0.57,2759.748,2707.374,2642.692,104141384.0,96812440.0,92642336.0
2013-02-06,2771.908,2787.456,2775.844,2765.743,82779272.0,4.169,0.15,2745.151,2689.662,2631.227,105493776.0,98942342.4,91697722.0
2013-02-05,2727.93,2779.953,2771.675,2725.362,116130816.0,23.647,0.86,2727.724,2672.823,2618.741,108912920.0,98238359.2,91070316.8
2013-02-04,2753.688,2768.504,2748.028,2731.08,127939176.0,4.704,0.17,2708.562,2655.346,2606.424,105894803.2,97201904.8,88855631.2
2013-02-01,2677.187,2744.322,2743.324,2671.274,103879512.0,56.442,2.1,2689.329,2641.633,2595.822,98561926.4,92821361.6,86217072.0
2013-01-31,2690.951,2696.881,2686.882,2671.33,96740104.0,-1.829,-0.07,2654.999,2626.844,2584.876,89483496.0,90227440.8,85922505.6
2013-01-30,2678.433,2689.683,2688.711,2662.062,99874992.0,12.845,0.48,2634.174,2613.432,2576.68,92390908.8,87544954.4,85185615.2
2013-01-29,2655.377,2685.531,2675.866,2646.154,101040232.0,24.003,0.91,2617.923,2602.27,2566.247,87563798.4,86911063.2,83550181.6
2013-01-28,2577.267,2651.967,2651.863,2577.267,91274792.0,80.189,3.12,2602.129,2594.269,2554.683,88509006.4,86669120.8,82160923.2
2013-01-25,2580.881,2591.513,2571.674,2567.107,58487360.0,-11.081,-0.43,2593.936,2586.855,2544.971,87080796.8,86897050.4,81176774.8
2013-01-24,2606.427,2663.404,2582.755,2564.206,111277168.0,-24.701,-0.95,2598.689,2578.011,2538.807,90971385.6,88472232.0,83027524.4
2013-01-23,2588.198,2611.409,2607.456,2576.362,75739440.0,10.558,0.41,2592.69,2572.792,2528.73,82699000.0,84453101.6,80118016.2
2013-01-22,2610.392,2620.025,2596.898,2578.181,105766272.0,-14.0,-0.54,2586.617,2564.659,2516.957,86258328.0,83902274.4,79766752.2
2013-01-21,2605.649,2611.201,2610.898,2582.652,84133744.0,15.459,0.6,2586.409,2557.502,2506.353,84829235.2,80509357.6,77761211.8
2013-01-18,2568.692,2607.446,2595.439,2553.451,77940304.0,42.681,1.67,2579.774,2550.011,2494.364,86713304.0,79612782.4,76719151.0
2013-01-17,2570.711,2575.058,2552.758,2539.674,69915240.0,-24.334,-0.94,2557.332,2542.908,2482.998,85973078.4,81617570.4,77111378.2
2013-01-16,2591.365,2600.093,2577.092,2540.521,93536080.0,-18.764,-0.72,2552.894,2539.927,2473.695,86207203.2,82826276.0,78320025.8
2013-01-15,2579.132,2605.41,2595.856,2576.919,98620808.0,18.131,0.7,2542.701,2530.223,2462.633,81546220.8,80189300.0,79187849.8
2013-01-14,2474.176,2583.625,2577.725,2473.998,93554088.0,94.495,3.81,2528.596,2515.097,2444.972,76189480.0,77652725.6,76353914.4
2013-01-11,2533.495,2539.794,2483.23,2473.696,74239176.0,-47.339,-1.87,2520.248,2503.086,2429.474,72512260.8,75456499.2,73926532.8
2013-01-10,2525.59,2553.352,2530.569,2513.729,71085864.0,4.443,0.18,2528.484,2499.603,2418.238,77262062.4,77582816.8,72788009.2
2013-01-09,2518.104,2534.239,2526.126,2504.299,70231168.0,0.796,0.03,2526.96,2484.668,2405.262,79445348.8,75782930.8,72902489.6
2013-01-08,2534.647,2540.513,2525.33,2502.49,71837104.0,-10.655,-0.42,2517.745,2469.255,2391.293,78832379.2,75631230.0,73199418.4
2013-01-07,2518.047,2545.969,2535.985,2511.603,75167992.0,11.576,0.46,2501.598,2455.204,2375.207,79115971.2,75013066.0,72036297.6
2013-01-04,2551.814,2558.529,2524.409,2498.892,97988184.0,1.457,0.06,2485.925,2438.716,2358.802,78400737.6,73825519.6,72402253.2
2012-12-31,2485.559,2522.952,2522.952,2485.559,82002296.0,42.903,1.73,2470.722,2423.087,2339.155,77903571.2,72605186.0,69314139.8
2012-12-28,2448.076,2481.592,2480.049,2444.381,67166320.0,35.455,1.45,2442.375,2407.462,2329.481,72120512.8,73813775.6,68646342.11
2012-12-27,2464.779,2479.792,2444.594,2443.681,73255064.0,-13.025,-0.53,2420.765,2395.044,2321.116,72430080.8,78186399.6,68728565.56
2012-12-26,2445.987,2458.007,2457.619,2441.642,71591824.0,9.224,0.38,2408.81,2374.848,2313.853,70910160.8,75055103.2,68462300.94
2012-12-25,2373.88,2459.302,2448.395,2365.41,95502352.0,67.178,2.82,2391.508,2355.863,2304.868,69250301.6,72396566.4,68266705.75
2012-12-24,2368.007,2396.725,2381.217,2367.038,53087004.0,9.215,0.39,2375.453,2336.873,2295.299,67306800.8,67993201.6,66450996.0
2012-12-21,2386.376,2414.223,2372.002,2365.032,68714160.0,-12.814,-0.54,2372.549,2325.856,2289.162,75507038.4,70022048.4,67405566.86
2012-12-20,2361.322,2391.924,2384.816,2346.55,65655464.0,13.707,0.58,2369.322,2313.332,2282.79,83942718.4,70767606.8,67304905.85
2012-12-19,2362.802,2387.142,2371.109,2358.033,63292528.0,2.989,0.13,2340.886,2295.21,2274.288,79200045.6,69059529.2,67442359.33
2012-12-18,2361.095,2398.63,2368.12,2347.077,85784848.0,1.42,0.06,2320.217,2278.887,2265.486,75542831.2,70978986.8,67819616.73
2012-12-17,2359.201,2380.001,2366.7,2358.664,94088192.0,10.835,0.46,2298.293,2255.222,2255.222,68679602.4,66023093.6,66023093.6
2012-12-14,2245.636,2357.106,2355.865,2245.636,110892560.0,113.23,5.05,2279.163,2242.836,2242.836,64537058.4,62904749.33,62904749.33
2012-12-13,2260.601,2266.721,2242.635,2242.557,41942100.0,-25.132,-1.11,2257.341,2228.707,2228.707,57592495.2,56906273.0,56906273.0
2012-12-12,2257.73,2273.211,2267.767,2247.953,45006456.0,9.267,0.41,2249.534,2226.718,2226.718,58919012.8,59044012.0,59044012.0
2012-12-11,2263.209,2274.994,2258.5,2254.299,51468704.0,-12.546,-0.55,2237.557,2219.876,2219.876,66415142.4,61383604.67,61383604.67
2012-12-10,2254.915,2276.28,2271.046,2250.437,73375472.0,24.289,1.08,2212.151,2212.151,2212.151,63366584.8,63366584.8,63366584.8
2012-12-07,2203.887,2250.529,2246.757,2198.107,76169744.0,43.155,1.96,2197.428,2197.428,2197.428,60864363.0,60864363.0,60864363.0
2012-12-06,2205.605,2216.976,2203.602,2191.227,48574688.0,-4.276,-0.19,2180.984,2180.984,2180.984,55762569.33,55762569.33,55762569.33
2012-12-05,2128.387,2219.094,2207.878,2126.793,82487104.0,76.405,3.58,2169.676,2169.676,2169.676,59356510.0,59356510.0,59356510.0
2012-12-04,2104.928,2135.662,2131.473,2102.135,36225916.0,22.623,1.07,2131.473,2131.473,2131.473,36225916.0,36225916.0,36225916.0
