date,open,high,close,low,volume,price_change,p_change,ma5,ma10,ma20,v_ma5,v_ma10,v_ma20
2015-12-03,12205.439,12447.381,12447.381,12205.439,249532944.0,261.11,2.14,12142.876,12435.869,12466.315,296089113.6,316656601.6,340613396.8
2015-12-02,12068.977,12188.011,12186.271,11830.989,263999920.0,105.101,0.87,12206.901,12452.116,12440.937,316114851.2,321150049.6,349593607.2
2015-12-01,12022.835,12206.165,12081.17,11938.627,270222240.0,43.313,0.36,12348.292,12461.864,12425.868,328398048.0,325365008.0,353365521.6
2015-11-30,11991.701,12121.219,12037.857,11455.495,325215296.0,76.154,0.64,12471.029,12504.902,12386.217,331139737.6,338692480.0,351056975.2
2015-11-27,12697.507,12733.452,11961.703,11880.321,371475168.0,-805.799,-6.31,12580.796,12563.154,12349.568,338573779.2,335411776.0,348530756.0
2015-11-26,12951.998,12970.47,12767.502,12747.892,349661632.0,-125.726,-0.97,12728.862,12607.187,12328.786,337224089.6,334563606.4,344773794.4
2015-11-25,12696.132,12904.787,12893.228,12666.188,325415904.0,198.372,1.56,12697.331,12593.977,12268.744,326185248.0,339951955.2,341381192.8
2015-11-24,12580.717,12694.856,12694.856,12438.921,283930688.0,108.165,0.86,12575.437,12572.407,12198.8,322331968.0,345622848.0,342186864.8
2015-11-23,12699.146,12806.316,12586.691,12539.98,362385504.0,-115.343,-0.91,12538.774,12552.975,12151.977,346245222.4,357321110.4,346306932.0
2015-11-20,12650.248,12766.261,12702.034,12565.801,364726720.0,92.19,0.73,12545.512,12539.63,12107.031,332249772.8,363305804.8,347765031.2
2015-11-19,12326.161,12609.844,12609.844,12309.785,294467424.0,326.086,2.65,12485.513,12496.761,12052.103,331903123.2,364570192.0,348477636.0
2015-11-18,12516.14,12580.913,12283.758,12257.042,306149504.0,-227.787,-1.82,12490.622,12429.758,11986.865,353718662.4,378037164.8,350095829.6
2015-11-17,12744.793,12827.201,12511.545,12478.973,403496960.0,-108.835,-0.86,12569.378,12389.872,11918.477,368913728.0,381366035.2,355875652.0
2015-11-16,12180.986,12620.38,12620.38,12171.662,292408256.0,218.344,1.76,12567.175,12267.532,11872.754,368396998.4,363421470.4,352148274.4
2015-11-13,12492.942,12574.962,12402.036,12272.381,362993472.0,-233.357,-1.85,12533.747,12135.982,11811.285,394361836.8,361649736.0,355246020.0
2015-11-12,12735.502,12758.673,12635.393,12483.34,403545120.0,-42.144,-0.33,12508.01,12050.384,11759.925,397237260.8,354983982.4,354961210.4
2015-11-11,12509.525,12687.196,12677.537,12445.288,382124832.0,177.009,1.42,12368.893,11943.511,11689.625,402355667.2,342810430.4,350208468.0
2015-11-10,12390.527,12597.163,12500.528,12349.033,400913312.0,47.287,0.38,12210.366,11825.192,11600.822,393818342.4,338750881.6,345907365.6
2015-11-09,12227.405,12538.352,12453.241,12145.064,422232448.0,179.89,1.47,11967.889,11750.98,11527.902,358445942.4,335292753.6,340619511.2
2015-11-06,11952.512,12292.424,12273.351,11952.512,377370592.0,333.541,2.79,11738.217,11674.433,11453.308,328937635.2,332224257.6,336575023.2
2015-11-05,11908.688,12091.53,11939.81,11853.464,429137152.0,54.91,0.46,11592.757,11607.444,11366.65,312730704.0,332385080.0,329800772.8
2015-11-04,11351.249,11884.9,11884.9,11351.249,339438208.0,596.756,5.29,11518.128,11543.973,11289.396,283265193.6,322154494.4,319878312.8
2015-11-03,11341.303,11416.838,11288.144,11200.597,224051312.0,-16.738,-0.15,11440.017,11447.082,11199.729,283683420.8,330385268.8,303149461.1
2015-11-02,11306.204,11637.988,11304.882,11266.038,274690912.0,-241.169,-2.09,11534.071,11477.975,11134.735,312139564.8,340875078.4,299437087.5
2015-10-30,11542.014,11711.037,11546.051,11369.395,296335936.0,-20.611,-0.18,11610.649,11486.588,11066.987,335510880.0,348842304.0,294426586.7
2015-10-29,11565.713,11694.781,11566.662,11406.102,281809600.0,72.315,0.63,11622.13,11469.467,10995.461,352039456.0,354938438.4,287810841.1
2015-10-28,11689.287,11834.073,11494.347,11446.43,341529344.0,-264.066,-2.25,11569.818,11435.738,10912.366,361043795.2,357606505.6,285057367.5
2015-10-27,11588.942,11820.723,11758.413,11229.102,366332032.0,70.641,0.6,11454.146,11376.452,10849.551,377087116.8,353063849.6,279055481.1
2015-10-26,11765.652,11789.02,11687.772,11534.826,391547488.0,84.316,0.73,11421.879,11304.823,10768.245,369610592.0,345946268.8,272331080.3
2015-10-23,11397.199,11653.087,11603.456,11345.527,378978816.0,298.353,2.64,11362.528,11232.182,10695.791,362173728.0,340925788.8,265948600.3
2015-10-22,10921.178,11320.011,11305.103,10910.879,326831296.0,389.117,3.56,11316.803,11125.856,10624.454,357837420.8,327216465.6,258358052.3
2015-10-21,11592.199,11641.893,10915.986,10872.567,421745952.0,-681.094,-5.87,11301.659,11034.819,10551.738,354169216.0,317602131.2,251400537.1
2015-10-20,11372.178,11597.156,11597.08,11335.783,328949408.0,206.067,1.81,11298.757,10952.377,10492.933,329040582.4,275913653.4,243999020.3
2015-10-19,11426.518,11498.24,11391.013,11245.014,354363168.0,16.179,0.14,11187.767,10791.494,10407.6,322281945.6,257999096.6,239291600.3
2015-10-16,11301.935,11384.24,11374.834,11172.042,357297280.0,145.454,1.29,11101.837,10647.385,10302.59,319677849.6,240010869.4,231484164.3
2015-10-15,10862.112,11229.38,11229.38,10862.112,308490272.0,327.901,3.01,10934.909,10521.456,10222.76,296595510.4,220683243.8,225663436.3
2015-10-14,10997.082,11095.338,10901.479,10880.108,296102784.0,-140.651,-1.27,10767.98,10388.994,10184.476,281035046.4,212508229.4,219762177.1
2015-10-13,10885.105,11072.996,11042.13,10850.723,295156224.0,80.767,0.74,10605.997,10322.65,10160.634,222786724.4,205047112.6,216222746.7
2015-10-12,10599.884,11069.681,10961.363,10593.538,341342688.0,421.169,4.0,10395.221,10231.667,10139.535,193716247.6,198715891.8,217061231.5
2015-10-09,10386.806,10589.519,10540.194,10363.984,241885584.0,145.46,1.4,10192.932,10159.399,10107.478,160343889.2,190971411.8,210015469.1
2015-10-08,10332.235,10477.209,10394.734,10265.0,230687952.0,406.484,4.07,10108.003,10123.052,10080.056,144770977.2,189499639.0,209348217.9
2015-10-07,10064.952,10126.635,10091.565,10064.952,4861174.0,103.315,1.03,10010.009,10068.656,10063.06,143981412.4,185198943.0,210772506.7
2015-09-30,10004.795,10048.859,9988.25,9890.706,149803840.0,38.332,0.39,10039.303,10033.489,10066.607,187307500.8,212084387.2,222844020.8
2015-09-29,9962.581,10070.254,9949.918,9873.781,174480896.0,-165.629,-1.64,10068.112,10023.707,10094.653,203715536.0,220584104.0,228688956.8
2015-09-28,9919.562,10124.313,10115.547,9796.929,164021024.0,210.783,2.13,10125.866,9957.796,10137.157,221598934.4,222957459.2,235764340.8
2015-09-25,10184.88,10249.242,9904.764,9835.842,226740128.0,-333.274,-3.25,10138.102,9924.064,10144.097,234228300.8,230643628.8,241161382.4
2015-09-24,10178.098,10288.184,10238.038,10124.128,221491616.0,105.743,1.04,10127.304,9979.957,10143.845,226416473.6,227016124.8,246160734.4
2015-09-23,10071.333,10250.453,10132.295,10040.948,231844016.0,-106.391,-1.04,10027.674,9998.619,10141.839,236861273.6,227398380.8,246023491.2
2015-09-22,10200.547,10357.417,10238.686,10121.741,263897888.0,61.959,0.61,9979.301,10047.402,10183.739,237452672.0,235406571.2,244122758.4
2015-09-21,9732.122,10176.727,10176.727,9701.325,227167856.0,325.955,3.31,9789.725,10055.556,10266.907,224315984.0,229059526.4,243935903.2
2015-09-18,9806.716,9914.585,9850.772,9691.064,187680992.0,110.882,1.14,9710.026,10037.06,10387.3,227058956.8,229196796.8,246765297.6
2015-09-17,9872.041,10147.175,9739.89,9739.89,273715616.0,-150.539,-1.52,9832.61,10057.463,10542.794,227615776.0,236346070.4,253968675.2
2015-09-16,9330.755,9933.83,9890.429,9297.198,234801008.0,599.622,6.45,9969.563,10099.726,10689.992,217935488.0,233603654.4,259734640.0
2015-09-15,9533.45,9719.662,9290.807,9259.648,198214448.0,-487.427,-4.99,10115.504,10165.599,10874.166,233360470.4,236793809.6,264335050.4
2015-09-14,10517.684,10544.281,9778.234,9739.421,240882720.0,-685.458,-6.55,10321.388,10316.518,11081.919,233803068.8,248571222.4,270764086.4
2015-09-11,10408.407,10555.62,10463.692,10332.411,190465088.0,39.038,0.37,10364.094,10364.129,11262.766,231334636.8,251679136.0,273073073.6
2015-09-10,10449.926,10618.869,10424.654,10406.021,225314176.0,-195.479,-1.84,10282.316,10307.732,11395.437,245076364.8,265305344.0,277805508.8
2015-09-09,10367.348,10702.183,10620.133,10335.022,311925920.0,299.907,2.91,10229.888,10285.06,11540.358,249271820.8,264648601.6,284131294.4
2015-09-08,9898.635,10341.304,10320.226,9763.949,200427440.0,328.462,3.29,10215.694,10320.076,11674.5,240227148.8,252838945.6,284689035.2
2015-09-07,10121.829,10404.223,9991.764,9933.541,228540560.0,-63.037,-0.63,10311.648,10478.258,11796.141,263339376.0,258812280.0,287262065.6
2015-09-02,9694.477,10319.485,10054.801,9682.708,259173728.0,-107.715,-1.06,10364.165,10737.539,11917.645,272023635.2,264333798.4,285946496.0
2015-09-01,10388.498,10388.498,10162.516,9954.577,246291456.0,-386.647,-3.67,10333.149,11028.125,12041.14,285534323.2,271591280.0,286545348.8
2015-08-31,10706.227,10706.227,10549.163,10398.33,266702560.0,-250.833,-2.32,10340.233,11280.259,12168.592,280025382.4,285865625.6,287310811.2
2015-08-28,10397.966,10826.191,10799.996,10311.368,315988576.0,545.647,5.32,10424.458,11582.733,12249.212,265450742.4,291876291.2,286162536.8
2015-08-27,10076.092,10254.349,10254.349,9713.986,271961856.0,354.63,3.58,10644.868,11847.321,12327.925,254285184.0,292956950.4,282122684.0
2015-08-26,10199.896,10559.241,9899.719,9776.21,326727168.0,-298.218,-2.92,11110.914,12161.404,12435.004,256643961.6,294467011.2,283497517.6
2015-08-25,10212.472,10529.923,10197.937,10168.416,218746752.0,-772.353,-7.04,11723.102,12483.142,12581.172,257648236.8,290305673.6,281985597.6
2015-08-24,11399.663,11446.099,10970.29,10964.092,193829360.0,-931.756,-7.83,12220.285,12795.656,12687.114,291705868.8,303613987.2,289763812.0
2015-08-21,12355.274,12511.415,11902.046,11891.839,260160784.0,-682.531,-5.42,12741.008,13028.924,12763.252,318301840.0,316539124.8,298294296.0
2015-08-20,12864.835,13040.362,12584.577,12582.244,283755744.0,-376.082,-2.9,13049.773,13114.024,12844.075,331628716.8,315711851.2,305329053.6
2015-08-19,12328.596,13028.504,12960.659,12049.916,331748544.0,276.804,2.18,13211.893,13097.751,12902.572,332290060.8,307559193.6,309493440.8
2015-08-18,13608.516,13652.542,12683.855,12634.948,389034912.0,-890.047,-6.56,13243.182,13054.154,12925.366,322963110.4,301499417.6,309651460.0
2015-08-17,13417.326,13585.961,13573.902,13309.538,326809216.0,128.028,0.95,13371.028,13056.925,12956.951,315522105.6,288755996.8,305820500.0
2015-08-14,13497.164,13606.327,13445.874,13378.591,326795168.0,50.698,0.38,13316.84,12915.692,12938.376,314776409.6,280448782.4,307388298.4
2015-08-13,13069.983,13395.176,13395.176,12962.0,287062464.0,278.075,2.12,13178.275,12808.53,12916.33,299794985.6,271288417.6,306398922.4
2015-08-12,13201.538,13396.335,13117.101,13117.101,285113792.0,-205.984,-1.55,12983.609,12708.605,12864.452,282828326.4,272528024.0,308260506.4
2015-08-11,13316.888,13508.299,13323.085,13240.088,351829888.0,20.123,0.15,12865.126,12679.202,12815.218,280035724.8,273665521.6,311269588.0
2015-08-10,12877.307,13373.304,13302.962,12821.892,323080736.0,549.913,4.31,12742.822,12578.571,12785.489,261989888.0,275913636.8,307959850.4
2015-08-07,12543.656,12769.133,12753.049,12522.473,251888048.0,331.2,2.67,12514.544,12497.579,12751.049,246121155.2,280049467.2,303498269.6
2015-08-06,12274.724,12595.123,12421.849,12231.888,202229168.0,-102.837,-0.82,12438.785,12574.126,12715.303,242781849.6,294946256.0,298849628.8
2015-08-05,12694.571,12842.31,12524.686,12447.037,271150784.0,-186.876,-1.47,12433.6,12707.394,12669.728,262227721.6,311427688.0,299110896.8
2015-08-04,12163.121,12711.562,12711.562,12105.937,261600704.0,549.986,4.52,12493.277,12796.579,12595.538,267295318.4,317803502.4,300919786.4
2015-08-03,12178.572,12305.613,12161.576,11909.005,243737072.0,-212.678,-1.72,12414.32,12856.978,12528.74,289837385.6,322885003.2,299205952.8
2015-07-31,12228.413,12580.961,12374.254,12213.462,235191520.0,-21.668,-0.17,12480.614,12961.06,12524.45,313977779.2,334327814.4,306835998.4
2015-07-30,12766.342,12988.555,12395.922,12382.296,299458528.0,-427.151,-3.33,12709.466,13024.13,12518.04,347110662.4,341509427.2,310853232.0
2015-07-29,12472.275,12823.147,12823.073,12078.315,296488768.0,506.297,4.11,12981.188,13020.299,12544.454,360627654.4,343992988.8,311917059.2
2015-07-28,11986.247,12676.273,12316.776,11718.996,374311040.0,-176.27,-1.41,13099.88,12951.233,12585.841,368311686.4,348873654.4,314529726.4
2015-07-27,13242.69,13579.639,12493.046,12488.367,364439040.0,-1025.469,-7.59,13299.636,12992.407,12686.9,355932620.8,340006064.0,315791179.2
2015-07-24,13789.313,13970.836,13518.515,13424.181,400855936.0,-236.013,-1.72,13441.506,13004.518,12740.562,354677849.6,326947072.0,315516574.4
2015-07-23,13432.612,13792.365,13754.528,13356.055,367043488.0,337.992,2.52,13338.794,12856.481,12784.575,335908192.0,302753001.6,310207070.4
2015-07-22,13307.932,13482.039,13416.536,13098.805,334908928.0,100.98,0.76,13059.41,12632.062,12881.471,327358323.2,286794105.6,308440680.0
2015-07-21,13038.148,13436.912,13315.556,12928.133,312415712.0,113.161,0.86,12802.587,12394.498,13026.26,329435622.4,284036070.4,308303905.6
2015-07-20,13115.48,13427.863,13202.395,12942.945,358165184.0,197.438,1.52,12685.178,12200.502,13162.781,324079507.2,275526902.4,307329507.2
2015-07-17,12460.507,13097.454,13004.957,12435.595,307007648.0,647.351,5.24,12567.53,12087.84,13288.935,299216294.4,279344182.4,303903569.6
2015-07-16,11963.351,12600.653,12357.606,11637.472,324294144.0,225.187,1.86,12374.168,12011.95,13475.429,269597811.2,280197036.8,303006172.8
2015-07-15,12783.075,12792.311,12132.419,12093.9,345295424.0,-596.094,-4.68,12204.714,12068.609,13727.827,246229888.0,279841129.6,302412424.0
2015-07-14,12796.485,13091.928,12728.513,12635.197,285635136.0,114.358,0.91,11986.408,12220.448,13975.003,238636518.4,280185798.4,302798672.0
2015-07-13,12367.618,12658.069,12614.155,12261.253,233849120.0,576.01,4.79,11715.827,12381.394,14223.705,226974297.6,291576294.4,308825832.0
2015-07-10,11733.448,12062.902,12038.145,11696.769,158915232.0,527.805,4.58,11608.149,12476.605,14497.911,259472070.4,304086076.8,316386974.4
2015-07-09,10953.332,11513.36,11510.34,10932.997,207454528.0,469.451,4.25,11649.733,12712.669,14790.488,290796262.4,317661139.2,325995608.0
2015-07-08,10870.144,11112.616,11040.889,10850.384,307328576.0,-334.715,-2.94,11932.503,13130.88,15098.85,313452371.2,330087254.4,333560948.8
2015-07-07,11660.56,11767.66,11375.604,11282.623,227324032.0,-700.165,-5.8,12454.488,13658.022,15416.755,321735078.4,332571740.8,335552942.4
2015-07-06,13140.14,13140.14,12075.769,11584.471,396337984.0,-170.293,-1.39,13046.96,14125.06,15720.59,356178291.2,339132112.0,345227936.0
2015-07-03,12475.61,13154.131,12246.062,11953.081,315536192.0,-678.128,-5.25,13345.061,14490.03,15999.256,348700083.2,328462956.8,347621156.8
2015-07-02,13655.732,13732.494,12924.19,12727.229,320735072.0,-726.626,-5.32,13775.605,14938.908,16262.006,344526016.0,325815308.8,351924350.4
2015-07-01,14185.102,14696.982,13650.816,13578.375,348742112.0,-687.149,-4.79,14329.256,15387.046,16492.721,346722137.6,324983718.4,356247683.2
2015-06-30,13274.645,14352.052,14337.965,12723.159,399540096.0,771.694,5.69,14861.555,15729.558,16684.459,343408403.2,325411545.6,358635499.2
2015-06-29,14703.966,14712.163,13566.271,13250.347,358946944.0,-832.514,-5.78,15203.16,16066.016,16813.437,322085932.8,326075369.6,356898433.6
2015-06-26,15196.558,15229.001,14398.785,14321.052,294665856.0,-1293.659,-8.24,15635.0,16519.216,16940.146,308225830.4,328687872.0,359572948.8
2015-06-25,16369.995,16399.344,15692.444,15499.223,331715680.0,-619.867,-3.8,16102.211,16868.307,17015.854,307104601.6,334330076.8,370942137.6
2015-06-24,16178.553,16345.749,16312.311,15867.912,332173440.0,266.322,1.66,16444.836,17066.82,17079.408,303245299.2,337034643.2,376596115.2
2015-06-23,15720.321,16047.316,16045.989,14938.821,292927744.0,320.519,2.04,16597.56,17175.488,17108.966,307414688.0,338534144.0,382333516.8
2015-06-19,16386.98,16578.877,15725.47,15700.494,289646432.0,-1009.369,-6.03,16928.873,17316.12,17124.22,330064806.4,351323760.0,388757398.4
2015-06-18,17367.129,17442.77,16734.84,16709.604,289059712.0,-670.732,-3.85,17403.433,17508.482,17140.236,349149913.6,366779356.8,396081529.6
2015-06-17,17073.078,17474.078,17405.57,16564.365,312419168.0,329.64,1.93,17634.403,17585.103,17097.121,361555552.0,378033392.0,399416867.2
2015-06-16,17502.367,17502.367,17075.932,16911.91,353020384.0,-626.62,-3.54,17688.803,17598.397,16993.696,370823987.2,387511648.0,402776572.8
2015-06-15,18182.643,18211.758,17702.551,17668.67,406178336.0,-395.723,-2.19,17753.416,17639.361,16896.268,369653600.0,391859452.8,401027545.6
2015-06-12,17978.049,18198.072,18098.273,17921.91,385071968.0,208.585,1.17,17703.368,17560.859,16744.773,372582713.6,387721497.6,395493284.8
2015-06-11,17692.898,17889.91,17889.689,17606.426,351087904.0,212.117,1.2,17613.53,17361.076,16574.606,384408800.0,390458025.6,391798254.4
2015-06-10,17297.039,17852.359,17677.572,17165.895,358761344.0,278.576,1.6,17535.803,17163.402,16431.345,394511232.0,407554198.4,391141870.4
2015-06-09,17410.641,17609.275,17398.996,17184.324,347168448.0,-53.312,-0.3,17507.99,17091.997,16306.121,404199308.8,416157587.2,390554913.6
2015-06-08,17648.723,17648.723,17452.309,17145.697,420823904.0,-196.778,-1.11,17525.306,17042.444,16189.486,414065305.6,426132889.6,389896539.2
2015-06-05,17727.859,17901.863,17649.086,17302.555,444202400.0,148.034,0.85,17418.349,16932.319,16064.114,402860281.6,426191036.8,384725052.8
2015-06-04,17579.357,17608.725,17501.053,16426.312,401600064.0,-37.451,-0.21,17108.622,16771.99,15905.723,396507251.2,425383702.4,375226706.4
2015-06-03,17626.916,17696.477,17538.504,17098.432,407201728.0,52.925,0.3,16791.0,16609.138,15736.406,420597164.8,420800342.4,366472368.0
2015-06-02,17051.221,17485.578,17485.578,16963.738,396498432.0,568.053,3.36,16676.004,16388.996,15566.289,428115865.6,418041497.6,359442142.4
2015-06-01,16247.389,16921.066,16917.525,16245.553,364798784.0,817.077,5.08,16559.582,16153.176,15403.666,438200473.6,410195638.4,354649110.4
2015-05-29,15920.326,16386.055,16100.448,15299.647,412437248.0,187.501,1.18,16446.289,15928.687,15300.816,449521792.0,403265072.0,349612260.8
2015-05-28,16953.604,17153.803,15912.947,15909.101,522049632.0,-1050.575,-6.19,16435.358,15788.136,15236.725,454260153.6,393138483.2,342806334.4
2015-05-27,16988.904,17061.918,16963.521,16610.779,444795232.0,60.051,0.35,16427.276,15699.289,15184.676,421003520.0,374729542.4,330329153.6
2015-05-26,16456.23,16904.146,16903.471,16397.504,446921472.0,552.415,3.38,16101.988,15520.246,15071.862,407967129.6,364952240.0,324787035.2
2015-05-25,15894.14,16368.908,16351.056,15810.149,421405376.0,305.259,1.9,15746.769,15336.527,14967.159,382190803.2,353660188.8,319703595.2
2015-05-22,16084.038,16191.152,16045.797,15731.01,436129056.0,173.263,1.09,15411.084,15195.91,14879.541,357008352.0,343259068.8,316291624.0
2015-05-21,15402.948,15872.588,15872.534,15402.948,355766464.0,535.451,3.49,15140.914,15039.455,14814.412,332016812.8,325069710.4,313418360.0
2015-05-20,15206.559,15618.128,15337.083,15206.559,379613280.0,209.707,1.39,14971.301,14863.675,14758.242,328455564.8,312144393.6,313825251.2
2015-05-19,14723.214,15173.919,15127.376,14704.328,318039840.0,454.744,3.1,14938.503,14743.583,14713.338,321937350.4,300842787.2,310308217.6
2015-05-18,14612.884,14759.086,14672.632,14564.733,295493120.0,-22.315,-0.15,14926.286,14654.155,14650.549,325129574.4,299102582.4,312924696.0
2015-05-15,14955.411,14955.411,14694.947,14590.757,311171360.0,-329.521,-2.19,14980.736,14672.945,14624.385,329509785.6,295959449.6,314865102.4
2015-05-14,15210.753,15299.794,15024.468,15003.723,337960224.0,-148.624,-0.98,14937.996,14685.314,14588.027,318122608.0,292474185.6,312289039.2
2015-05-13,15075.024,15245.813,15173.092,14962.377,347022208.0,106.803,0.71,14756.048,14670.063,14519.134,295833222.4,285928764.8,310969736.8
2015-05-12,14975.226,15088.96,15066.289,14879.597,334000960.0,121.406,0.81,14548.663,14623.478,14462.603,279748224.0,284621830.4,309964080.8
2015-05-11,14572.815,14946.651,14944.883,14447.781,317394176.0,463.634,3.2,14382.025,14597.792,14416.764,273075590.4,285747001.6,309904437.6
2015-05-08,14271.461,14481.438,14481.249,14165.07,254235472.0,366.521,2.6,14365.154,14563.173,14370.186,262409113.6,289324179.2,308800124.0
2015-05-07,14080.355,14226.08,14114.728,14027.603,226513296.0,-21.438,-0.15,14432.632,14589.37,14335.961,266825763.2,301767009.6,313395878.4
2015-05-06,14347.55,14569.645,14136.166,14032.021,266597216.0,-96.932,-0.68,14584.077,14652.81,14322.31,276024307.2,315506108.8,320141674.4
2015-05-05,14831.905,14831.905,14233.098,14145.501,300637792.0,-627.432,-4.22,14698.293,14683.093,14303.938,289495436.8,319773648.0,324035661.6
2015-05-04,14846.478,14958.791,14860.53,14714.912,264061792.0,41.89,0.28,14813.558,14646.943,14267.015,298418412.8,326746809.6,325315450.4
2015-04-30,14909.06,15009.729,14818.64,14818.64,276318720.0,-53.312,-0.36,14761.191,14575.824,14195.294,316239244.8,333770755.2,328200717.6
2015-04-29,14669.217,14907.957,14871.952,14542.321,272506016.0,164.707,1.12,14746.107,14490.74,14124.098,336708256.0,332103892.8,328778562.4
2015-04-28,14946.95,14979.81,14707.245,14580.422,333952864.0,-102.179,-0.69,14721.543,14368.206,14038.534,354987910.4,336010708.8,331039692.0
2015-04-27,14749.024,14910.313,14809.424,14644.007,345252672.0,210.729,1.44,14667.893,14301.728,13962.837,350051859.2,335306331.2,329244608.8
2015-04-24,14615.535,14771.287,14598.695,14422.537,353165952.0,-144.522,-0.98,14480.328,14235.736,13866.087,355075206.4,334061873.6,323830767.2
2015-04-23,14842.205,14893.01,14743.217,14647.138,378663776.0,-5.916,-0.04,14390.457,14177.2,13771.801,351302265.6,328276068.8,321565349.6
2015-04-22,14529.244,14756.152,14749.133,14510.934,363904288.0,310.138,2.15,14235.374,14082.552,13672.495,327499529.6,325024747.2,319294183.2
2015-04-21,13882.436,14438.995,14438.995,13882.436,309272608.0,567.396,4.09,14014.869,13991.81,13575.099,317033507.2,324777240.0,320638236.0
2015-04-20,14132.829,14288.325,13871.599,13814.961,370369408.0,-277.743,-1.96,13935.563,13924.783,13492.165,320560803.2,328297675.2,321315645.6
2015-04-17,14120.773,14249.468,14149.342,14039.036,334301248.0,181.54,1.3,13991.144,13887.087,13425.808,313048540.8,323884091.2,317690877.6
2015-04-16,13549.873,14024.677,13967.802,13492.766,259650096.0,321.195,2.35,13963.943,13814.763,13339.796,305249872.0,322630680.0,316557732.0
2015-04-15,14023.402,14023.402,13646.607,13646.607,311574176.0,-395.857,-2.82,13929.729,13757.456,13266.218,322549964.8,325453232.0,319682520.0
2015-04-14,14132.612,14221.506,14042.464,13920.064,326909088.0,-107.041,-0.76,13968.751,13708.861,13192.363,332520972.8,326068675.2,319872900.8
2015-04-13,14100.353,14175.356,14149.505,13972.41,332808096.0,136.17,0.97,13914.004,13623.946,13091.129,336034547.2,323182886.4,316228777.6
2015-04-10,13718.925,14034.31,14013.335,13650.324,295307904.0,216.602,1.57,13783.031,13496.438,12969.334,334719641.6,313599660.8,308545784.0
2015-04-09,13898.493,13914.007,13796.733,13505.852,346150560.0,-44.984,-0.33,13665.584,13366.403,12850.447,340011488.0,314854630.4,303703452.8
2015-04-08,13814.979,13846.55,13841.717,13513.145,361429216.0,72.989,0.53,13585.182,13262.439,12736.864,328356499.2,313563619.2,296065972.8
2015-04-07,13626.621,13769.763,13768.728,13625.26,344476960.0,274.087,2.03,13448.972,13158.387,12622.611,319616377.6,316499232.0,287756048.0
2015-04-03,13336.866,13502.467,13494.641,13296.945,326233568.0,68.541,0.51,13333.889,13059.546,12510.836,310331225.6,314333616.0,279779620.8
2015-04-02,13486.895,13537.38,13426.1,13235.279,321767136.0,31.375,0.23,13209.846,12964.528,12405.724,292479680.0,311497664.0,273570874.4
2015-04-01,13187.422,13454.812,13394.725,13142.401,287875616.0,234.061,1.78,13067.222,12864.829,12312.739,289697772.8,310484784.0,268692312.8
2015-03-31,13420.923,13538.287,13160.664,13106.969,317728608.0,-32.652,-0.25,12939.696,12774.98,12225.756,298770739.2,313911808.0,265213685.6
2015-03-30,12917.136,13242.306,13193.316,12894.494,298051200.0,318.892,2.48,12867.803,12675.865,12144.034,313382086.4,313677126.4,262000486.4
2015-03-27,12779.326,12930.241,12874.424,12717.431,236975840.0,161.445,1.27,12785.203,12558.311,12078.569,318336006.4,309274668.8,259195966.4
2015-03-26,12703.346,12856.213,12712.979,12601.749,307857600.0,-44.116,-0.35,12719.209,12442.23,12022.732,330515648.0,303491907.2,256447952.8
2015-03-25,12776.003,12841.903,12757.095,12656.523,333240448.0,-44.107,-0.34,12662.436,12334.491,11974.622,331271795.2,292552275.2,249317361.6
2015-03-24,12841.145,12841.445,12801.202,12495.917,390785344.0,20.885,0.16,12610.265,12211.29,11913.752,329052876.8,278568326.4,240290991.2
2015-03-23,12644.19,12813.833,12780.317,12644.19,322820800.0,235.863,1.88,12483.927,12086.835,11867.657,313972166.4,259012864.0,220954621.59
2015-03-20,12427.414,12659.829,12544.454,12387.888,297874048.0,115.343,0.93,12331.419,11962.127,11814.569,300213331.2,245225625.6,212281607.19
2015-03-19,12549.547,12552.711,12429.111,12337.675,311638336.0,-67.128,-0.54,12165.25,11846.921,11767.109,276468166.4,235644084.8,205709707.19
2015-03-18,12206.717,12505.342,12496.239,12190.254,322145856.0,326.723,2.69,12006.546,11760.649,11717.806,253832755.2,226899841.6,198476180.79
2015-03-17,12083.438,12190.276,12169.516,12046.798,315381792.0,151.743,1.26,11812.315,11676.532,11658.131,228083776.0,216515563.2,189060697.99
2015-03-16,11791.417,12021.823,12017.773,11748.083,254026624.0,304.162,2.6,11689.743,11612.203,11612.936,204053561.6,210323846.4,179702444.39
2015-03-13,11680.471,11751.195,11713.611,11654.192,179148224.0,78.022,0.67,11592.834,11598.827,11568.878,190237920.0,209117264.0,172418022.79
2015-03-12,11593.69,11645.561,11635.589,11516.247,198461280.0,110.501,0.96,11528.592,11603.234,11526.605,194820003.2,209403998.4,169487770.39
2015-03-11,11554.664,11682.541,11525.088,11491.687,193400960.0,-31.565,-0.27,11514.751,11614.754,11484.381,199966928.0,206082448.0,167105425.59
2015-03-10,11501.978,11649.251,11556.653,11479.275,195230720.0,23.422,0.2,11540.749,11616.215,11461.405,204947350.4,202013656.0,166252685.59
2015-03-09,11280.019,11547.83,11533.231,11169.051,184948416.0,140.834,1.24,11534.663,11648.478,11439.4,216594131.2,182896379.18,164317973.59
2015-03-06,11600.66,11626.106,11392.397,11381.905,202058640.0,-173.991,-1.5,11604.82,11667.011,11423.198,227996608.0,179337588.78,162384365.59
2015-03-05,11597.488,11628.147,11566.388,11484.796,224195904.0,-88.687,-0.76,11677.877,11687.297,11401.735,223987993.6,175775329.58,158968385.59
2015-03-04,11530.935,11688.279,11655.075,11521.696,218303072.0,128.852,1.12,11714.756,11674.963,11380.95,212197968.0,170052519.98,155533459.99
2015-03-03,11800.989,11800.989,11526.223,11515.552,253464624.0,-357.794,-3.01,11691.681,11639.729,11360.648,199079961.6,161605832.78,152478367.99
2015-03-02,11869.958,11955.815,11884.017,11781.61,241960800.0,126.333,1.07,11762.294,11613.669,11352.047,149198627.15,149081042.38,148208868.79
2015-02-27,11736.289,11819.417,11757.684,11719.664,182015568.0,6.904,0.06,11729.203,11538.93,11335.44,130678569.55,135718781.57,146310931.19
2015-02-26,11526.511,11752.01,11750.78,11470.427,165245776.0,211.08,1.83,11696.716,11449.975,11331.904,127562665.55,129571542.38,146343687.99
2015-02-25,11755.183,11755.183,11539.7,11500.691,152713040.0,-178.862,-1.53,11635.171,11354.008,11316.179,127907071.95,128128403.18,147317227.99
2015-02-24,11785.217,11932.632,11879.287,11783.088,4057951.75,160.725,1.37,11587.777,11306.595,11312.755,124131703.95,130491715.18,149319289.59
2015-02-17,11658.05,11772.15,11718.562,11644.539,149360512.0,123.309,1.06,11465.045,11230.322,11287.4,148963457.6,145739568.0,159703225.6
2015-02-16,11474.877,11606.014,11595.253,11437.74,166436048.0,152.201,1.33,11348.656,11179.384,11251.296,140758993.6,145431142.4,161279703.2
2015-02-13,11362.003,11564.682,11443.052,11338.012,166967808.0,140.321,1.24,11203.234,11116.173,11210.079,131580419.2,142161441.6,162726903.2
2015-02-12,11268.586,11348.316,11302.731,11185.003,133836200.0,37.105,0.33,11072.844,11086.937,11214.567,128349734.4,141014400.0,161741295.2
2015-02-11,11174.306,11318.458,11265.626,11167.122,128216720.0,129.006,1.16,11025.414,11081.568,11223.614,136851726.4,143350903.2,161341064.8
2015-02-10,10887.681,11136.62,11136.62,10875.285,108338192.0,268.479,2.47,10995.598,11090.425,11222.222,142515678.4,147336695.2,161023567.2
2015-02-09,10792.004,10975.847,10868.141,10760.047,120543176.0,77.038,0.71,11010.112,11131.95,11233.182,150103291.2,156903080.8,161810396.4
2015-02-06,11022.487,11054.94,10791.103,10715.43,150814384.0,-274.475,-2.48,11029.111,11213.833,11254.034,152742464.0,163115833.6,162766975.2
2015-02-05,11367.142,11386.734,11065.578,11065.578,176346160.0,-50.972,-0.46,11101.03,11278.351,11280.717,153679065.6,166506052.8,163307762.4
2015-02-04,11241.977,11364.375,11116.55,11111.531,156536480.0,-92.64,-0.83,11137.721,11318.914,11300.695,149850080.0,168146864.0,162712793.6
2015-02-03,11077.479,11216.679,11209.19,10993.548,146276256.0,246.054,2.24,11185.252,11344.477,11325.535,152157712.0,173666883.2,163304136.0
2015-02-02,10952.14,11140.97,10963.136,10921.439,133739040.0,-187.558,-1.68,11253.788,11323.207,11348.474,163702870.4,177128264.0,166570832.0
2015-01-30,11290.454,11354.094,11150.694,11132.799,155497392.0,-98.343,-0.87,11398.554,11303.986,11376.346,173489203.2,183292364.8,170801698.4
2015-01-29,11187.297,11319.473,11249.037,11161.43,157201232.0,-105.164,-0.93,11455.673,11342.197,11369.543,179333040.0,182468190.4,170985728.8
2015-01-28,11484.991,11530.094,11354.201,11309.213,168074640.0,-197.672,-1.71,11500.107,11365.661,11343.204,186443648.0,179331226.4,171410396.8
2015-01-27,11670.239,11705.906,11551.873,11368.99,204002048.0,-135.094,-1.16,11503.703,11354.02,11314.514,195176054.4,174710439.2,173100408.8
2015-01-26,11564.219,11711.889,11686.967,11512.008,182670704.0,250.68,2.19,11392.625,11334.413,11277.052,190553657.6,166717712.0,171510870.4
2015-01-23,11507.438,11554.517,11436.287,11379.963,184716576.0,-34.922,-0.3,11209.417,11294.234,11217.393,193095526.4,162418116.8,169815627.2
2015-01-22,11358.438,11499.439,11471.209,11342.079,192754272.0,99.029,0.87,11228.72,11283.082,11160.204,185603340.8,160109472.0,168276778.4
2015-01-21,11051.948,11395.1,11372.18,11000.741,211736672.0,375.698,3.42,11231.215,11282.475,11115.183,172218804.8,157278723.2,167036200.8
2015-01-20,10761.276,11026.054,10996.482,10750.85,180890064.0,225.553,2.09,11204.336,11306.592,11077.0,154244824.0,152941388.8,168622776.0
2015-01-19,10939.043,11204.489,10770.929,10634.619,195380048.0,-761.873,-6.61,11276.201,11373.741,11058.531,142881766.4,156013400.0,170178803.2
2015-01-16,11496.763,11583.73,11532.802,11436.277,147255648.0,49.118,0.43,11379.051,11448.707,11053.244,131740707.2,158311032.0,169524158.4
2015-01-15,11240.837,11483.751,11483.684,11161.519,125831592.0,245.902,2.19,11337.443,11396.889,11015.94,134615603.2,159503267.2,173606555.2
2015-01-14,11366.946,11429.307,11237.782,11153.166,121866768.0,-118.027,-1.04,11333.734,11320.747,10975.187,142338641.6,163489567.2,177994858.8
2015-01-13,11250.878,11418.453,11355.809,11244.423,124074776.0,70.629,0.63,11408.849,11275.008,10938.509,151637953.6,171490378.4,182446567.6
2015-01-12,11279.73,11376.088,11285.18,11116.058,139674752.0,-39.582,-0.35,11471.281,11219.691,10893.834,169145033.6,176304028.8,186425552.8
2015-01-09,11424.532,11738.248,11324.762,11313.246,161630128.0,-140.376,-1.22,11518.363,11140.551,10853.519,184881356.8,177213137.6,191259854.4
2015-01-08,11624.593,11656.705,11465.138,11371.925,164446784.0,-148.218,-1.28,11456.335,11037.327,10814.557,184390931.2,176444084.8,194717206.4
2015-01-07,11612.731,11714.78,11613.356,11505.033,168363328.0,-54.611,-0.47,11307.76,10947.892,10747.124,184640492.8,176793678.4,203784662.4
2015-01-06,11424.922,11749.138,11667.967,11374.505,211610176.0,147.377,1.28,11141.168,10847.408,10694.185,191342803.2,184304163.2,209062851.2
2015-01-05,11150.979,11587.279,11520.59,11150.979,218356368.0,505.966,4.59,10968.102,10743.322,10614.15,183463024.0,184344206.4,214133564.8
2014-12-31,10723.091,11037.607,11014.624,10711.327,159178000.0,292.362,2.73,10762.739,10657.781,10539.613,169544918.4,180737284.8,216901316.0
2014-12-30,10756.578,10866.363,10722.262,10660.202,165694592.0,-58.134,-0.54,10618.319,10634.991,10471.078,168497238.4,187709843.2,223389347.2
2014-12-29,10918.956,10965.287,10780.396,10665.259,201874880.0,-22.24,-0.21,10588.024,10629.626,10403.312,168946864.0,192500150.4,225337103.2
2014-12-26,10505.707,10816.828,10802.636,10487.906,172211280.0,308.857,2.94,10553.648,10602.009,10319.08,177265523.2,193402756.8,226451518.4
2014-12-25,10350.941,10514.64,10493.779,10296.001,148765840.0,201.257,1.96,10518.542,10567.977,10229.059,185225388.8,196547076.8,229735405.6
2014-12-24,10614.124,10627.085,10292.522,10179.256,153939600.0,-278.264,-2.63,10552.822,10566.487,10147.392,191929651.2,205306571.2,233065064.0
2014-12-23,10549.979,10794.191,10570.786,10490.14,167942720.0,-37.729,-0.36,10651.662,10591.787,10070.955,206922448.0,212990328.0,235184214.4
2014-12-22,10607.578,10742.369,10608.515,10474.924,243468176.0,-18.594,-0.17,10671.228,10546.357,9977.088,216053436.8,230775646.4,236315764.8
2014-12-19,10646.658,10684.601,10627.109,10382.287,212010608.0,-38.07,-0.36,10650.371,10540.962,9875.557,209539990.4,233821539.2,234336167.2
2014-12-18,10744.271,10812.15,10665.179,10656.347,182287152.0,-121.543,-1.13,10617.412,10484.979,9760.817,207868764.8,243922923.2,230365336.8
2014-12-17,10728.743,10788.971,10786.722,10533.115,228903584.0,118.105,1.11,10580.152,10421.444,9637.826,218683491.2,253065347.2,226725593.6
2014-12-16,10486.687,10668.617,10668.617,10429.56,213597664.0,164.388,1.56,10531.911,10307.164,9509.744,219058208.0,259068851.2,221323200.0
2014-12-15,10477.448,10531.657,10504.229,10298.376,210900944.0,41.917,0.4,10421.485,10176.998,9386.143,245497856.0,258174056.0,216382698.8
2014-12-12,10451.612,10622.883,10462.312,10390.019,203654480.0,-16.569,-0.16,10431.553,10036.15,9275.122,258103088.0,259500280.0,212046095.6
2014-12-11,10443.655,10725.769,10478.881,10387.593,236360784.0,-66.634,-0.63,10352.546,9890.142,9168.351,279977081.6,262923734.4,208054126.4
2014-12-10,10154.53,10567.451,10545.515,10048.464,230777168.0,429.025,4.24,10262.736,9728.297,9059.661,287447203.2,260823556.8,204283138.4
2014-12-09,10496.629,11050.846,10116.49,10042.013,345795904.0,-438.076,-4.15,10082.418,9550.124,8952.9,299079494.4,257378100.8,199198301.6
2014-12-08,10047.117,10587.623,10554.566,9919.649,273927104.0,487.287,4.84,9932.51,9407.818,8862.72,270850256.0,241855883.2,192170370.4
2014-12-05,10164.373,10319.867,10067.279,9749.136,313024448.0,37.448,0.37,9640.748,9210.152,8755.502,260897472.0,234850795.2,186400609.6
2014-12-04,9679.589,10040.724,10029.831,9659.948,273711392.0,385.907,4.0,9427.738,9036.654,8663.881,245870387.2,216807750.4,179715807.2
2014-12-03,9448.366,9777.765,9643.924,9441.833,288938624.0,276.975,2.96,9193.858,8854.209,8572.988,234199910.4,200385840.0,173271145.6
2014-12-02,9058.318,9433.643,9366.949,9027.299,204649712.0,271.192,2.98,9017.83,8712.324,8500.72,215676707.2,183577548.8,166788719.2
2014-12-01,9029.64,9180.64,9095.757,9028.834,224163184.0,93.53,1.04,8883.127,8595.288,8442.712,212861510.4,174591341.6,165230788.0
2014-11-28,8837.472,9010.173,9002.227,8767.116,237889024.0,141.794,1.6,8779.556,8514.093,8399.932,208804118.4,164591911.2,162710634.4
2014-11-27,8798.408,8860.433,8860.433,8743.932,215359008.0,96.649,1.1,8645.571,8446.56,8361.101,187745113.6,153184518.4,159575123.2
2014-11-26,8712.291,8774.778,8763.784,8680.863,196322608.0,70.352,0.81,8514.559,8391.025,8322.607,166571769.6,147742720.0,157509995.2
2014-11-25,8600.313,8694.592,8693.432,8578.456,190573728.0,115.526,1.35,8406.817,8355.676,8288.952,151478390.4,141018502.4,157114040.0
2014-11-24,8498.058,8645.39,8577.906,8464.608,203876224.0,245.608,2.95,8307.45,8317.621,8253.697,136321172.8,142484857.6,154554272.8
2014-11-21,8209.983,8335.586,8332.298,8194.524,132594000.0,126.921,1.55,8248.629,8300.852,8216.269,120379704.0,137950424.0,149449760.4
2014-11-20,8210.823,8236.32,8205.377,8190.403,109492288.0,-19.696,-0.24,8247.549,8291.109,8195.71,118623923.2,142623864.0,147806175.6
2014-11-19,8206.778,8265.582,8225.073,8202.782,120855712.0,28.479,0.35,8267.49,8291.767,8183.9,128913670.4,146156451.2,148994057.6
2014-11-18,8264.398,8295.983,8196.594,8173.444,114787640.0,-87.21,-1.05,8304.534,8289.117,8175.806,130558614.4,149999889.6,149077365.6
2014-11-17,8358.128,8389.395,8283.804,8278.116,124168880.0,-43.093,-0.52,8327.792,8290.136,8171.322,148648542.4,155870234.4,149970190.0
2014-11-14,8263.97,8343.914,8326.897,8242.486,123815096.0,21.813,0.26,8353.074,8285.771,8167.342,155521144.0,160829357.6,150227966.4
2014-11-13,8416.675,8416.806,8305.084,8288.055,160941024.0,-105.206,-1.25,8334.668,8275.642,8158.574,166623804.8,165965728.0,152509521.2
2014-11-12,8287.572,8410.42,8410.29,8271.843,129080432.0,97.405,1.17,8316.043,8254.189,8148.854,163399232.0,167277270.4,153215188.4
2014-11-11,8443.246,8491.117,8312.885,8243.902,205237280.0,-97.331,-1.16,8273.699,8222.228,8138.245,169441164.8,173209577.6,155089451.6
2014-11-10,8299.419,8410.949,8410.216,8251.743,158531888.0,175.35,2.13,8252.481,8189.774,8129.599,163091926.4,166623688.0,153467858.8
2014-11-07,8226.307,8348.879,8234.866,8183.06,179328400.0,22.907,0.28,8218.467,8131.685,8117.292,166137571.2,160949096.8,154330176.4
2014-11-06,8206.55,8223.303,8211.959,8137.419,144818160.0,13.388,0.16,8216.616,8100.312,8116.126,165307651.2,152988487.2,155170508.4
2014-11-05,8221.952,8248.559,8198.571,8189.84,159290096.0,-8.22,-0.1,8192.335,8076.032,8115.728,171155308.8,151831664.0,158173474.0
2014-11-04,8231.504,8236.165,8206.791,8179.342,173491088.0,-33.358,-0.41,8170.757,8062.496,8114.982,176977990.4,148154841.6,158521323.6
2014-11-03,8245.034,8285.155,8240.149,8202.531,173760112.0,14.537,0.18,8127.067,8052.508,8108.66,170155449.6,144070145.6,157325043.6
2014-10-31,8109.552,8230.587,8225.612,8088.264,175178800.0,135.059,1.67,8044.904,8048.914,8100.795,155760622.4,139626575.2,156886576.4
2014-10-30,8088.979,8105.723,8090.553,8034.078,174056448.0,-0.128,-0.0,7984.008,8041.505,8093.158,140669323.2,139053314.4,155572938.8
2014-10-29,8010.413,8109.637,8090.681,7962.032,188403504.0,102.34,1.28,7959.73,8043.518,8092.456,132508019.2,139153106.4,155981284.4
2014-10-28,7846.866,7988.341,7988.341,7846.866,139378384.0,159.009,2.03,7954.234,8054.263,8092.933,119331692.8,136969325.6,155172038.8
2014-10-27,7881.012,7881.012,7829.332,7803.464,101785976.0,-91.799,-1.16,7977.95,8069.425,8091.811,117984841.6,140312029.6,155039892.4
2014-10-24,7982.313,8003.788,7921.131,7899.543,99722304.0,-48.033,-0.6,8052.924,8102.898,8095.137,123492528.0,147711256.0,157274728.8
2014-10-23,8044.714,8077.78,7969.164,7957.032,133249928.0,-94.038,-1.17,8099.002,8131.939,8101.444,137437305.6,157352529.6,159168277.6
2014-10-22,8114.892,8162.835,8063.202,8059.557,122521872.0,-43.718,-0.54,8127.307,8155.424,8103.214,145798193.6,164515284.0,159856870.0
2014-10-21,8197.169,8206.892,8106.92,8101.601,132644128.0,-97.282,-1.19,8154.291,8167.469,8099.145,154606958.4,168887805.6,161853194.0
2014-10-20,8175.684,8219.803,8204.202,8153.095,129324408.0,52.679,0.65,8160.899,8164.811,8089.853,162639217.6,170579941.6,167014740.4
2014-10-17,8116.815,8182.828,8151.523,8015.618,169446192.0,40.836,0.5,8152.872,8152.676,8085.275,171929984.0,174146577.6,169867646.4
2014-10-16,8156.785,8227.142,8110.687,8110.687,175054368.0,-87.437,-1.07,8164.876,8144.812,8085.048,177267753.6,172092563.2,169418825.6
2014-10-15,8141.143,8209.903,8198.124,8086.63,166565696.0,58.163,0.71,8183.541,8141.394,8085.41,183232374.4,172809462.4,170558733.6
2014-10-14,8150.859,8200.352,8139.961,8105.536,172805424.0,-24.106,-0.29,8180.646,8131.604,8083.434,183168652.8,173374752.0,170727902.4
2014-10-13,8179.486,8193.356,8164.067,8092.486,175778240.0,-47.475,-0.58,8168.723,8114.197,8086.511,178520665.6,169767755.2,170615776.8
2014-10-10,8186.332,8260.226,8211.542,8158.343,196135040.0,7.533,0.09,8152.479,8087.377,8089.034,176363171.2,166838201.6,170599230.4
2014-10-09,8199.683,8234.922,8204.009,8131.171,204877472.0,20.357,0.25,8124.747,8070.948,8087.285,166917372.8,160984025.6,169606592.8
2014-10-08,8134.366,8183.652,8183.652,8073.717,166247088.0,103.306,1.28,8099.248,8051.004,8082.878,162386550.4,155198456.0,168149371.2
2014-09-30,8095.269,8100.292,8080.346,8060.353,149565488.0,-2.499,-0.03,8082.562,8030.821,8075.861,163580851.2,154818582.4,167781860.0
2014-09-29,8084.271,8107.15,8082.845,8045.886,164990768.0,9.962,0.12,8059.67,8014.894,8068.902,161014844.8,163449539.2,166189523.2
2014-09-26,8050.639,8078.069,8072.883,8021.27,148906048.0,-3.629,-0.04,8022.275,8017.874,8056.845,157313232.0,165588715.2,162500990.0
2014-09-25,8137.331,8167.03,8076.512,8058.703,182223360.0,-23.712,-0.29,8017.149,8025.285,8040.377,155050678.4,166745088.0,160664139.6
2014-09-24,7944.322,8103.304,8100.224,7925.379,172218592.0,134.339,1.69,8002.76,8029.426,8028.606,148010361.6,168308004.8,157091688.8
2014-09-23,7906.468,7974.818,7965.885,7906.468,136735456.0,70.016,0.89,7979.08,8035.263,8014.293,146056313.6,168081052.8,155487774.4
2014-09-22,8036.871,8036.871,7895.869,7886.88,146482704.0,-151.384,-1.88,7970.118,8058.826,8012.739,165884233.6,171463798.4,155535695.2
2014-09-19,8006.057,8060.736,8047.253,7971.216,137593280.0,42.682,0.53,8013.473,8090.691,8020.916,173864198.4,174360259.2,155342360.8
2014-09-18,7964.47,8020.363,8004.571,7942.851,147021776.0,22.749,0.28,8033.422,8103.623,8019.089,178439497.6,178229160.0,156024457.6
2014-09-17,7951.42,7986.486,7981.822,7893.099,162448352.0,60.749,0.77,8056.092,8114.752,8020.014,188605648.0,181100286.4,156698910.4
2014-09-16,8130.219,8143.91,7921.073,7918.603,235875056.0,-191.575,-2.36,8091.446,8120.901,8023.085,190105792.0,180745137.6,157490151.2
2014-09-15,8124.734,8125.231,8112.648,8051.526,186382528.0,-34.346,-0.42,8147.533,8122.91,8029.325,177043363.2,168929507.2,153797615.2
2014-09-12,8104.418,8147.196,8146.994,8069.682,160469776.0,29.072,0.36,8167.909,8095.815,8022.796,174856320.0,159413264.8,151620729.6
2014-09-11,8153.52,8251.056,8117.922,8095.864,197852528.0,-40.673,-0.5,8173.823,8055.47,8010.141,178018822.4,154583191.2,151068056.0
2014-09-10,8164.405,8172.124,8158.595,8109.445,169949072.0,-42.913,-0.52,8173.412,8027.785,8003.27,173594924.8,145875372.8,148587072.8
2014-09-09,8220.963,8225.096,8201.508,8155.828,170562912.0,-13.018,-0.16,8150.356,7993.323,7993.684,171384483.2,142894496.0,146967354.4
2014-09-05,8202.662,8237.418,8214.526,8158.826,175447312.0,37.96,0.46,8098.287,7966.653,7984.095,160815651.2,139607592.0,145087742.8
2014-09-04,8141.39,8180.424,8176.566,8103.201,176282288.0,60.699,0.75,8023.722,7951.14,7967.636,143970209.6,136324462.4,142244320.8
2014-09-03,8051.09,8136.56,8115.867,8051.09,175733040.0,72.555,0.9,7937.116,7934.555,7952.455,131147560.0,133819755.2,140632589.6
2014-09-02,7958.847,8046.714,8043.312,7923.981,158896864.0,102.149,1.29,7882.157,7925.275,7946.437,118155820.8,132297534.4,139226027.2
2014-09-01,7852.907,7944.145,7941.163,7852.872,117718752.0,99.462,1.27,7836.29,7925.269,7944.659,114404508.8,134235164.8,138589820.8
2014-08-29,7758.362,7841.701,7841.701,7755.474,91220104.0,98.164,1.27,7835.019,7935.739,7947.946,118399532.8,138665723.2,139274997.2
2014-08-28,7840.394,7854.282,7743.537,7735.682,112169040.0,-97.537,-1.24,7878.559,7949.777,7949.91,128678715.2,143828194.4,142429600.0
2014-08-27,7809.516,7881.253,7841.074,7809.516,110774344.0,27.097,0.35,7931.993,7964.813,7960.578,136491950.4,147552920.8,143494547.2
2014-08-26,7915.333,7946.389,7813.977,7786.232,140140304.0,-120.829,-1.52,7968.393,7978.754,7961.186,146439248.0,151298772.8,145078134.8
2014-08-25,8054.883,8056.212,7934.806,7925.217,137693872.0,-124.594,-1.55,8014.248,7994.045,7963.839,154065820.8,151040212.8,145584471.6
2014-08-22,8003.526,8074.419,8059.4,7997.587,142616016.0,48.69,0.61,8036.459,8001.538,7957.532,158931913.6,150567893.6,146257811.6
2014-08-21,8021.145,8024.65,8010.71,7904.068,151235216.0,-12.362,-0.15,8020.994,7984.131,7933.468,158977673.6,148164179.2,144538890.8
2014-08-20,8029.513,8060.508,8023.072,8000.212,160510832.0,-20.182,-0.25,7997.632,7970.355,7908.102,158613891.2,147445424.0,143236224.0
2014-08-19,8064.622,8073.216,8043.254,7994.504,178273168.0,-2.607,-0.03,7989.115,7967.598,7875.714,156158297.6,146154520.0,140897777.6
2014-08-18,8018.182,8058.552,8045.861,7985.887,162024336.0,63.787,0.8,7973.842,7964.049,7842.184,148014604.8,142944476.8,137159768.8
2014-08-15,7901.193,8012.14,7982.074,7891.055,142844816.0,88.176,1.12,7966.617,7960.153,7803.616,142203873.6,139884271.2,133356990.0
2014-08-14,7977.331,7998.907,7893.898,7887.951,149416304.0,-86.592,-1.08,7947.267,7950.044,7767.485,137350684.8,141031005.6,130703056.4
2014-08-13,7967.913,8029.729,7980.49,7897.797,148232864.0,13.603,0.17,7943.078,7956.344,7732.527,136276956.8,139436173.6,127795322.4
2014-08-12,8000.917,8000.917,7966.887,7933.507,137554704.0,-42.848,-0.54,7946.08,7943.618,7696.599,136150742.4,138857496.8,126114809.2
2014-08-11,7902.244,8017.134,8009.735,7902.244,132970680.0,124.408,1.58,7954.255,7933.633,7663.475,137874348.8,140128730.4,125812166.0
2014-08-08,7890.879,7929.124,7885.327,7845.259,118578872.0,12.374,0.16,7953.69,7913.526,7626.931,137564668.8,141947729.6,125132170.0
2014-08-07,7990.003,8027.506,7872.953,7869.88,144047664.0,-122.546,-1.53,7952.82,7882.805,7593.013,144711326.4,140913602.4,124563731.2
2014-08-06,7962.557,8022.537,7995.499,7883.077,147601792.0,-12.263,-0.15,7969.61,7845.85,7557.347,142595390.4,139027024.0,122559915.6
2014-08-05,8007.47,8032.278,8007.762,7950.521,146172736.0,0.853,0.01,7941.156,7783.831,7517.207,141564251.2,135641035.2,121397370.0
2014-08-04,7896.969,8006.909,8006.909,7892.553,131422280.0,125.934,1.6,7913.012,7720.32,7484.736,142383112.0,131375060.8,119510636.0
2014-08-01,7919.783,8021.148,7880.975,7880.424,154312160.0,-75.932,-0.95,7873.362,7647.079,7450.466,146330790.4,126829708.8,118184452.4
2014-07-31,7845.796,7957.462,7956.907,7821.707,133467984.0,103.681,1.32,7812.791,7584.927,7423.113,137115878.4,120375107.2,116128511.6
2014-07-30,7867.931,7920.974,7853.226,7820.796,142446096.0,-13.816,-0.18,7722.089,7508.71,7392.044,135458657.6,116154471.2,115769730.0
2014-07-29,7828.347,7895.733,7867.042,7799.135,150267040.0,58.382,0.75,7626.505,7449.579,7364.902,129717819.2,113372121.6,114364259.2
2014-07-28,7630.355,7826.791,7808.66,7630.355,151160672.0,230.542,3.04,7527.628,7393.316,7336.424,120367009.6,111495601.6,112348866.4
2014-07-25,7528.337,7578.118,7578.118,7503.624,108237600.0,74.717,1.0,7420.797,7340.336,7313.155,107328627.2,108316610.4,110276347.6
2014-07-24,7384.922,7510.42,7503.401,7384.922,125181880.0,128.095,1.74,7357.063,7303.221,7299.88,103634336.0,108213860.0,110202810.8
2014-07-23,7362.736,7412.836,7375.306,7341.563,113741904.0,2.652,0.04,7295.331,7268.844,7289.304,96850284.8,106092807.2,108554567.6
2014-07-22,7261.366,7384.87,7372.654,7258.584,103512992.0,98.149,1.35,7272.653,7250.584,7281.422,97026424.0,107153704.8,106487515.6
2014-07-21,7264.539,7301.151,7274.505,7251.345,85968760.0,15.057,0.21,7259.004,7249.151,7274.831,102624193.6,107646211.2,105100360.8
2014-07-18,7166.645,7312.827,7259.448,7159.835,89766144.0,64.704,0.9,7259.874,7253.852,7270.75,109304593.6,109539196.0,104445032.4
2014-07-17,7251.145,7251.145,7194.744,7151.429,91261624.0,-67.169,-0.93,7249.379,7261.299,7267.562,112793384.0,111881916.0,103303499.4
2014-07-16,7289.192,7324.682,7261.913,7251.571,114622600.0,-42.496,-0.58,7242.356,7275.378,7266.841,115335329.6,115384988.8,103290814.6
2014-07-15,7278.961,7314.182,7304.409,7270.124,131501840.0,25.551,0.35,7228.515,7280.224,7268.615,117280985.6,115356396.8,101903921.8
2014-07-14,7206.129,7279.147,7278.858,7180.212,119370760.0,71.885,1.0,7239.299,7279.533,7269.963,112668228.8,113202131.2,99813733.0
2014-07-11,7158.578,7232.715,7206.973,7146.451,107210096.0,47.345,0.66,7247.83,7285.975,7276.87,109773798.4,112236084.8,98563701.0
2014-07-10,7193.218,7218.102,7159.628,7149.382,103971352.0,-33.078,-0.46,7273.218,7296.54,7286.589,110970448.0,112191761.6,97865443.4
2014-07-09,7341.169,7342.321,7192.706,7192.706,124350880.0,-165.624,-2.25,7308.399,7309.765,7293.598,115434648.0,111016328.0,96683138.2
2014-07-08,7319.285,7358.33,7358.33,7277.464,108438056.0,36.815,0.5,7331.934,7312.26,7300.997,113431808.0,105821326.4,94456974.6
2014-07-07,7336.629,7373.229,7321.515,7301.569,104898608.0,-12.395,-0.17,7319.767,7300.511,7300.163,113736033.6,102554510.4,92831916.6
2014-07-04,7346.691,7363.156,7333.91,7318.572,113193344.0,-1.626,-0.02,7324.119,7287.647,7295.45,114698371.2,99350868.8,90909597.6
2014-07-03,7300.254,7362.387,7335.536,7286.177,126292352.0,25.159,0.34,7319.861,7273.825,7290.524,113413075.2,94725082.8,88840666.4
2014-07-02,7298.021,7319.351,7310.377,7258.312,114336680.0,12.882,0.18,7311.131,7258.303,7288.929,106598008.0,91196640.4,85934327.6
2014-07-01,7340.594,7350.868,7297.495,7277.407,109959184.0,-45.78,-0.62,7292.586,7257.005,7284.566,98210844.8,88451446.8,83637918.0
2014-06-30,7312.677,7362.431,7343.275,7312.677,109710296.0,30.651,0.42,7281.256,7260.393,7285.768,91372987.2,86425334.8,81565508.8
2014-06-27,7291.181,7344.794,7312.624,7270.518,106766864.0,20.742,0.28,7251.175,7267.765,7286.845,84003366.4,84891317.2,79766708.8
2014-06-26,7219.17,7306.726,7291.882,7219.17,92217016.0,74.229,1.03,7227.788,7276.638,7288.292,76037090.4,83539125.2,78544525.2
2014-06-25,7238.824,7238.824,7217.653,7174.598,72400864.0,-23.192,-0.32,7205.476,7277.431,7292.733,75795272.8,82349948.4,78196322.4
2014-06-24,7200.655,7243.319,7240.845,7185.405,75769896.0,47.972,0.67,7221.425,7289.734,7294.856,78692048.8,83092622.8,77963408.4
2014-06-23,7205.89,7253.981,7192.873,7184.159,72862192.0,-2.815,-0.04,7239.531,7299.816,7296.569,81477682.4,83109322.8,77872154.4
2014-06-20,7181.153,7207.63,7195.688,7134.535,66935484.0,15.367,0.21,7284.354,7303.253,7298.972,85779268.0,82468326.4,77426145.4
2014-06-19,7301.385,7324.64,7180.321,7148.023,91007928.0,-117.076,-1.6,7325.487,7307.223,7298.371,91041160.0,82956250.0,77662063.6
2014-06-18,7329.937,7351.972,7297.397,7291.738,86884744.0,-33.977,-0.46,7349.385,7319.554,7299.587,88904624.0,80672014.8,75900014.0
2014-06-17,7400.081,7400.081,7331.374,7320.722,89698064.0,-85.615,-1.15,7358.043,7312.127,7292.277,87493196.8,78824389.2,74434529.4
2014-06-16,7397.046,7433.542,7416.989,7372.931,94370120.0,15.636,0.21,7360.101,7311.142,7283.282,84740963.2,76705682.8,72633773.4
2014-06-13,7293.502,7429.958,7401.353,7290.14,93244944.0,101.541,1.39,7322.151,7305.926,7274.541,79157384.8,74642100.4,70869145.6
2014-06-12,7313.832,7318.748,7299.812,7280.007,80325248.0,-40.874,-0.56,7288.959,7299.947,7265.162,74871340.0,73549925.2,69558522.2
2014-06-11,7323.039,7354.488,7340.686,7307.364,79827608.0,-0.977,-0.01,7289.723,7308.035,7266.447,72439405.6,74042696.4,68796078.6
2014-06-10,7229.969,7345.538,7341.663,7229.621,75936896.0,114.421,1.58,7266.212,7299.979,7264.929,70155581.6,72834194.0,68613371.8
2014-06-09,7217.536,7301.339,7227.242,7205.337,66452228.0,-8.148,-0.11,7262.183,7293.323,7263.753,68670402.4,72634986.0,69102197.8
2014-06-06,7272.226,7283.648,7235.39,7195.129,71814720.0,-68.245,-0.93,7289.7,7294.691,7260.014,70126816.0,72383964.4,68257944.6
2014-06-05,7215.952,7306.757,7303.635,7205.098,68165576.0,80.507,1.11,7310.935,7289.52,7256.744,72228510.4,72367877.2,67918052.0
2014-06-04,7314.97,7314.97,7223.128,7177.658,68408488.0,-98.392,-1.34,7326.347,7279.621,7253.296,75645987.2,71128013.2,67792337.6
2014-06-03,7365.606,7399.459,7321.52,7319.775,68511000.0,-43.309,-0.59,7333.746,7272.426,7257.734,75512806.4,70044669.6,67803377.2
2014-05-30,7344.829,7393.382,7364.829,7309.022,73734296.0,23.265,0.32,7324.463,7255.423,7257.136,76599569.6,68561864.0,67262174.0
2014-05-29,7395.58,7432.349,7341.564,7340.982,82323192.0,-39.13,-0.53,7299.682,7243.156,7254.538,74641112.8,67096190.8,66316166.8
2014-05-28,7263.309,7381.467,7380.694,7246.089,85252960.0,120.571,1.66,7268.104,7230.377,7254.453,72507244.0,65567119.2,65179257.6
2014-05-27,7265.242,7305.958,7260.123,7253.903,67742584.0,-14.983,-0.21,7232.894,7224.86,7247.441,66610039.2,63549460.8,64936506.4
2014-05-26,7289.627,7306.612,7275.106,7233.168,73944816.0,34.185,0.47,7211.106,7229.879,7250.618,64576532.8,64392549.6,65436838.4
2014-05-23,7188.56,7246.952,7240.921,7161.751,63942012.0,57.246,0.8,7186.382,7234.182,7257.835,60524158.4,65569409.6,65120070.8
2014-05-22,7201.715,7295.036,7183.675,7181.035,71653848.0,-20.971,-0.29,7186.631,7225.338,7267.525,59551268.8,64131924.8,65112876.0
2014-05-21,7121.363,7205.235,7204.646,7075.322,55766936.0,53.466,0.75,7192.65,7223.968,7277.902,58626994.4,63468226.8,65562456.4
2014-05-20,7180.32,7220.333,7151.18,7130.058,57575052.0,-0.307,-0.0,7216.825,7226.972,7285.35,60488882.4,64456662.0,66779516.0
2014-05-19,7210.846,7210.846,7151.487,7105.024,53682944.0,-90.68,-1.25,7248.652,7243.043,7300.578,64208566.4,65562084.8,67203195.6
2014-05-16,7203.819,7261.354,7242.167,7187.796,59077564.0,28.397,0.39,7281.982,7258.85,7315.555,70614660.8,65962484.0,68170849.6
2014-05-15,7309.875,7309.875,7213.77,7205.705,67032476.0,-111.752,-1.53,7264.044,7265.919,7326.87,68712580.8,65536142.8,68959199.8
2014-05-14,7320.356,7369.169,7325.522,7303.629,65076376.0,15.208,0.21,7255.285,7278.529,7338.667,68309459.2,64791396.0,70076758.8
2014-05-13,7321.655,7362.873,7310.314,7290.732,76173472.0,-7.825,-0.11,7237.12,7270.023,7351.555,68424441.6,66323552.0,70887592.0
2014-05-12,7208.038,7334.47,7318.139,7175.222,85713416.0,155.702,2.17,7237.434,7271.357,7365.38,66915603.2,66481127.2,71475360.0
2014-05-09,7175.243,7182.417,7152.475,7093.215,49567164.0,-17.501,-0.24,7235.717,7281.487,7377.634,61310307.2,64670732.0,72481018.4
2014-05-08,7185.195,7306.788,7169.976,7157.256,65016868.0,-64.718,-0.9,7267.795,7309.712,7395.572,62359704.8,66093827.2,74287465.4
2014-05-07,7292.005,7292.005,7234.694,7232.482,65651288.0,-77.192,-1.06,7301.772,7331.836,7412.506,61273332.8,67656686.0,75334010.8
2014-05-06,7282.919,7381.224,7311.886,7282.919,68629280.0,2.331,0.03,7302.926,7343.727,7419.162,64222662.4,69102370.0,75575488.0
2014-05-05,7289.24,7334.386,7309.555,7214.06,57686936.0,-3.307,-0.04,7305.279,7358.112,7418.468,66046651.2,68844306.4,76129638.0
2014-04-30,7320.793,7335.47,7312.862,7279.34,54814152.0,-27.002,-0.37,7327.257,7372.261,7419.669,68031156.8,70379215.2,77279736.8
2014-04-29,7234.653,7353.016,7339.864,7215.121,59585008.0,99.402,1.37,7351.63,7387.821,7418.082,69827949.6,72382256.8,77820239.8
2014-04-28,7324.867,7353.335,7240.462,7233.711,80397936.0,-83.192,-1.14,7361.9,7398.805,7410.567,74040039.2,75362121.6,78370885.4
2014-04-25,7423.898,7459.012,7323.654,7323.654,77749224.0,-95.79,-1.29,7384.528,7433.087,7406.823,73982077.6,75451632.0,79474405.8
2014-04-24,7426.278,7472.044,7419.444,7392.155,67609464.0,-15.281,-0.21,7410.945,7459.404,7399.291,71641961.6,76469592.8,76095881.55
2014-04-23,7388.256,7470.149,7434.725,7379.887,63798116.0,43.508,0.59,7417.264,7473.78,7390.529,72727273.6,80291304.8,73112281.15
2014-04-22,7355.633,7392.883,7391.217,7276.718,80645456.0,37.615,0.51,7424.012,7481.433,7381.41,74936564.0,82481103.6,70567074.75
2014-04-21,7412.341,7493.41,7353.602,7351.187,80108128.0,-102.136,-1.37,7435.709,7493.177,7375.537,76684204.0,83011335.6,67242101.1
2014-04-18,7425.835,7475.72,7455.738,7380.731,66048644.0,4.7,0.06,7481.645,7494.597,7369.935,76921186.4,82048606.0,64033551.95
2014-04-17,7484.155,7512.271,7451.038,7441.081,73036024.0,-17.426,-0.23,7507.863,7478.823,7347.058,81297224.0,83414969.6,61275408.05
2014-04-16,7430.609,7511.003,7468.464,7430.235,74844568.0,18.759,0.25,7530.296,7467.078,7332.012,87855336.0,84180258.4,58217583.9
2014-04-15,7568.171,7568.171,7449.705,7438.96,89383656.0,-133.577,-1.76,7538.853,7448.342,7322.286,90025643.2,83258222.8,54857816.55
2014-04-14,7588.612,7618.567,7583.282,7553.495,81293040.0,-3.543,-0.05,7550.644,7422.33,7316.832,89338467.2,81379649.2,50817281.25
2014-04-11,7543.712,7611.151,7586.825,7528.661,87928832.0,23.623,0.31,7507.548,7380.558,7299.621,87176025.6,83497179.6,47295710.9
2014-04-10,7534.021,7607.482,7563.202,7467.186,105826584.0,51.949,0.69,7449.783,7339.178,7286.244,85532715.2,75722170.3,43488005.9
2014-04-09,7510.315,7556.042,7511.253,7479.621,85696104.0,2.596,0.04,7403.86,7307.278,7268.935,80505180.8,65933257.5,38935602.6
2014-04-08,7334.18,7526.469,7508.657,7323.412,85947776.0,140.856,1.91,7357.831,7281.387,7254.001,76490802.4,58653045.9,35226487.75
2014-04-04,7281.335,7367.801,7367.801,7260.128,70480832.0,69.799,0.96,7294.015,7257.897,7234.49,73420831.2,51472866.6,31548167.7
2014-04-03,7355.211,7396.849,7298.002,7280.441,79712280.0,-35.585,-0.48,7253.569,7245.274,7232.525,79818333.6,46018497.9,28548264.0
2014-04-02,7291.726,7358.361,7333.587,7284.12,80688912.0,52.478,0.72,7228.574,7215.293,7235.226,65911625.4,39135846.5,25188324.25
2014-04-01,7184.069,7302.739,7281.109,7177.854,65624212.0,91.531,1.27,7210.695,7196.946,7233.453,51361334.2,32254909.4,21627733.95
2014-03-31,7219.211,7279.566,7189.578,7146.154,70597920.0,24.008,0.34,7204.943,7196.23,7236.753,40815289.4,26457410.3,18996998.25
2014-03-28,7165.47,7234.449,7165.57,7144.066,102468344.0,-7.454,-0.1,7221.779,7211.335,7246.87,29524902.0,20254913.3,16041557.35
2014-03-27,7230.627,7276.872,7173.024,7154.649,10178739.0,-71.17,-0.98,7236.978,7218.684,7256.887,12218662.2,11094242.2,11530241.55
2014-03-26,7270.018,7292.559,7244.194,7228.907,7937456.0,-8.155,-0.11,7202.012,7233.31,7257.673,12360067.6,11253841.5,11737959.65
2014-03-25,7247.108,7318.75,7252.349,7220.72,12893988.0,-21.408,-0.29,7183.197,7230.593,7261.444,13148484.6,11937947.7,12283324.45
2014-03-24,7237.255,7308.152,7273.757,7180.118,14145983.0,32.189,0.45,7187.517,7226.615,7264.024,12099531.2,11799929.6,12684207.65
2014-03-21,6973.091,7261.272,7241.568,6959.249,15937145.0,243.374,3.48,7200.89,7211.084,7277.463,10984924.6,11623468.8,12965577.7
2014-03-20,7135.409,7187.312,6998.194,6997.63,10885766.0,-151.922,-2.12,7200.389,7219.775,7302.912,9969822.2,11078030.1,12832499.95
2014-03-19,7246.062,7246.062,7150.116,7098.696,11879541.0,-123.834,-1.7,7264.608,7255.159,7345.109,10147615.4,11240802.0,13301440.95
2014-03-18,7347.037,7357.055,7273.95,7266.584,7649221.0,-66.673,-0.91,7277.988,7269.96,7385.3,10727410.8,11000558.5,13664241.9
2014-03-17,7266.95,7342.342,7340.623,7257.02,8572950.0,101.561,1.4,7265.713,7277.276,7413.226,11500328.0,11536586.2,13981020.65
2014-03-14,7287.341,7317.451,7239.062,7205.182,10861633.0,-80.225,-1.1,7221.277,7282.405,7443.393,12262013.0,11828201.4,14348085.2
2014-03-13,7226.826,7335.104,7319.287,7217.836,11774732.0,102.267,1.42,7239.162,7295.091,7475.628,12186238.0,11966240.9,14339166.5
2014-03-12,7187.882,7291.553,7217.02,7139.347,14778518.0,4.446,0.06,7245.71,7282.037,7502.519,12333988.6,12222077.8,14494013.1
2014-03-11,7103.296,7258.692,7212.574,7091.297,11513807.0,94.13,1.32,7261.932,7292.296,7536.772,11273706.2,12628701.2,14380915.35
2014-03-10,7269.489,7269.489,7118.444,7114.803,12381375.0,-210.039,-2.87,7288.839,7301.433,7568.049,11572844.4,13568485.7,14651084.1
2014-03-07,7338.753,7382.137,7328.483,7306.053,10482758.0,-23.546,-0.32,7343.532,7343.842,7602.735,11394389.8,14307686.6,14823990.1
2014-03-06,7282.739,7374.838,7352.029,7186.703,12513485.0,53.899,0.74,7351.02,7386.049,7617.139,11746243.8,14586969.8,14877923.65
2014-03-05,7352.721,7370.627,7298.13,7279.301,9477106.0,-48.979,-0.67,7318.363,7435.058,7628.17,12110167.0,15362079.9,14724205.95
2014-03-04,7390.671,7390.671,7347.109,7272.638,13009498.0,-44.799,-0.61,7322.66,7500.64,7648.643,13983696.2,16327925.3,14767121.6
2014-03-03,7349.954,7410.661,7391.908,7335.427,11489102.0,25.983,0.35,7314.027,7549.176,7668.325,15564127.0,16425455.1,14816371.2
2014-02-28,7181.428,7366.692,7365.925,7174.333,12242028.0,177.181,2.46,7344.152,7604.381,7686.356,17220983.4,16867969.0,15305397.7
2014-02-27,7352.587,7361.151,7188.744,7179.171,14333101.0,-130.87,-1.79,7421.078,7656.164,7710.817,17427695.8,16712092.1,15221262.7
2014-02-26,7271.192,7349.173,7319.614,7226.182,18844752.0,15.669,0.21,7551.754,7723.001,7740.804,18613992.8,16765948.4,14951004.5
2014-02-25,7551.0,7559.797,7303.945,7272.341,20911652.0,-238.588,-3.16,7678.619,7781.248,7765.846,18672154.4,16133129.5,14617040.0
2014-02-24,7697.205,7697.205,7542.533,7465.906,19773384.0,-208.023,-2.68,7784.325,7834.665,7780.32,17286783.2,15733682.5,13884218.98
2014-02-21,7825.544,7859.199,7750.556,7718.533,13275590.0,-91.564,-1.17,7864.611,7861.628,7779.409,16514954.6,15340293.6,13227169.78
2014-02-20,7956.921,7997.022,7842.12,7836.265,20264586.0,-111.823,-1.41,7891.25,7848.23,7769.11,15996488.4,15168877.5,12919634.48
2014-02-19,7837.409,7967.066,7953.943,7816.061,19135560.0,121.471,1.55,7894.248,7821.281,7760.365,14917904.0,14086332.0,12336065.98
2014-02-18,7947.418,7947.418,7832.472,7808.152,13984796.0,-111.49,-1.4,7883.876,7796.646,7746.108,13594104.6,13206317.9,11791820.5
2014-02-17,7922.738,7947.734,7943.962,7866.298,15914241.0,60.209,0.76,7885.006,7787.474,7737.773,14180581.8,13207287.3,11597932.8
2014-02-14,7840.964,7895.389,7883.753,7821.627,10683259.0,26.642,0.34,7858.646,7768.332,7719.203,14165632.6,13742826.4,11211138.43
2014-02-13,7895.226,7936.745,7857.111,7846.992,14871664.0,-44.97,-0.57,7805.209,7765.47,7707.417,14341266.6,13730433.3,11079732.3
2014-02-12,7835.06,7904.831,7902.081,7809.939,12516563.0,63.958,0.82,7748.314,7758.607,7701.898,13254760.0,13136060.6,10861441.4
2014-02-11,7814.202,7877.093,7838.123,7781.25,16917182.0,25.96,0.33,7709.416,7750.444,7696.902,12818531.2,13100950.5,10642665.2
2014-02-10,7655.567,7827.391,7812.163,7651.49,15839495.0,195.594,2.57,7689.942,7725.974,7695.311,12233992.8,12034755.45,10121495.38
2014-02-07,7515.089,7616.569,7616.569,7479.564,11561429.0,43.935,0.58,7678.017,7697.19,7695.626,13320020.2,11114045.95,9829805.13
2014-01-30,7704.492,7705.628,7572.634,7560.54,9439131.0,-134.959,-1.75,7725.732,7689.99,7716.214,13119600.0,10670391.45,9705282.93
2014-01-29,7754.18,7790.024,7707.593,7695.271,10335419.0,-33.157,-0.43,7768.899,7699.449,7743.301,13017361.2,10585799.95,9593355.28
2014-01-28,7773.552,7810.795,7740.75,7679.806,13994490.0,-11.788,-0.15,7791.471,7695.569,7764.011,13383369.8,10377323.1,9492592.48
2014-01-27,7810.234,7815.72,7752.538,7723.601,21269632.0,-102.605,-1.31,7762.006,7688.072,7776.939,11835518.1,9988578.3,9195174.1
2014-01-24,7771.58,7908.891,7855.143,7760.2,10559328.0,66.672,0.86,7716.364,7670.074,7791.755,8908071.7,8679450.45,8588813.4
2014-01-23,7818.759,7855.229,7788.471,7764.48,8927937.0,-31.982,-0.41,7654.248,7649.364,7793.864,8221182.9,8429031.3,8492122.3
2014-01-22,7612.189,7821.075,7820.453,7597.441,12165462.0,227.028,2.99,7629.998,7645.19,7809.259,8154238.7,8586822.2,8535391.65
2014-01-21,7528.786,7641.6,7593.425,7528.786,6255231.5,69.097,0.92,7599.668,7643.359,7819.607,7371276.4,8184379.9,8281279.9
2014-01-20,7526.697,7573.797,7524.328,7477.785,6632400.0,-20.237,-0.27,7614.137,7664.648,7839.412,8141638.5,8208235.3,8323092.0
2014-01-17,7637.683,7659.574,7544.565,7541.266,7124884.0,-122.654,-1.6,7623.783,7694.061,7861.531,8450829.2,8545564.3,8525847.5
2014-01-16,7677.975,7724.402,7667.219,7647.279,8593216.0,-1.583,-0.02,7644.479,7742.438,7891.688,8636879.7,8740174.4,8523488.6
2014-01-15,7660.659,7697.035,7668.802,7614.519,8250650.5,3.031,0.04,7660.383,7787.154,7920.175,9019405.7,8600910.6,8400271.78
2014-01-14,7568.603,7666.522,7665.771,7543.372,10107042.0,93.211,1.23,7687.051,7832.453,7947.406,8997483.4,8607861.85,8319212.8
2014-01-13,7646.456,7697.518,7572.56,7521.191,8178353.5,-75.483,-0.99,7715.159,7865.806,7977.751,8274832.1,8401769.9,8317587.25
2014-01-10,7723.744,7732.038,7648.043,7644.922,8055136.5,-98.694,-1.27,7764.339,7913.435,8020.614,8640299.4,8498176.35,8273338.98
2014-01-09,7774.65,7875.585,7746.737,7740.846,10505846.0,-55.406,-0.71,7840.396,7938.364,8058.244,8843469.1,8555213.3,8223310.98
2014-01-08,7816.984,7901.22,7802.143,7770.381,8141039.0,-4.169,-0.05,7913.926,7973.327,8091.397,8182415.5,8483961.1,8217970.33
2014-01-07,7760.961,7848.363,7806.312,7752.56,6493785.5,-12.146,-0.15,7977.855,7995.856,8128.999,8218240.3,8378179.9,8486914.32
2014-01-06,8013.369,8013.369,7818.458,7790.896,10005690.0,-209.872,-2.61,8016.453,8014.176,8164.667,8528707.7,8437948.7,8598292.65
2014-01-03,8077.48,8094.957,8028.33,7995.593,9070985.0,-86.058,-1.06,8062.532,8029.002,8200.078,8356053.3,8506130.7,8571298.15
2014-01-02,8083.772,8124.558,8114.388,8048.274,7200578.0,-7.4,-0.09,8036.331,8040.939,8226.701,8266957.5,8306802.8,8771083.45
2013-12-31,7968.448,8129.261,8121.788,7959.281,8320163.0,122.487,1.53,8032.728,8053.195,8251.022,8785506.7,8199632.95,9145918.65
2013-12-30,8074.691,8080.703,7999.301,7988.898,8046122.5,-49.553,-0.62,8013.856,8062.36,8269.559,8538119.5,8030563.75,9254225.4
2013-12-27,7911.229,8092.765,8048.854,7893.755,9142418.0,151.529,1.92,8011.898,8089.696,8288.426,8347189.7,8233404.6,9704655.98
2013-12-26,8067.292,8071.733,7897.325,7887.37,8625506.0,-199.045,-2.46,7995.471,8127.793,8313.114,8656208.1,8048501.6,9738454.18
2013-12-25,8038.211,8119.952,8096.37,7997.364,9793324.0,68.94,0.86,8045.547,8178.125,8345.666,8346648.1,7891408.65,10059479.03
2013-12-24,8017.248,8125.493,8027.43,7958.366,7083227.0,37.918,0.47,8073.663,8209.467,8363.22,7613759.2,7951979.55,10107421.98
2013-12-23,7991.342,8023.162,7989.512,7903.079,7091473.5,22.794,0.29,8110.863,8262.142,8380.116,7523008.0,8595648.75,10178439.68
2013-12-20,8169.216,8175.395,7966.718,7966.718,10687510.0,-180.987,-2.22,8167.494,8315.158,8399.618,8119619.5,8758636.6,10368753.25
2013-12-19,8263.687,8276.942,8147.705,8143.784,7077706.0,-89.243,-1.08,8260.114,8371.154,8421.95,7440795.1,8636465.6,10520944.35
2013-12-18,8220.328,8259.081,8236.948,8193.996,6128879.5,23.516,0.29,8310.702,8412.463,8438.166,7436169.2,9235364.1,10919956.4
2013-12-17,8282.259,8292.59,8213.432,8207.315,6629471.0,-59.236,-0.72,8345.272,8448.85,8451.852,8290199.9,10092204.35,11204046.03
2013-12-16,8441.11,8446.336,8272.668,8271.856,10074531.0,-157.149,-1.86,8413.42,8476.759,8464.241,9668289.5,10477887.05,11436613.73
2013-12-13,8323.396,8467.278,8429.817,8317.337,7293388.0,29.171,0.35,8462.822,8487.156,8476.795,9397653.7,11175907.35,11701694.13
2013-12-12,8391.759,8443.788,8400.646,8360.775,7054576.5,-9.152,-0.11,8482.194,8498.435,8470.6,9832136.1,11428406.75,12016059.28
2013-12-11,8496.438,8497.864,8409.798,8365.625,10399033.0,-144.374,-1.69,8514.223,8513.208,8458.394,11034559.0,12227549.4,12122342.25
2013-12-10,8534.345,8597.191,8554.172,8509.996,13519919.0,34.497,0.41,8552.427,8516.973,8443.454,11894208.8,12262864.4,12041074.85
2013-12-09,8562.34,8593.672,8519.675,8487.885,8721352.0,-7.006,-0.08,8540.097,8498.091,8429.711,11287484.6,11761230.6,11857193.85
2013-12-06,8555.391,8586.153,8526.681,8491.617,9465800.0,-34.109,-0.4,8511.491,8484.079,8412.161,12954161.0,11978869.9,11818758.45
2013-12-05,8598.42,8629.201,8560.79,8545.036,13066691.0,-40.028,-0.47,8514.677,8472.745,8393.597,13024677.4,12405423.1,11810945.75
2013-12-04,8482.395,8648.01,8600.818,8460.056,14697282.0,108.295,1.27,8512.192,8463.868,8377.57,13420539.8,12604548.7,11632265.2
2013-12-03,8353.791,8514.924,8492.523,8340.209,10486298.0,115.879,1.38,8481.52,8454.855,8361.922,12631520.0,12315887.7,11431544.75
2013-12-02,8461.491,8593.991,8376.644,8355.986,17054734.0,-165.964,-1.94,8456.085,8451.723,8359.882,12234976.6,12395340.4,11429676.45
2013-11-29,8552.177,8573.354,8542.608,8520.113,9818382.0,-5.759,-0.07,8456.666,8466.434,8361.897,11003578.8,12227480.9,11029045.05
2013-11-28,8471.265,8630.377,8548.367,8463.894,15046003.0,100.91,1.2,8430.813,8442.764,8357.352,11786168.8,12603711.8,11133983.65
2013-11-27,8353.081,8478.306,8447.457,8347.813,10752183.0,82.108,0.98,8415.545,8403.581,8352.154,11788557.6,12017135.1,11295495.6
2013-11-26,8364.525,8408.608,8365.349,8337.192,8503581.0,-14.201,-0.17,8428.19,8369.935,8357.449,12000255.4,11819285.3,11650425.75
2013-11-25,8351.829,8479.572,8379.55,8340.332,10897745.0,-33.794,-0.4,8447.362,8361.331,8359.128,12555704.2,11953157.1,12356987.9
2013-11-22,8496.484,8508.596,8413.344,8405.459,13731332.0,-58.679,-0.69,8476.203,8340.243,8356.985,13451383.0,11658647.0,12539407.3
2013-11-21,8469.529,8501.65,8472.023,8353.665,15057947.0,-38.659,-0.45,8454.715,8314.448,8355.298,13421254.8,11216468.4,12629169.25
2013-11-20,8546.402,8564.214,8510.682,8435.775,11810672.0,49.472,0.58,8391.617,8291.271,8356.023,12245712.6,10659981.7,12495150.1
2013-11-19,8517.117,8521.245,8461.21,8430.731,11280825.0,-62.544,-0.73,8311.68,8268.989,8356.137,11638315.2,10547201.8,12802005.4
2013-11-18,8356.91,8526.697,8523.754,8328.859,15376139.0,217.848,2.62,8275.3,8268.041,8364.058,11350610.0,10464012.5,13154411.55
2013-11-15,8163.954,8418.732,8305.906,8162.783,13580691.0,149.371,1.83,8204.284,8257.359,8374.847,9865911.0,9830609.2,13175040.45
2013-11-14,8131.642,8162.617,8156.535,8054.963,9180236.0,45.54,0.56,8174.182,8271.94,8388.795,9011682.0,9664255.5,13004629.9
2013-11-13,8221.131,8227.988,8110.995,8103.488,8773685.0,-168.313,-2.03,8190.925,8300.727,8407.028,9074250.8,10573856.1,13111296.9
2013-11-12,8179.035,8298.665,8279.308,8167.47,9842299.0,110.634,1.35,8226.298,8344.964,8428.621,9456088.4,11481566.2,13399040.7
2013-11-11,8142.385,8208.91,8168.674,8082.237,7952644.0,13.277,0.16,8260.782,8356.926,8449.673,9577415.0,12760818.7,13592725.05
2013-11-08,8185.612,8250.036,8155.397,8126.796,9309546.0,-84.855,-1.03,8310.434,8373.726,8479.245,9795307.4,13420167.6,13959874.95
2013-11-07,8277.885,8300.76,8240.252,8187.045,9493080.0,-47.608,-0.57,8369.698,8396.148,8508.373,10316829.0,14041870.1,14330744.45
2013-11-06,8409.869,8434.953,8287.86,8285.846,10682873.0,-163.868,-1.94,8410.529,8420.775,8530.65,12073461.4,14330318.5,14708659.65
2013-11-05,8357.572,8460.177,8451.728,8269.732,10448932.0,34.796,0.41,8463.63,8443.285,8549.646,13507044.0,15056809.0,14761384.05
2013-11-04,8493.314,8524.476,8416.932,8395.299,9042106.0,-34.788,-0.41,8453.069,8460.076,8561.136,15944222.4,15844810.6,15015345.25
2013-11-01,8433.757,8493.384,8451.72,8370.869,11917154.0,7.315,0.09,8437.019,8492.335,8566.018,17045027.8,16519471.7,15098458.95
2013-10-31,8516.149,8549.764,8444.405,8428.361,18276242.0,-108.961,-1.27,8422.598,8505.649,8567.047,17766911.2,16345004.3,15064495.95
2013-10-30,8402.65,8559.772,8553.366,8377.96,17850786.0,154.444,1.84,8431.021,8513.329,8566.8,16587175.6,15648737.7,14835355.35
2013-10-29,8352.165,8504.573,8398.922,8214.54,22634824.0,62.24,0.75,8422.94,8512.279,8569.817,16606574.0,15316515.2,14695694.05
2013-10-28,8398.249,8411.811,8336.682,8297.662,14546133.0,-42.931,-0.51,8467.083,8542.421,8583.111,15745398.8,14424631.4,14362706.95
2013-10-25,8488.343,8570.284,8379.613,8325.865,15526571.0,-106.911,-1.26,8547.65,8584.763,8602.241,15993915.6,14499582.3,14294436.5
2013-10-24,8486.111,8550.86,8486.524,8423.946,12377564.0,-26.434,-0.31,8588.701,8620.599,8607.298,14923097.4,14619618.8,14043191.65
2013-10-23,8640.795,8719.633,8512.958,8492.694,17947778.0,-106.678,-1.24,8595.636,8640.526,8607.661,14710299.8,15087000.8,14179518.9
2013-10-22,8727.669,8744.796,8619.636,8596.023,18328948.0,-119.884,-1.37,8601.617,8656.007,8614.963,14026456.4,14465959.1,14018075.3
2013-10-21,8608.932,8742.042,8739.52,8571.787,15788717.0,154.654,1.8,8617.759,8662.197,8618.358,13103864.0,14185879.9,13877159.45
2013-10-18,8529.557,8629.551,8584.866,8493.938,10172480.0,63.667,0.75,8621.875,8639.702,8617.126,13005249.0,13677446.2,14156043.8
2013-10-17,8583.931,8614.952,8521.199,8503.854,11313576.0,-21.667,-0.25,8652.496,8628.444,8621.664,14316140.2,13783987.6,15191771.6
2013-10-16,8664.753,8690.38,8542.866,8499.587,14528561.0,-157.479,-1.81,8685.415,8620.271,8627.435,15463701.8,14021973.0,15798057.6
2013-10-15,8756.815,8765.548,8700.345,8627.092,13715986.0,-59.755,-0.68,8710.397,8627.356,8625.529,14905461.8,14074872.9,16209907.35
2013-10-14,8736.759,8815.748,8760.1,8707.315,15295642.0,22.128,0.25,8706.634,8623.801,8604.528,15267895.8,14300782.5,16037073.15
2013-10-11,8722.425,8773.18,8737.972,8661.402,16726936.0,52.179,0.6,8657.528,8619.72,8580.826,14349643.4,14089290.7,15807438.95
2013-10-10,8684.64,8727.144,8685.793,8605.419,17051384.0,18.02,0.21,8604.392,8593.997,8561.176,13251835.0,13466764.5,15680850.85
2013-10-09,8645.632,8675.592,8667.773,8601.965,11737361.0,-13.76,-0.16,8555.127,8574.796,8545.288,12580244.2,13272037.0,15539948.95
2013-10-08,8505.106,8707.045,8681.533,8461.571,15528156.0,166.964,1.96,8544.314,8573.918,8524.078,13244284.0,13570191.5,15635794.7
2013-09-30,8485.646,8544.737,8514.569,8461.657,10704380.0,42.276,0.5,8540.968,8574.519,8500.125,13333669.2,13568439.0,15519029.55
2013-09-27,8442.136,8515.135,8472.293,8425.62,11237894.0,32.826,0.39,8581.912,8594.55,8485.122,13828938.0,14634641.4,15477976.4
2013-09-26,8578.144,8612.332,8439.467,8415.435,13693430.0,-174.243,-2.02,8583.602,8614.883,8474.476,13681694.0,16599555.6,15581450.6
2013-09-25,8642.487,8707.504,8613.71,8587.371,15057560.0,-51.091,-0.59,8594.464,8634.599,8469.591,13963829.8,17574142.2,15413510.05
2013-09-24,8718.164,8718.273,8664.801,8564.831,15975082.0,-54.487,-0.62,8603.522,8623.702,8455.634,13896099.0,18344941.8,15260035.25
2013-09-23,8503.919,8722.592,8719.288,8503.919,13180724.0,238.544,2.81,8608.07,8585.255,8430.708,13803208.8,17773363.8,15153731.55
2013-09-18,8463.02,8524.344,8480.744,8405.227,10501674.0,-13.035,-0.15,8607.189,8541.933,8406.996,15440344.8,17525587.2,15040940.55
2013-09-17,8652.501,8652.501,8493.779,8493.659,15104109.0,-165.22,-1.91,8646.165,8528.354,8394.763,19517417.2,17894937.2,15175963.6
2013-09-16,8706.382,8722.485,8658.999,8627.322,14718906.0,-28.539,-0.33,8674.734,8515.78,8381.802,21184454.6,17807860.9,15088202.65
2013-09-13,8709.053,8766.696,8687.538,8676.594,15510631.0,-27.345,-0.31,8643.881,8474.238,8363.138,22793784.6,17701397.9,15058994.85
2013-09-12,8648.66,8766.352,8714.883,8627.81,21366404.0,39.258,0.45,8562.44,8425.732,8337.166,21743518.8,17469620.1,15318982.4
2013-09-11,8636.712,8722.386,8675.625,8622.261,30887036.0,38.999,0.45,8476.677,8375.693,8312.865,19610829.6,16321311.4,14788234.85
2013-09-10,8535.54,8636.626,8636.626,8498.383,23439296.0,131.891,1.55,8410.543,8334.068,8295.924,16272457.2,14563345.6,14025000.1
2013-09-09,8334.424,8537.924,8504.735,8319.101,22765556.0,224.402,2.71,8356.826,8304.583,8282.226,14431267.2,13252877.9,13558869.75
2013-09-06,8277.143,8354.314,8280.333,8256.115,10259302.0,-5.731,-0.07,8304.594,8287.567,8274.826,12609011.2,12175128.7,13285584.35
2013-09-05,8352.002,8364.07,8286.064,8274.191,10702958.0,-58.894,-0.71,8289.024,8276.161,8268.107,13195721.4,12534099.3,13377977.8
2013-09-04,8354.492,8400.811,8344.958,8330.524,14195174.0,-23.08,-0.28,8274.709,8272.059,8259.547,13031793.2,12556293.9,13405730.9
2013-09-03,8257.456,8374.313,8368.038,8245.006,14233346.0,124.461,1.51,8257.594,8261.172,8247.104,12854234.0,12456990.0,13471492.7
2013-09-02,8214.945,8269.821,8243.577,8148.172,13654276.0,41.096,0.5,8252.34,8247.824,8235.859,12074488.6,12368544.4,13563873.65
2013-08-30,8197.186,8290.387,8202.481,8163.106,13192853.0,-12.01,-0.15,8270.539,8252.039,8226.699,11741246.2,12416591.8,13408306.95
2013-08-29,8287.24,8306.315,8214.491,8177.289,9883317.0,-44.89,-0.54,8263.298,8248.6,8214.648,11872477.2,13168344.7,13336097.85
2013-08-28,8286.885,8338.294,8259.381,8197.402,13307378.0,-82.391,-0.99,8269.408,8250.038,8200.513,12080794.6,13255158.3,13416169.65
2013-08-27,8325.965,8352.401,8341.772,8280.723,10334619.0,7.201,0.09,8264.75,8257.78,8175.814,12059746.0,13486654.6,13308124.0
2013-08-26,8200.164,8346.701,8334.571,8180.278,11988064.0,168.294,2.06,8243.308,8259.868,8145.234,12662600.2,13864861.6,13359838.6
2013-08-23,8281.185,8307.018,8166.277,8045.801,13849008.0,-78.763,-0.95,8233.538,8262.084,8111.932,13091937.4,14396040.0,13337630.0
2013-08-22,8223.296,8325.774,8245.04,8202.049,10924904.0,8.95,0.11,8233.901,8260.053,8095.786,14464212.2,14221856.3,13228993.95
2013-08-21,8264.717,8268.652,8236.09,8174.215,13202135.0,1.528,0.02,8230.667,8247.036,8078.265,14429522.0,14255167.9,13418855.65
2013-08-20,8269.823,8357.731,8234.562,8192.845,13348890.0,-51.161,-0.62,8250.81,8233.036,8063.252,14913563.2,14485995.4,13387697.6
2013-08-19,8110.803,8319.532,8285.723,8104.408,14134750.0,117.635,1.44,8276.428,8223.893,8049.71,15067123.0,14759202.9,13401387.45
2013-08-16,8204.12,8476.05,8168.088,8152.686,20710382.0,-60.784,-0.74,8290.63,8201.359,8019.635,15700142.6,14400022.1,13141782.55
2013-08-15,8342.633,8383.586,8228.872,8225.785,10751453.0,-107.935,-1.29,8286.206,8180.697,7994.43,13979500.4,13503851.0,12819614.9
2013-08-14,8375.026,8467.782,8336.807,8303.411,15622341.0,-25.845,-0.31,8263.405,8150.989,7978.199,14080813.8,13577181.0,12785483.85
2013-08-13,8353.259,8366.672,8362.652,8290.22,14116689.0,5.919,0.07,8215.262,8093.848,7964.549,14058427.6,13129593.4,12652144.5
2013-08-12,8181.948,8357.82,8356.733,8173.758,17299848.0,210.766,2.59,8171.358,8030.6,7955.751,14451282.8,12854815.6,12658126.15
2013-08-09,8158.383,8214.684,8145.967,8061.608,12107171.0,31.101,0.38,8112.088,7961.78,7944.803,13099901.6,12279220.0,12513468.3
2013-08-08,8090.664,8170.715,8114.866,8065.632,11258020.0,18.775,0.23,8075.189,7931.519,7938.146,13028201.6,12236131.6,12751238.35
2013-08-07,8167.105,8250.866,8096.091,8084.051,15510410.0,-47.04,-0.58,8038.573,7909.493,7941.641,13073548.2,12582543.4,13380507.65
2013-08-06,8033.671,8170.499,8143.131,7980.398,16080965.0,82.744,1.03,7972.434,7893.469,7929.399,12200759.2,12289399.8,13197921.8
2013-08-05,7955.378,8060.387,8060.387,7930.457,10542942.0,98.918,1.24,7889.842,7875.526,7902.266,11258348.4,12043572.0,12750023.73
2013-08-02,8023.726,8084.903,7961.469,7957.17,11748671.0,29.683,0.37,7811.471,7837.91,7881.128,11458538.4,11883543.0,12745673.18
2013-08-01,7819.446,7967.029,7931.786,7789.928,11484753.0,166.39,2.14,7787.85,7808.162,7875.884,11444061.6,12135378.8,12771302.98
2013-07-31,7849.546,7956.406,7765.396,7748.298,11146465.0,35.225,0.46,7780.413,7805.41,7869.501,12091538.6,11993786.7,12938694.33
2013-07-30,7690.446,7858.543,7730.171,7619.364,11368911.0,61.636,0.8,7814.504,7835.25,7866.418,12378040.4,12174695.6,12981328.38
2013-07-29,7772.16,7772.16,7668.535,7639.163,11543892.0,-174.827,-2.23,7861.21,7880.902,7868.351,12828795.6,12461436.7,13018592.63
2013-07-26,7845.218,7905.4,7843.362,7787.388,11676287.0,-51.241,-0.65,7864.348,7927.825,7870.848,12308547.6,12747716.6,12998134.78
2013-07-25,7948.95,7996.633,7894.603,7849.13,14722138.0,-41.245,-0.52,7828.473,7944.773,7863.403,12826696.0,13266345.1,12997879.58
2013-07-24,7945.285,7995.321,7935.848,7817.913,12578974.0,-27.855,-0.35,7830.406,7973.789,7845.89,11896034.8,14178471.9,12771246.28
2013-07-23,7737.027,7998.41,7963.703,7726.056,13622687.0,279.477,3.64,7855.997,7965.33,7827.417,11971350.8,14106443.8,12682291.18
2013-07-22,7608.683,7717.721,7684.226,7566.749,8942652.0,20.24,0.26,7900.593,7929.007,7803.987,12094077.8,13456475.45,12726523.83
2013-07-19,7914.269,7937.628,7663.986,7663.986,14267029.0,-240.282,-3.04,7991.302,7924.347,7799.201,13186885.6,13607803.35,12906362.28
2013-07-18,8026.609,8064.021,7904.268,7887.362,10068832.0,-159.534,-1.98,8061.073,7943.607,7822.804,13705994.2,13407227.15,12601218.03
2013-07-17,8161.648,8215.606,8063.802,8055.992,12955554.0,-122.882,-1.5,8117.173,7933.592,7834.965,16460909.0,13883601.95,12445189.98
2013-07-16,8109.845,8201.076,8186.684,8050.147,14236322.0,48.914,0.6,8074.662,7897.585,7852.837,16241536.8,13787961.15,12216370.13
2013-07-15,8072.751,8247.673,8137.77,8003.988,14406691.0,124.929,1.56,7957.42,7855.8,7867.046,14818873.1,13575748.55,11835506.73
2013-07-12,8171.008,8218.194,8012.841,7999.443,16862572.0,-171.926,-2.1,7857.391,7813.871,7880.383,14028721.1,13248552.95,11456337.85
2013-07-11,7858.072,8281.551,8184.767,7849.488,23843406.0,333.518,4.25,7826.141,7782.034,7903.714,13108460.1,12729414.05,10930312.15
2013-07-10,7609.398,7851.249,7851.249,7584.116,11858693.0,250.777,3.3,7750.011,7717.99,7916.097,11306294.9,11364020.65,10165220.8
2013-07-09,7624.131,7684.222,7600.472,7570.536,7123003.5,-37.155,-0.49,7720.508,7689.504,7961.714,11334385.5,11258138.55,9998579.05
2013-07-08,7741.407,7810.999,7637.627,7634.292,10455931.0,-218.964,-2.79,7754.181,7678.967,8031.745,12332624.0,11996572.2,9990026.57
2013-07-05,7852.626,7968.869,7856.591,7852.626,12261267.0,52.477,0.67,7770.351,7674.056,8107.036,12468384.8,12204921.2,9749675.18
2013-07-04,7641.449,7901.909,7804.114,7597.259,14832580.0,100.378,1.3,7737.926,7702.002,8170.42,12350368.0,11795208.9,9487395.88
2013-07-03,7748.592,7748.592,7703.736,7591.577,11999146.0,-65.1,-0.84,7685.969,7736.339,8242.776,11421746.4,11006778.0,9058766.07
2013-07-02,7720.771,7796.561,7768.836,7652.66,12114196.0,50.359,0.65,7658.501,7808.089,8320.487,11181891.6,10644779.1,8818636.63
2013-07-01,7649.296,7725.924,7718.477,7544.775,11134735.0,24.011,0.31,7603.753,7878.292,8401.005,11660520.4,10095264.9,8580398.63
2013-06-28,7508.353,7841.75,7694.466,7479.899,11671183.0,150.137,1.99,7577.762,7946.894,8485.301,11941457.6,9664122.75,8561188.07
2013-06-27,7598.931,7712.401,7544.329,7544.329,10189472.0,-22.067,-0.29,7666.078,8025.394,8572.662,11240049.8,9131210.25,8455003.48
2013-06-26,7544.893,7591.096,7566.396,7409.248,10799872.0,71.3,0.95,7786.709,8114.203,8658.477,10591809.6,8966420.95,8264352.03
2013-06-25,7486.827,7582.366,7495.096,7045.595,14507340.0,-93.426,-1.23,7957.678,8233.924,8745.4,10107666.6,8739019.55,8076204.2
2013-06-24,8115.841,8115.841,7588.522,7558.027,12539421.0,-547.524,-6.73,8152.832,8384.524,8833.929,8530009.4,7983480.95,7817030.2
2013-06-21,8012.916,8189.701,8136.046,7969.964,8164144.0,-11.437,-0.14,8316.027,8540.016,8924.756,7386787.9,7294429.15,7644298.4
2013-06-20,8369.044,8388.428,8147.483,8138.572,6948271.0,-273.759,-3.25,8384.71,8638.838,8988.131,7022370.7,7179582.85,7688089.95
2013-06-19,8428.649,8431.967,8421.242,8257.421,8379157.0,-49.623,-0.59,8441.698,8749.214,9046.114,7341032.3,7110754.15,7893059.1
2013-06-18,8433.51,8497.646,8470.865,8369.198,6619054.0,66.365,0.79,8510.171,8832.885,9087.366,7370372.5,6992494.15,8016185.65
2013-06-17,8500.035,8521.031,8404.5,8357.618,6823313.5,-74.958,-0.88,8616.216,8923.717,9116.889,7436952.5,7065532.35,8131657.4
2013-06-14,8459.051,8501.716,8479.458,8433.276,6342058.0,47.033,0.56,8764.004,9023.708,9140.157,7202070.4,7458253.4,8109472.45
2013-06-13,8642.322,8642.322,8432.425,8362.02,8541579.0,-331.182,-3.78,8892.966,9119.93,9156.638,7336795.0,7778796.7,8111242.0
2013-06-07,8992.265,9012.159,8763.607,8728.492,8525858.0,-237.482,-2.64,9056.73,9202.751,9185.731,6880476.0,7562283.1,7968968.13
2013-06-06,9105.426,9147.63,9001.089,8995.706,6951954.0,-142.353,-1.56,9155.598,9256.877,9201.109,6614615.8,7413388.85,7819393.95
2013-06-05,9133.167,9147.363,9143.442,9066.275,5648903.0,19.173,0.21,9231.219,9283.335,9203.558,6694112.2,7650579.45,7888687.4
2013-06-04,9254.629,9254.629,9124.269,9091.617,7015681.0,-126.973,-1.37,9283.411,9309.497,9200.128,7714436.4,7994167.65,7964514.25
2013-06-03,9259.482,9345.664,9251.242,9227.216,6259984.0,-6.707,-0.07,9346.895,9337.424,9195.06,8220798.4,8196597.05,7991777.18
2013-05-31,9397.309,9429.541,9257.949,9256.952,7196557.0,-121.244,-1.29,9348.773,9343.015,9182.351,8244090.2,8675364.05,8061621.03
2013-05-30,9388.816,9427.746,9379.193,9340.117,7349436.0,-25.208,-0.27,9358.155,9341.847,9161.838,8212161.9,9039877.15,8104504.43
2013-05-29,9456.212,9511.184,9404.401,9398.667,10750524.0,-37.287,-0.4,9335.451,9310.061,9128.788,8607046.7,9197782.45,8077933.6
2013-05-28,9263.827,9441.688,9441.688,9199.405,9547491.0,181.056,1.96,9335.583,9256.606,9093.137,8273898.9,8760691.5,7815002.25
2013-05-27,9278.218,9323.21,9260.632,9223.724,6376443.0,-44.228,-0.47,9327.953,9193.346,9059.682,8172395.7,8443687.3,7726110.08
2013-05-24,9288.049,9365.296,9304.86,9206.83,7036915.5,39.184,0.42,9337.257,9168.711,9042.232,9106637.9,8375653.15,7836717.68
2013-05-23,9362.73,9445.399,9265.676,9242.464,9323860.0,-139.385,-1.48,9325.54,9145.341,9016.646,9867592.4,8225399.05,7901981.95
2013-05-22,9400.79,9462.021,9405.061,9347.926,9084785.0,1.526,0.02,9284.67,9123.781,9006.243,9788518.2,8126795.35,7857370.2
2013-05-21,9314.763,9403.535,9403.535,9292.421,9039975.0,96.384,1.04,9177.629,9090.759,8991.549,9247484.1,7934860.85,7877768.7
2013-05-20,9274.13,9396.272,9307.151,9255.688,11047654.0,60.875,0.66,9058.739,9052.696,8965.774,8714978.9,7786957.3,7749049.85
2013-05-17,9060.529,9264.212,9246.276,9059.248,10841688.0,184.948,2.04,9000.165,9021.688,8945.134,7644668.4,7447878.0,7529848.83
2013-05-16,8838.951,9061.328,9061.328,8791.347,8928489.0,191.474,2.16,8965.142,8981.828,8925.442,6583205.7,7169131.7,7372153.3
2013-05-15,8823.844,8888.671,8869.854,8808.349,6379614.5,60.769,0.69,8962.892,8947.515,8909.047,6465072.5,6958084.75,7262690.9
2013-05-14,9003.47,9007.219,8809.085,8773.795,6377449.0,-205.197,-2.28,9003.889,8929.668,8907.312,6622237.6,6869313.0,7236332.25
2013-05-13,9080.101,9110.449,9014.282,8975.702,5696101.5,-56.879,-0.63,9046.653,8926.017,8912.893,6858935.7,7008532.85,7191153.53
2013-05-10,9014.566,9117.3,9071.161,8994.44,5534374.5,21.081,0.23,9043.211,8915.754,8910.294,7251087.6,7297782.2,7268572.75
2013-05-09,9071.11,9101.576,9050.08,8959.814,8337823.0,-24.758,-0.27,8998.514,8887.951,8906.392,7755057.7,7578564.85,7343267.05
2013-05-08,9081.132,9170.834,9074.838,9039.068,7165440.0,51.936,0.58,8932.138,8888.705,8901.58,7451097.0,7587945.05,7353664.95
2013-05-07,8974.174,9072.711,9022.902,8940.71,7560939.5,25.826,0.29,8855.447,8892.34,8896.061,7116388.4,7820676.55,7249082.65
2013-05-06,8887.223,9016.424,8997.076,8868.529,7656861.0,149.401,1.69,8805.382,8878.851,8892.939,7158130.0,7711142.4,7190465.18
2013-05-03,8736.484,8967.092,8847.675,8736.484,8054225.0,129.478,1.49,8788.297,8868.581,8889.973,7344476.8,7611819.65,7090922.55
2013-05-02,8643.897,8726.137,8718.197,8597.714,6818019.5,26.811,0.31,8777.389,8869.055,8892.077,7402072.0,7575174.9,6942668.1
2013-04-26,8809.191,8857.891,8691.386,8667.583,5491897.0,-81.19,-0.93,8845.273,8870.58,8904.131,7724793.1,7567297.05,7056170.28
2013-04-25,8870.693,8941.271,8772.576,8758.279,7769647.5,-139.074,-1.56,8929.233,8884.956,8930.818,8524964.7,7603351.5,7098153.08
2013-04-24,8786.416,8985.022,8911.65,8742.189,8588595.0,118.516,1.35,8952.321,8899.769,8953.521,8264154.8,7373774.2,7077819.03
2013-04-23,9055.227,9055.467,8793.134,8783.774,8342201.0,-264.483,-2.92,8948.864,8904.834,8973.595,7879162.5,7239363.3,6995042.0
2013-04-22,9095.73,9140.448,9057.617,9012.717,8431625.0,-53.569,-0.59,8960.722,8924.832,9001.108,7748277.8,7107969.25,6949413.95
2013-04-19,8910.429,9142.896,9111.186,8903.702,9492755.0,223.17,2.51,8895.886,8914.454,9014.542,7409801.0,7119384.85,6933090.38
2013-04-18,8837.253,8996.629,8888.016,8813.046,6465598.0,-6.352,-0.07,8840.679,8899.782,9024.882,6681738.3,6677488.75,7021793.73
2013-04-17,8852.783,8917.691,8894.368,8819.96,6663633.5,41.947,0.47,8847.218,8907.026,9032.183,6483393.6,6669787.95,7040647.25
2013-04-16,8656.228,8861.212,8852.421,8645.185,7687777.5,118.98,1.36,8860.804,8911.365,9037.415,6599564.1,6570025.45,7083508.73
2013-04-15,8792.909,8818.179,8733.441,8694.172,6739241.0,-101.706,-1.15,8888.943,8915.1,9049.758,6467660.7,6310161.3,7207533.7
2013-04-12,8911.375,8975.443,8835.147,8823.832,5852441.5,-85.566,-0.96,8933.022,8937.682,9067.449,6828968.7,6545043.5,7163974.73
2013-04-11,9017.614,9036.948,8920.713,8915.71,5473874.5,-41.586,-0.46,8958.886,8976.68,9079.353,6673239.2,6592954.65,7251128.98
2013-04-10,8994.441,9006.924,8962.299,8891.138,7244486.0,-30.815,-0.34,8966.835,9007.272,9091.499,6856182.3,6781863.85,7403389.75
2013-04-09,8965.617,9067.248,8993.114,8961.882,7028260.5,39.278,0.44,8961.926,9042.355,9107.242,6540486.8,6750720.7,7371225.3
2013-04-08,8828.069,8960.982,8953.836,8748.741,8545781.0,-10.631,-0.12,8941.257,9077.385,9121.878,6152661.9,6790858.65,7394143.55
2013-04-03,9007.648,9062.11,8964.467,8930.993,5073794.0,4.01,0.04,8942.342,9114.631,9143.871,6261118.3,6746795.9,7570697.8
2013-04-02,8974.019,9112.931,8960.457,8928.32,6388590.0,22.702,0.25,8994.474,9149.981,9167.206,6512670.1,7366098.7,7922380.05
2013-04-01,8901.643,9000.205,8937.755,8884.175,5666008.5,47.986,0.54,9047.71,9157.339,9186.251,6707545.4,7411506.55,8193960.35
2013-03-29,8976.08,8996.428,8889.769,8879.293,5089136.0,-69.493,-0.78,9122.784,9163.465,9196.35,6960954.6,7596992.0,8806997.53
2013-03-28,9099.479,9099.479,8959.262,8946.173,9088063.0,-265.864,-2.88,9213.513,9184.417,9234.369,7429055.4,8104906.1,9027250.43
2013-03-27,9220.349,9357.524,9225.126,9168.626,6331553.0,-1.51,-0.02,9286.919,9197.216,9268.478,7232473.5,7782905.95,9162254.18
2013-03-26,9290.052,9339.346,9226.636,9149.141,7362966.5,-86.492,-0.93,9305.488,9182.026,9273.883,8219527.3,7909303.3,9252179.18
2013-03-25,9368.888,9393.478,9313.128,9279.954,6933054.5,-30.284,-0.32,9266.968,9175.726,9272.953,8115467.7,8024915.65,9392928.75
2013-03-22,9319.217,9371.899,9343.412,9285.846,7429640.0,17.118,0.18,9204.146,9172.129,9274.415,8233029.4,7991729.9,9387099.38
2013-03-21,9315.859,9382.908,9326.294,9263.524,8105153.5,8.324,0.09,9155.321,9166.372,9275.472,8780756.8,7997428.45,9394698.05
2013-03-20,9035.652,9329.723,9317.97,9027.817,11266822.0,283.932,3.14,9107.513,9173.111,9278.962,8333338.4,8394599.7,9647530.93
2013-03-19,9013.293,9081.032,9034.038,8930.062,6842668.5,35.02,0.39,9058.563,9184.431,9295.358,7599079.3,8478661.4,9519336.82
2013-03-18,9048.361,9152.302,8999.018,8975.63,7520863.0,-100.269,-1.1,9084.484,9215.162,9321.202,7934363.6,8976414.15,9699146.15
2013-03-15,9087.37,9312.126,9099.287,8937.069,10168277.0,12.034,0.13,9140.112,9229.236,9361.047,7750430.4,10017003.05,9808768.8
2013-03-14,9029.838,9137.546,9087.253,9009.012,5868061.5,14.032,0.15,9177.422,9284.321,9405.537,7214100.1,9949594.75,9733230.6
2013-03-13,9150.947,9159.136,9073.221,9028.762,7595526.5,-90.422,-0.99,9238.709,9339.74,9446.413,8455861.0,10541602.4,9962519.53
2013-03-12,9268.172,9396.414,9163.643,9082.575,8519090.0,-113.515,-1.22,9310.298,9365.741,9488.888,9358243.5,10595055.05,10107167.4
2013-03-11,9256.964,9340.91,9277.158,9155.94,6601197.0,-8.675,-0.09,9345.84,9370.18,9528.005,10018464.7,10760941.85,10411084.7
2013-03-08,9396.85,9417.301,9285.833,9282.528,7486625.5,-107.859,-1.15,9318.359,9376.701,9552.188,12283575.7,10782468.85,10958366.15
2013-03-07,9409.205,9506.29,9393.692,9268.477,12076866.0,-37.473,-0.4,9391.221,9384.572,9578.911,12685089.4,10791967.65,11312741.73
2013-03-06,9396.75,9444.987,9431.165,9342.376,12107439.0,89.812,0.96,9440.77,9384.814,9592.61,12627343.8,10900462.15,11334159.58
2013-03-05,9138.496,9353.255,9341.353,9085.357,11820196.0,201.602,2.21,9421.184,9406.284,9610.244,11831866.6,10560012.25,11354320.63
2013-03-04,9393.73,9397.822,9139.751,9081.437,17926752.0,-510.393,-5.29,9394.52,9427.242,9628.409,11503419.0,10421878.15,11514534.53
2013-03-01,9630.871,9679.445,9650.144,9497.714,9494194.0,8.708,0.09,9435.044,9492.858,9652.368,9281362.0,9600534.55,11257355.33
2013-02-28,9393.332,9641.436,9641.436,9350.645,11788138.0,308.199,3.3,9377.923,9526.753,9637.717,8898845.9,9516866.45,11191406.1
2013-02-27,9241.66,9375.716,9333.237,9232.877,8130053.0,125.205,1.36,9328.857,9553.087,9627.849,9173580.5,9383436.65,11354670.05
2013-02-26,9291.882,9428.775,9208.032,9193.926,10177958.0,-134.338,-1.44,9391.384,9612.035,9638.603,9288157.9,9619279.75,11450192.4
2013-02-25,9399.454,9449.323,9342.37,9305.063,6816467.0,-22.17,-0.24,9459.964,9685.829,9655.019,9340337.3,10061227.55,11743540.25
2013-02-22,9386.466,9454.148,9364.54,9353.865,7581613.5,-31.568,-0.34,9550.672,9727.675,9666.043,9919707.1,11134263.45,11946784.3
2013-02-21,9553.759,9553.759,9396.108,9290.194,13161811.0,-249.763,-2.59,9675.582,9773.251,9669.431,10134887.0,11833515.8,12004214.18
2013-02-20,9548.175,9646.598,9645.871,9510.757,8702940.0,94.94,0.99,9777.316,9800.407,9665.087,9593292.8,11767857.0,11750457.0
2013-02-19,9787.042,9787.042,9550.931,9519.74,10438855.0,-244.977,-2.5,9832.685,9814.204,9650.567,9950401.6,12148629.0,11834006.0
2013-02-18,10036.381,10049.534,9795.908,9765.909,9713316.0,-193.185,-1.93,9911.694,9829.576,9642.105,10782117.8,12607190.9,11931142.7
2013-02-08,9880.26,10057.972,9989.093,9880.26,8657513.0,84.318,0.85,9904.679,9811.878,9618.123,12348819.8,12914176.1,12005947.9
2013-02-07,9896.225,9934.295,9904.775,9782.5,10453840.0,-17.943,-0.18,9870.919,9748.681,9569.555,13532144.6,12865945.75,12008662.2
2013-02-06,9942.038,9973.537,9922.718,9884.127,10488484.0,-23.258,-0.23,9823.498,9702.612,9532.819,13942421.2,13325903.45,11907873.65
2013-02-05,9717.555,9971.64,9945.976,9709.597,14597436.0,185.145,1.9,9795.723,9665.171,9494.427,14346856.4,13281105.05,11864633.8
2013-02-04,9830.895,9858.567,9760.831,9693.618,17546826.0,-59.463,-0.61,9747.459,9624.209,9452.651,14432264.0,13425852.95,11563659.05
2013-02-01,9648.917,9820.827,9820.294,9609.836,14574137.0,152.622,1.58,9719.076,9604.411,9420.033,13479532.4,12759305.15,11144014.8
2013-01-31,9788.263,9804.727,9667.672,9637.578,12505223.0,-116.169,-1.19,9626.444,9565.611,9383.821,12199746.9,12174912.55,11005956.65
2013-01-30,9695.406,9788.469,9783.841,9667.676,12510660.0,79.185,0.82,9581.726,9529.767,9356.262,12709385.7,11733057.0,10926314.8
2013-01-29,9636.325,9735.222,9704.656,9627.657,15024474.0,85.737,0.89,9534.62,9486.93,9318.419,12215353.7,11519383.0,10737328.6
2013-01-28,9361.312,9618.919,9618.919,9361.312,12783168.0,261.789,2.8,9500.96,9454.634,9280.179,12419441.9,11255094.5,10504143.9
2013-01-25,9432.606,9445.999,9357.13,9353.387,8175209.5,-86.952,-0.92,9489.745,9424.369,9246.267,12039077.9,11097719.7,10357331.3
2013-01-24,9540.628,9736.124,9444.082,9385.455,15053417.0,-104.229,-1.09,9504.778,9390.43,9222.989,12150078.2,11151378.65,10652163.23
2013-01-23,9495.732,9566.527,9548.311,9434.023,10040500.0,11.955,0.12,9477.808,9363.027,9182.354,10756728.3,10489843.85,10241625.8
2013-01-22,9591.822,9623.015,9536.356,9456.207,16044915.0,-26.49,-0.28,9439.241,9323.683,9137.855,10823412.3,10448162.55,10225461.3
2013-01-21,9543.242,9562.846,9562.846,9465.89,10881348.0,130.551,1.38,9408.308,9281.093,9095.699,10090747.1,9701465.15,9899868.8
2013-01-18,9358.399,9475.466,9432.295,9286.047,8730211.0,123.065,1.32,9358.994,9235.655,9049.535,10156361.5,9528724.45,9872877.5
2013-01-17,9335.045,9373.413,9309.23,9258.576,8086667.5,-46.247,-0.49,9276.081,9202.032,9007.552,10152679.1,9837000.75,10022848.35
2013-01-16,9359.339,9438.125,9355.477,9232.334,10373920.0,-26.216,-0.28,9248.246,9182.757,8972.107,10222959.4,10119572.6,10287000.32
2013-01-15,9332.903,9432.84,9381.693,9312.869,12381589.0,65.42,0.7,9208.126,9149.908,8930.878,10072912.8,9955274.2,10469687.73
2013-01-14,8981.739,9330.591,9316.273,8976.02,11209420.0,298.54,3.31,9153.877,9105.724,8870.361,9312183.2,9753193.3,10140855.5
2013-01-11,9185.172,9219.176,9017.733,8988.3,8711799.0,-152.322,-1.66,9112.316,9068.165,8816.85,8901087.4,9616942.9,9855727.28
2013-01-10,9151.813,9262.666,9170.055,9121.588,8438069.0,15.181,0.17,9127.982,9055.548,8776.991,9521322.4,10152947.8,9731737.75
2013-01-09,9077.499,9178.833,9154.874,9066.823,9623687.0,44.423,0.49,9117.268,9001.68,8731.778,10016185.8,9993407.75,9776019.65
2013-01-08,9102.033,9143.389,9110.451,9010.158,8577941.0,1.986,0.02,9091.691,8952.028,8683.518,9837635.6,10002760.05,9830193.3
2013-01-07,9073.968,9132.786,9108.465,9033.953,9153941.0,12.4,0.14,9057.571,8910.305,8631.57,10194203.4,10098272.45,9704837.45
2013-01-04,9204.114,9217.007,9096.065,8991.742,11812974.0,-20.419,-0.22,9024.014,8863.415,8580.731,10332798.4,10217030.55,9758388.3
2012-12-31,9042.975,9119.198,9116.484,9007.106,10912386.0,89.494,0.99,8983.115,8813.072,8516.015,10784573.2,10208695.95,9409654.4
2012-12-28,8953.342,9038.616,9026.99,8926.967,8730936.0,87.14,0.97,8886.092,8761.457,8484.411,9970629.7,10454428.05,9330563.26
2012-12-27,8976.626,9036.937,8939.85,8910.746,10360780.0,-0.83,-0.01,8812.364,8711.848,8454.268,10167884.5,10984101.25,9363875.89
2012-12-26,8887.386,8941.112,8940.68,8872.504,9846916.0,49.109,0.55,8763.039,8634.998,8425.704,10002341.5,10528517.7,9305234.47
2012-12-25,8613.279,8941.145,8891.571,8571.7,14071848.0,260.2,3.02,8702.816,8565.536,8393.518,10101262.7,10094511.65,9271379.38
2012-12-24,8647.423,8702.024,8631.371,8605.953,6842668.5,-26.977,-0.31,8643.029,8498.433,8360.315,9632818.7,9310527.7,8951348.13
2012-12-21,8702.735,8815.034,8658.348,8630.67,9717210.0,-34.878,-0.4,8636.821,8461.875,8340.953,10938226.4,9558631.55,9101968.11
2012-12-20,8604.204,8719.875,8693.226,8532.717,9533065.0,53.662,0.62,8611.331,8415.009,8316.538,11800318.0,9657626.55,9054641.81
2012-12-19,8579.675,8686.12,8639.564,8558.254,10341522.0,46.93,0.55,8506.956,8352.835,8285.148,11054693.9,9311402.45,9014773.21
2012-12-18,8576.27,8711.782,8592.634,8511.398,11729628.0,-7.7,-0.09,8428.256,8298.046,8252.928,10087760.6,9299746.05,8894159.68
2012-12-17,8545.026,8659.022,8600.334,8545.026,13369707.0,69.436,0.81,8353.838,8218.958,8218.958,8988236.7,8610612.85,8610612.85
2012-12-14,8183.717,8536.537,8530.898,8183.717,14027668.0,359.549,4.4,8286.929,8176.582,8176.582,8179036.7,8081824.61,8081824.61
2012-12-13,8222.567,8259.91,8171.349,8171.349,5804944.5,-74.715,-0.91,8218.686,8132.293,8132.293,7514935.1,7338594.19,7338594.19
2012-12-12,8221.382,8278.464,8246.064,8168.639,5506855.5,25.521,0.31,8198.714,8126.714,8126.714,7568111.0,7557687.0,7557687.0
2012-12-11,8230.025,8285.822,8220.543,8201.251,6232008.5,-45.25,-0.55,8167.837,8106.822,8106.822,8511731.5,7899492.25,7899492.25
2012-12-10,8199.182,8285.65,8265.793,8150.028,9323707.0,76.113,0.93,8084.078,8084.078,8084.078,8232989.0,8232989.0,8232989.0
2012-12-07,8046.484,8211.636,8189.68,8007.401,10707160.0,118.189,1.46,8038.649,8038.649,8038.649,7960309.5,7960309.5,7960309.5
2012-12-06,8081.82,8135.143,8071.491,8010.214,6070824.0,-20.187,-0.25,7988.305,7988.305,7988.305,7044692.67,7044692.67,7044692.67
2012-12-05,7783.026,8150.395,8091.678,7782.684,10224958.0,289.932,3.72,7946.712,7946.712,7946.712,7531627.0,7531627.0,7531627.0
2012-12-04,7684.488,7828.118,7801.746,7660.45,4838296.0,90.871,1.18,7801.746,7801.746,7801.746,4838296.0,4838296.0,4838296.0
